<?xml version="1.0" encoding="utf-8"?>
<!DOCTYPE eagle SYSTEM "eagle.dtd">
<eagle version="6.1">
<drawing>
<settings>
<setting alwaysvectorfont="no"/>
<setting verticaltext="up"/>
</settings>
<grid distance="0.05" unitdist="inch" unit="inch" style="lines" multiple="1" display="yes" altdistance="0.025" altunitdist="inch" altunit="inch"/>
<layers>
<layer number="1" name="Top" color="4" fill="1" visible="yes" active="yes"/>
<layer number="2" name="Route2" color="1" fill="3" visible="yes" active="yes"/>
<layer number="3" name="Route3" color="4" fill="3" visible="no" active="yes"/>
<layer number="4" name="Route4" color="1" fill="4" visible="no" active="yes"/>
<layer number="5" name="Route5" color="4" fill="4" visible="no" active="yes"/>
<layer number="6" name="Route6" color="1" fill="8" visible="no" active="yes"/>
<layer number="7" name="Route7" color="4" fill="8" visible="no" active="yes"/>
<layer number="8" name="Route8" color="1" fill="2" visible="no" active="yes"/>
<layer number="9" name="Route9" color="4" fill="2" visible="no" active="yes"/>
<layer number="10" name="Route10" color="1" fill="7" visible="no" active="yes"/>
<layer number="11" name="Route11" color="4" fill="7" visible="no" active="yes"/>
<layer number="12" name="Route12" color="1" fill="5" visible="no" active="yes"/>
<layer number="13" name="Route13" color="4" fill="5" visible="no" active="yes"/>
<layer number="14" name="Route14" color="1" fill="6" visible="no" active="yes"/>
<layer number="15" name="Route15" color="4" fill="6" visible="yes" active="yes"/>
<layer number="16" name="Bottom" color="1" fill="1" visible="yes" active="yes"/>
<layer number="17" name="Pads" color="2" fill="1" visible="yes" active="yes"/>
<layer number="18" name="Vias" color="2" fill="1" visible="yes" active="yes"/>
<layer number="19" name="Unrouted" color="6" fill="1" visible="yes" active="yes"/>
<layer number="20" name="Dimension" color="15" fill="1" visible="yes" active="yes"/>
<layer number="21" name="tPlace" color="7" fill="1" visible="yes" active="yes"/>
<layer number="22" name="bPlace" color="7" fill="1" visible="yes" active="yes"/>
<layer number="23" name="tOrigins" color="15" fill="1" visible="yes" active="yes"/>
<layer number="24" name="bOrigins" color="15" fill="1" visible="yes" active="yes"/>
<layer number="25" name="tNames" color="7" fill="1" visible="yes" active="yes"/>
<layer number="26" name="bNames" color="7" fill="1" visible="yes" active="yes"/>
<layer number="27" name="tValues" color="7" fill="1" visible="yes" active="yes"/>
<layer number="28" name="bValues" color="7" fill="1" visible="yes" active="yes"/>
<layer number="29" name="tStop" color="7" fill="3" visible="no" active="yes"/>
<layer number="30" name="bStop" color="7" fill="6" visible="no" active="yes"/>
<layer number="31" name="tCream" color="7" fill="4" visible="no" active="yes"/>
<layer number="32" name="bCream" color="7" fill="5" visible="no" active="yes"/>
<layer number="33" name="tFinish" color="6" fill="3" visible="no" active="yes"/>
<layer number="34" name="bFinish" color="6" fill="6" visible="no" active="yes"/>
<layer number="35" name="tGlue" color="7" fill="4" visible="no" active="yes"/>
<layer number="36" name="bGlue" color="7" fill="5" visible="no" active="yes"/>
<layer number="37" name="tTest" color="7" fill="1" visible="no" active="yes"/>
<layer number="38" name="bTest" color="7" fill="1" visible="no" active="yes"/>
<layer number="39" name="tKeepout" color="4" fill="11" visible="yes" active="yes"/>
<layer number="40" name="bKeepout" color="1" fill="11" visible="yes" active="yes"/>
<layer number="41" name="tRestrict" color="4" fill="10" visible="yes" active="yes"/>
<layer number="42" name="bRestrict" color="1" fill="10" visible="yes" active="yes"/>
<layer number="43" name="vRestrict" color="2" fill="10" visible="yes" active="yes"/>
<layer number="44" name="Drills" color="7" fill="1" visible="no" active="yes"/>
<layer number="45" name="Holes" color="7" fill="1" visible="no" active="yes"/>
<layer number="46" name="Milling" color="3" fill="1" visible="no" active="yes"/>
<layer number="47" name="Measures" color="7" fill="1" visible="no" active="yes"/>
<layer number="48" name="Document" color="7" fill="1" visible="yes" active="yes"/>
<layer number="49" name="Reference" color="7" fill="1" visible="yes" active="yes"/>
<layer number="51" name="tDocu" color="7" fill="1" visible="yes" active="yes"/>
<layer number="52" name="bDocu" color="7" fill="1" visible="yes" active="yes"/>
<layer number="90" name="Modules" color="5" fill="1" visible="yes" active="yes"/>
<layer number="91" name="Nets" color="2" fill="1" visible="yes" active="yes"/>
<layer number="92" name="Busses" color="1" fill="1" visible="yes" active="yes"/>
<layer number="93" name="Pins" color="2" fill="1" visible="no" active="yes"/>
<layer number="94" name="Symbols" color="4" fill="1" visible="yes" active="yes"/>
<layer number="95" name="Names" color="7" fill="1" visible="yes" active="yes"/>
<layer number="96" name="Values" color="7" fill="1" visible="yes" active="yes"/>
<layer number="97" name="Info" color="7" fill="1" visible="yes" active="yes"/>
<layer number="98" name="Guide" color="6" fill="1" visible="yes" active="yes"/>
</layers>
<library>
<packages>
<package name="TE_1747981-1">
<text x="-2" y="2.9" size="0.8128" layer="25" font="vector">&gt;Name</text>
<wire x1="-7.7" y1="0.9" x2="-7.7" y2="-0.9" width="0" layer="46"/>
<wire x1="-7.7" y1="-0.9" x2="-6.8" y2="-0.9" width="0" layer="46" curve="180"/>
<wire x1="-6.8" y1="-0.9" x2="-6.8" y2="0.9" width="0" layer="46"/>
<wire x1="-6.8" y1="0.9" x2="-7.7" y2="0.9" width="0" layer="46" curve="180"/>
<wire x1="-7.7" y1="-6.56" x2="-6.8" y2="-6.56" width="0" layer="46" curve="180"/>
<wire x1="-6.8" y1="-5.36" x2="-7.7" y2="-5.36" width="0" layer="46" curve="180"/>
<wire x1="-7.7" y1="-6.56" x2="-6.8" y2="-6.56" width="0" layer="46" curve="180"/>
<wire x1="-6.8" y1="-5.36" x2="-7.7" y2="-5.36" width="0" layer="46" curve="180"/>
<wire x1="-7.7" y1="-6.56" x2="-6.8" y2="-6.56" width="0" layer="46" curve="180"/>
<wire x1="-6.8" y1="-5.36" x2="-7.7" y2="-5.36" width="0" layer="46" curve="180"/>
<wire x1="-7.7" y1="-5.36" x2="-7.7" y2="-6.56" width="0" layer="46"/>
<wire x1="-7.7" y1="-6.56" x2="-6.8" y2="-6.56" width="0" layer="46" curve="180"/>
<wire x1="-6.8" y1="-6.56" x2="-6.8" y2="-5.36" width="0" layer="46"/>
<wire x1="-6.8" y1="-5.36" x2="-7.7" y2="-5.36" width="0" layer="46" curve="180"/>
<wire x1="6.8" y1="0.9" x2="6.8" y2="-0.9" width="0" layer="46"/>
<wire x1="6.8" y1="-0.9" x2="7.7" y2="-0.9" width="0" layer="46" curve="180"/>
<wire x1="7.7" y1="-0.9" x2="7.7" y2="0.9" width="0" layer="46"/>
<wire x1="7.7" y1="0.9" x2="6.8" y2="0.9" width="0" layer="46" curve="180"/>
<wire x1="6.8" y1="-6.56" x2="7.7" y2="-6.56" width="0" layer="46" curve="180"/>
<wire x1="7.7" y1="-5.36" x2="6.8" y2="-5.36" width="0" layer="46" curve="180"/>
<wire x1="6.8" y1="-6.56" x2="7.7" y2="-6.56" width="0" layer="46" curve="180"/>
<wire x1="7.7" y1="-5.36" x2="6.8" y2="-5.36" width="0" layer="46" curve="180"/>
<wire x1="6.8" y1="-6.56" x2="7.7" y2="-6.56" width="0" layer="46" curve="180"/>
<wire x1="7.7" y1="-5.36" x2="6.8" y2="-5.36" width="0" layer="46" curve="180"/>
<wire x1="6.8" y1="-5.36" x2="6.8" y2="-6.56" width="0" layer="46"/>
<wire x1="6.8" y1="-6.56" x2="7.7" y2="-6.56" width="0" layer="46" curve="180"/>
<wire x1="7.7" y1="-6.56" x2="7.7" y2="-5.36" width="0" layer="46"/>
<wire x1="7.7" y1="-5.36" x2="6.8" y2="-5.36" width="0" layer="46" curve="180"/>
<wire x1="-7.5" y1="1.5" x2="7.5" y2="1.5" width="0.2" layer="51"/>
<wire x1="7.5" y1="1.5" x2="7.5" y2="-9.545" width="0.2" layer="51"/>
<wire x1="7.5" y1="-9.545" x2="7.5" y2="-9.6" width="0.127" layer="51"/>
<wire x1="7.5" y1="-9.6" x2="7.5" y2="-10" width="0.2" layer="51"/>
<wire x1="7.5" y1="-10" x2="-7.5" y2="-10" width="0.2" layer="51"/>
<wire x1="-7.5" y1="-10" x2="-7.5" y2="1.5" width="0.2" layer="51"/>
<wire x1="-7.5" y1="-2" x2="-7.5" y2="-4.1" width="0.2" layer="21"/>
<wire x1="7.5" y1="-2" x2="7.5" y2="-4.1" width="0.2" layer="21"/>
<wire x1="-6.1" y1="1.5" x2="-5" y2="1.5" width="0.2" layer="21"/>
<wire x1="6.1" y1="1.5" x2="5" y2="1.5" width="0.2" layer="21"/>
<smd name="1" x="4.5" y="0.76" dx="2.6" dy="0.3" layer="1" rot="R90"/>
<smd name="2" x="4" y="0.76" dx="2.6" dy="0.3" layer="1" rot="R90"/>
<smd name="3" x="3.5" y="0.76" dx="2.6" dy="0.3" layer="1" rot="R90"/>
<smd name="4" x="3" y="0.76" dx="2.6" dy="0.3" layer="1" rot="R90"/>
<smd name="5" x="2.5" y="0.76" dx="2.6" dy="0.3" layer="1" rot="R90"/>
<smd name="6" x="2" y="0.76" dx="2.6" dy="0.3" layer="1" rot="R90"/>
<smd name="7" x="1.5" y="0.76" dx="2.6" dy="0.3" layer="1" rot="R90"/>
<smd name="8" x="1" y="0.76" dx="2.6" dy="0.3" layer="1" rot="R90"/>
<smd name="9" x="0.5" y="0.76" dx="2.6" dy="0.3" layer="1" rot="R90"/>
<smd name="10" x="0" y="0.76" dx="2.6" dy="0.3" layer="1" rot="R90"/>
<smd name="11" x="-0.5" y="0.76" dx="2.6" dy="0.3" layer="1" rot="R90"/>
<smd name="12" x="-1" y="0.76" dx="2.6" dy="0.3" layer="1" rot="R90"/>
<smd name="13" x="-1.5" y="0.76" dx="2.6" dy="0.3" layer="1" rot="R90"/>
<smd name="14" x="-2" y="0.76" dx="2.6" dy="0.3" layer="1" rot="R90"/>
<smd name="15" x="-2.5" y="0.76" dx="2.6" dy="0.3" layer="1" rot="R90"/>
<smd name="16" x="-3" y="0.76" dx="2.6" dy="0.3" layer="1" rot="R90"/>
<smd name="17" x="-3.5" y="0.76" dx="2.6" dy="0.3" layer="1" rot="R90"/>
<smd name="18" x="-4" y="0.76" dx="2.6" dy="0.3" layer="1" rot="R90"/>
<smd name="19" x="-4.5" y="0.76" dx="2.6" dy="0.3" layer="1" rot="R90"/>
<pad name="S1" x="-7.25" y="0" drill="0.9" diameter="1.7" shape="long" rot="R90"/>
<pad name="S2" x="-7.25" y="-5.96" drill="0.9" diameter="1.5" shape="long" rot="R90"/>
<pad name="S3" x="7.25" y="0" drill="0.9" diameter="1.7" shape="long" rot="R90"/>
<pad name="S4" x="7.25" y="-5.96" drill="0.9" diameter="1.5" shape="long" rot="R90"/>
<text x="-2" y="-0.3" size="0.8128" layer="51" font="vector">&gt;Name</text>
<polygon width="0.2" layer="2">
<vertex x="-8" y="0.85" curve="-180"/>
<vertex x="-6.5" y="0.85"/>
<vertex x="-6.5" y="-0.85" curve="-180"/>
<vertex x="-8" y="-0.85"/>
</polygon>
<polygon width="0.2" layer="2">
<vertex x="6.5" y="0.85" curve="-180"/>
<vertex x="8" y="0.85"/>
<vertex x="8" y="-0.85" curve="-180"/>
<vertex x="6.5" y="-0.85"/>
</polygon>
<polygon width="0.2" layer="2">
<vertex x="6.6" y="-5.2" curve="-180"/>
<vertex x="7.9" y="-5.2"/>
<vertex x="7.9" y="-6.7" curve="-180"/>
<vertex x="6.6" y="-6.7"/>
</polygon>
<polygon width="0.2" layer="2">
<vertex x="-7.9" y="-5.2" curve="-180"/>
<vertex x="-6.6" y="-5.2"/>
<vertex x="-6.6" y="-6.7" curve="-180"/>
<vertex x="-7.9" y="-6.7"/>
</polygon>
<polygon width="0.2" layer="15">
<vertex x="-8" y="0.85" curve="-180"/>
<vertex x="-6.5" y="0.85"/>
<vertex x="-6.5" y="-0.85" curve="-180"/>
<vertex x="-8" y="-0.85"/>
</polygon>
<polygon width="0.2" layer="15">
<vertex x="6.5" y="0.85" curve="-180"/>
<vertex x="8" y="0.85"/>
<vertex x="8" y="-0.85" curve="-180"/>
<vertex x="6.5" y="-0.85"/>
</polygon>
<polygon width="0.2" layer="15">
<vertex x="6.6" y="-5.2" curve="-180"/>
<vertex x="7.9" y="-5.2"/>
<vertex x="7.9" y="-6.7" curve="-180"/>
<vertex x="6.6" y="-6.7"/>
</polygon>
<polygon width="0.2" layer="15">
<vertex x="-7.9" y="-5.2" curve="-180"/>
<vertex x="-6.6" y="-5.2"/>
<vertex x="-6.6" y="-6.7" curve="-180"/>
<vertex x="-7.9" y="-6.7"/>
</polygon>
</package>
</packages>
<symbols>
<symbol name="1747981-1">
<wire x1="-5.08" y1="27.94" x2="-5.08" y2="-27.94" width="0.254" layer="94"/>
<wire x1="-5.08" y1="-27.94" x2="5.08" y2="-27.94" width="0.254" layer="94"/>
<wire x1="5.08" y1="-27.94" x2="5.08" y2="27.94" width="0.254" layer="94"/>
<wire x1="5.08" y1="27.94" x2="-5.08" y2="27.94" width="0.254" layer="94"/>
<text x="-2.54" y="27.94" size="1.778" layer="95" font="vector">&gt;Name</text>
<text x="2.54" y="-30.48" size="1.778" layer="96" font="vector" rot="R180">&gt;Value</text>
<pin name="1" x="-7.62" y="25.4" length="short" direction="pas"/>
<pin name="2" x="-7.62" y="22.86" length="short" direction="pas"/>
<pin name="3" x="-7.62" y="20.32" length="short" direction="pas"/>
<pin name="4" x="-7.62" y="17.78" length="short" direction="pas"/>
<pin name="5" x="-7.62" y="15.24" length="short" direction="pas"/>
<pin name="6" x="-7.62" y="12.7" length="short" direction="pas"/>
<pin name="7" x="-7.62" y="10.16" length="short" direction="pas"/>
<pin name="8" x="-7.62" y="7.62" length="short" direction="pas"/>
<pin name="9" x="-7.62" y="5.08" length="short" direction="pas"/>
<pin name="10" x="-7.62" y="2.54" length="short" direction="pas"/>
<pin name="11" x="-7.62" y="0" length="short" direction="pas"/>
<pin name="12" x="-7.62" y="-2.54" length="short" direction="pas"/>
<pin name="13" x="-7.62" y="-5.08" length="short" direction="pas"/>
<pin name="14" x="-7.62" y="-7.62" length="short" direction="pas"/>
<pin name="15" x="-7.62" y="-10.16" length="short" direction="pas"/>
<pin name="16" x="-7.62" y="-12.7" length="short" direction="pas"/>
<pin name="17" x="-7.62" y="-15.24" length="short" direction="pas"/>
<pin name="18" x="-7.62" y="-17.78" length="short" direction="pas"/>
<pin name="19" x="-7.62" y="-20.32" length="short" direction="pas"/>
<pin name="SHIELD" x="-7.62" y="-25.4" length="short" direction="pas"/>
</symbol>
</symbols>
<devicesets>
<deviceset name="1747981-1" prefix="J">
<description>EMBOSS PACKAGE HDMI CONNECTOR &lt;a href="https://pricing.snapeda.com/parts/1747981-1/TE%20Connectivity/view-part?ref=eda"&gt;Check availability&lt;/a&gt;</description>
<gates>
<gate name="G$1" symbol="1747981-1" x="0" y="0"/>
</gates>
<devices>
<device name="" package="TE_1747981-1">
<connects>
<connect gate="G$1" pin="1" pad="1"/>
<connect gate="G$1" pin="10" pad="10"/>
<connect gate="G$1" pin="11" pad="11"/>
<connect gate="G$1" pin="12" pad="12"/>
<connect gate="G$1" pin="13" pad="13"/>
<connect gate="G$1" pin="14" pad="14"/>
<connect gate="G$1" pin="15" pad="15"/>
<connect gate="G$1" pin="16" pad="16"/>
<connect gate="G$1" pin="17" pad="17"/>
<connect gate="G$1" pin="18" pad="18"/>
<connect gate="G$1" pin="19" pad="19"/>
<connect gate="G$1" pin="2" pad="2"/>
<connect gate="G$1" pin="3" pad="3"/>
<connect gate="G$1" pin="4" pad="4"/>
<connect gate="G$1" pin="5" pad="5"/>
<connect gate="G$1" pin="6" pad="6"/>
<connect gate="G$1" pin="7" pad="7"/>
<connect gate="G$1" pin="8" pad="8"/>
<connect gate="G$1" pin="9" pad="9"/>
<connect gate="G$1" pin="SHIELD" pad="S1 S2 S3 S4"/>
</connects>
<technologies>
<technology name="">
<attribute name="AVAILABILITY" value="In Stock"/>
<attribute name="COMMENT" value="1747981-1"/>
<attribute name="DESCRIPTION" value=" HDMI Connectors Product Highlights: Size = Standard Type A Series Receptacle 1 Ports Terminate To Printed Circuit Board "/>
<attribute name="MF" value="TE Connectivity"/>
<attribute name="MP" value="1747981-1"/>
<attribute name="PACKAGE" value="None"/>
<attribute name="PRICE" value="None"/>
<attribute name="PURCHASE-URL" value="https://pricing.snapeda.com/search/part/1747981-1/?ref=eda"/>
</technology>
</technologies>
</device>
</devices>
</deviceset>
</devicesets>
</library>
</drawing>
</eagle>
