<!--This work is licensed under a Creative Commons Attribution-ShareAlike 4.0 International License (CC BY-SA) with Design Exception 1.0-->
<eagle version="7.1.0">
<drawing>
<settings>
<setting alwaysvectorfont="no"/>
<setting verticaltext="up"/>
</settings>
<grid distance="0.1" unitdist="inch" unit="inch" style="lines" multiple="1" display="no" altdistance="0.01" altunitdist="inch" altunit="inch"/>
<layers>
<layer number="1" name="Top" color="4" fill="1" visible="yes" active="yes"/>
<layer number="16" name="Bottom" color="1" fill="1" visible="yes" active="yes"/>
<layer number="17" name="Pads" color="2" fill="1" visible="yes" active="yes"/>
<layer number="18" name="Vias" color="2" fill="1" visible="yes" active="yes"/>
<layer number="19" name="Unrouted" color="6" fill="1" visible="yes" active="yes"/>
<layer number="20" name="Dimension" color="15" fill="1" visible="yes" active="yes"/>
<layer number="21" name="tPlace" color="7" fill="1" visible="yes" active="yes"/>
<layer number="22" name="bPlace" color="7" fill="1" visible="yes" active="yes"/>
<layer number="23" name="tOrigins" color="15" fill="1" visible="yes" active="yes"/>
<layer number="24" name="bOrigins" color="15" fill="1" visible="yes" active="yes"/>
<layer number="25" name="tNames" color="7" fill="1" visible="yes" active="yes"/>
<layer number="26" name="bNames" color="7" fill="1" visible="yes" active="yes"/>
<layer number="27" name="tValues" color="7" fill="1" visible="yes" active="yes"/>
<layer number="28" name="bValues" color="7" fill="1" visible="yes" active="yes"/>
<layer number="29" name="tStop" color="7" fill="3" visible="yes" active="yes"/>
<layer number="30" name="bStop" color="7" fill="6" visible="no" active="yes"/>
<layer number="31" name="tCream" color="7" fill="4" visible="yes" active="yes"/>
<layer number="32" name="bCream" color="7" fill="5" visible="no" active="yes"/>
<layer number="33" name="tFinish" color="6" fill="3" visible="no" active="yes"/>
<layer number="34" name="bFinish" color="6" fill="6" visible="no" active="yes"/>
<layer number="35" name="tGlue" color="7" fill="4" visible="no" active="yes"/>
<layer number="36" name="bGlue" color="7" fill="5" visible="no" active="yes"/>
<layer number="37" name="tTest" color="7" fill="1" visible="no" active="yes"/>
<layer number="38" name="bTest" color="7" fill="1" visible="no" active="yes"/>
<layer number="39" name="tKeepout" color="4" fill="11" visible="yes" active="yes"/>
<layer number="40" name="bKeepout" color="1" fill="11" visible="yes" active="yes"/>
<layer number="41" name="tRestrict" color="4" fill="10" visible="yes" active="yes"/>
<layer number="42" name="bRestrict" color="1" fill="10" visible="yes" active="yes"/>
<layer number="43" name="vRestrict" color="2" fill="10" visible="yes" active="yes"/>
<layer number="44" name="Drills" color="7" fill="1" visible="no" active="yes"/>
<layer number="45" name="Holes" color="7" fill="1" visible="no" active="yes"/>
<layer number="46" name="Milling" color="3" fill="1" visible="no" active="yes"/>
<layer number="47" name="Measures" color="7" fill="1" visible="no" active="yes"/>
<layer number="48" name="Document" color="7" fill="1" visible="yes" active="yes"/>
<layer number="49" name="Reference" color="7" fill="1" visible="yes" active="yes"/>
<layer number="51" name="tDocu" color="7" fill="1" visible="yes" active="yes"/>
<layer number="52" name="bDocu" color="7" fill="1" visible="yes" active="yes"/>
<layer number="90" name="Modules" color="5" fill="1" visible="yes" active="yes"/>
<layer number="91" name="Nets" color="2" fill="1" visible="yes" active="yes"/>
<layer number="92" name="Busses" color="1" fill="1" visible="yes" active="yes"/>
<layer number="93" name="Pins" color="2" fill="1" visible="yes" active="yes"/>
<layer number="94" name="Symbols" color="4" fill="1" visible="yes" active="yes"/>
<layer number="95" name="Names" color="7" fill="1" visible="yes" active="yes"/>
<layer number="96" name="Values" color="7" fill="1" visible="yes" active="yes"/>
<layer number="97" name="Info" color="7" fill="1" visible="yes" active="yes"/>
<layer number="98" name="Guide" color="6" fill="1" visible="yes" active="yes"/>
</layers>
<library>
<packages>
<package name="BGA256C80P16X16_1400X1400X170">
<text x="-6.74046" y="-8.01243" size="1.27197" layer="27" align="top-left">&gt;VALUE</text>
<text x="-6.73905" y="8.01076" size="1.27171" layer="25">&gt;NAME</text>
<circle x="-7.5" y="6" radius="0.1" width="0.2" layer="21"/>
<circle x="-6" y="6" radius="0.1" width="0.2" layer="51"/>
<wire x1="7" y1="-7" x2="-7" y2="-7" width="0.127" layer="51"/>
<wire x1="7" y1="7" x2="-7" y2="7" width="0.127" layer="51"/>
<wire x1="7" y1="-7" x2="-7" y2="-7" width="0.127" layer="21"/>
<wire x1="7" y1="7" x2="-7" y2="7" width="0.127" layer="21"/>
<wire x1="7" y1="-7" x2="7" y2="7" width="0.127" layer="51"/>
<wire x1="-7" y1="-7" x2="-7" y2="7" width="0.127" layer="51"/>
<wire x1="7" y1="-7" x2="7" y2="7" width="0.127" layer="21"/>
<wire x1="-7" y1="-7" x2="-7" y2="7" width="0.127" layer="21"/>
<wire x1="-7.25" y1="-7.25" x2="7.25" y2="-7.25" width="0.05" layer="39"/>
<wire x1="-7.25" y1="7.25" x2="7.25" y2="7.25" width="0.05" layer="39"/>
<wire x1="-7.25" y1="-7.25" x2="-7.25" y2="7.25" width="0.05" layer="39"/>
<wire x1="7.25" y1="-7.25" x2="7.25" y2="7.25" width="0.05" layer="39"/>
<smd name="A1" x="-6" y="6" dx="0.41" dy="0.41" layer="1" roundness="100"/>
<smd name="A2" x="-5.2" y="6" dx="0.41" dy="0.41" layer="1" roundness="100"/>
<smd name="A3" x="-4.4" y="6" dx="0.41" dy="0.41" layer="1" roundness="100"/>
<smd name="A4" x="-3.6" y="6" dx="0.41" dy="0.41" layer="1" roundness="100"/>
<smd name="A5" x="-2.8" y="6" dx="0.41" dy="0.41" layer="1" roundness="100"/>
<smd name="A6" x="-2" y="6" dx="0.41" dy="0.41" layer="1" roundness="100"/>
<smd name="A7" x="-1.2" y="6" dx="0.41" dy="0.41" layer="1" roundness="100"/>
<smd name="A8" x="-0.4" y="6" dx="0.41" dy="0.41" layer="1" roundness="100"/>
<smd name="A9" x="0.4" y="6" dx="0.41" dy="0.41" layer="1" roundness="100"/>
<smd name="A10" x="1.2" y="6" dx="0.41" dy="0.41" layer="1" roundness="100"/>
<smd name="A11" x="2" y="6" dx="0.41" dy="0.41" layer="1" roundness="100"/>
<smd name="A12" x="2.8" y="6" dx="0.41" dy="0.41" layer="1" roundness="100"/>
<smd name="A13" x="3.6" y="6" dx="0.41" dy="0.41" layer="1" roundness="100"/>
<smd name="A14" x="4.4" y="6" dx="0.41" dy="0.41" layer="1" roundness="100"/>
<smd name="A15" x="5.2" y="6" dx="0.41" dy="0.41" layer="1" roundness="100"/>
<smd name="A16" x="6" y="6" dx="0.41" dy="0.41" layer="1" roundness="100"/>
<smd name="B1" x="-6" y="5.2" dx="0.41" dy="0.41" layer="1" roundness="100"/>
<smd name="B2" x="-5.2" y="5.2" dx="0.41" dy="0.41" layer="1" roundness="100"/>
<smd name="B3" x="-4.4" y="5.2" dx="0.41" dy="0.41" layer="1" roundness="100"/>
<smd name="B4" x="-3.6" y="5.2" dx="0.41" dy="0.41" layer="1" roundness="100"/>
<smd name="B5" x="-2.8" y="5.2" dx="0.41" dy="0.41" layer="1" roundness="100"/>
<smd name="B6" x="-2" y="5.2" dx="0.41" dy="0.41" layer="1" roundness="100"/>
<smd name="B7" x="-1.2" y="5.2" dx="0.41" dy="0.41" layer="1" roundness="100"/>
<smd name="B8" x="-0.4" y="5.2" dx="0.41" dy="0.41" layer="1" roundness="100"/>
<smd name="B9" x="0.4" y="5.2" dx="0.41" dy="0.41" layer="1" roundness="100"/>
<smd name="B10" x="1.2" y="5.2" dx="0.41" dy="0.41" layer="1" roundness="100"/>
<smd name="B11" x="2" y="5.2" dx="0.41" dy="0.41" layer="1" roundness="100"/>
<smd name="B12" x="2.8" y="5.2" dx="0.41" dy="0.41" layer="1" roundness="100"/>
<smd name="B13" x="3.6" y="5.2" dx="0.41" dy="0.41" layer="1" roundness="100"/>
<smd name="B14" x="4.4" y="5.2" dx="0.41" dy="0.41" layer="1" roundness="100"/>
<smd name="B15" x="5.2" y="5.2" dx="0.41" dy="0.41" layer="1" roundness="100"/>
<smd name="B16" x="6" y="5.2" dx="0.41" dy="0.41" layer="1" roundness="100"/>
<smd name="C1" x="-6" y="4.4" dx="0.41" dy="0.41" layer="1" roundness="100"/>
<smd name="C2" x="-5.2" y="4.4" dx="0.41" dy="0.41" layer="1" roundness="100"/>
<smd name="C3" x="-4.4" y="4.4" dx="0.41" dy="0.41" layer="1" roundness="100"/>
<smd name="C4" x="-3.6" y="4.4" dx="0.41" dy="0.41" layer="1" roundness="100"/>
<smd name="C5" x="-2.8" y="4.4" dx="0.41" dy="0.41" layer="1" roundness="100"/>
<smd name="C6" x="-2" y="4.4" dx="0.41" dy="0.41" layer="1" roundness="100"/>
<smd name="C7" x="-1.2" y="4.4" dx="0.41" dy="0.41" layer="1" roundness="100"/>
<smd name="C8" x="-0.4" y="4.4" dx="0.41" dy="0.41" layer="1" roundness="100"/>
<smd name="C9" x="0.4" y="4.4" dx="0.41" dy="0.41" layer="1" roundness="100"/>
<smd name="C10" x="1.2" y="4.4" dx="0.41" dy="0.41" layer="1" roundness="100"/>
<smd name="C11" x="2" y="4.4" dx="0.41" dy="0.41" layer="1" roundness="100"/>
<smd name="C12" x="2.8" y="4.4" dx="0.41" dy="0.41" layer="1" roundness="100"/>
<smd name="C13" x="3.6" y="4.4" dx="0.41" dy="0.41" layer="1" roundness="100"/>
<smd name="C14" x="4.4" y="4.4" dx="0.41" dy="0.41" layer="1" roundness="100"/>
<smd name="C15" x="5.2" y="4.4" dx="0.41" dy="0.41" layer="1" roundness="100"/>
<smd name="C16" x="6" y="4.4" dx="0.41" dy="0.41" layer="1" roundness="100"/>
<smd name="D1" x="-6" y="3.6" dx="0.41" dy="0.41" layer="1" roundness="100"/>
<smd name="D2" x="-5.2" y="3.6" dx="0.41" dy="0.41" layer="1" roundness="100"/>
<smd name="D3" x="-4.4" y="3.6" dx="0.41" dy="0.41" layer="1" roundness="100"/>
<smd name="D4" x="-3.6" y="3.6" dx="0.41" dy="0.41" layer="1" roundness="100"/>
<smd name="D5" x="-2.8" y="3.6" dx="0.41" dy="0.41" layer="1" roundness="100"/>
<smd name="D6" x="-2" y="3.6" dx="0.41" dy="0.41" layer="1" roundness="100"/>
<smd name="D7" x="-1.2" y="3.6" dx="0.41" dy="0.41" layer="1" roundness="100"/>
<smd name="D8" x="-0.4" y="3.6" dx="0.41" dy="0.41" layer="1" roundness="100"/>
<smd name="D9" x="0.4" y="3.6" dx="0.41" dy="0.41" layer="1" roundness="100"/>
<smd name="D10" x="1.2" y="3.6" dx="0.41" dy="0.41" layer="1" roundness="100"/>
<smd name="D11" x="2" y="3.6" dx="0.41" dy="0.41" layer="1" roundness="100"/>
<smd name="D12" x="2.8" y="3.6" dx="0.41" dy="0.41" layer="1" roundness="100"/>
<smd name="D13" x="3.6" y="3.6" dx="0.41" dy="0.41" layer="1" roundness="100"/>
<smd name="D14" x="4.4" y="3.6" dx="0.41" dy="0.41" layer="1" roundness="100"/>
<smd name="D15" x="5.2" y="3.6" dx="0.41" dy="0.41" layer="1" roundness="100"/>
<smd name="D16" x="6" y="3.6" dx="0.41" dy="0.41" layer="1" roundness="100"/>
<smd name="E1" x="-6" y="2.8" dx="0.41" dy="0.41" layer="1" roundness="100"/>
<smd name="E2" x="-5.2" y="2.8" dx="0.41" dy="0.41" layer="1" roundness="100"/>
<smd name="E3" x="-4.4" y="2.8" dx="0.41" dy="0.41" layer="1" roundness="100"/>
<smd name="E4" x="-3.6" y="2.8" dx="0.41" dy="0.41" layer="1" roundness="100"/>
<smd name="E5" x="-2.8" y="2.8" dx="0.41" dy="0.41" layer="1" roundness="100"/>
<smd name="E6" x="-2" y="2.8" dx="0.41" dy="0.41" layer="1" roundness="100"/>
<smd name="E7" x="-1.2" y="2.8" dx="0.41" dy="0.41" layer="1" roundness="100"/>
<smd name="E8" x="-0.4" y="2.8" dx="0.41" dy="0.41" layer="1" roundness="100"/>
<smd name="E9" x="0.4" y="2.8" dx="0.41" dy="0.41" layer="1" roundness="100"/>
<smd name="E10" x="1.2" y="2.8" dx="0.41" dy="0.41" layer="1" roundness="100"/>
<smd name="E11" x="2" y="2.8" dx="0.41" dy="0.41" layer="1" roundness="100"/>
<smd name="E12" x="2.8" y="2.8" dx="0.41" dy="0.41" layer="1" roundness="100"/>
<smd name="E13" x="3.6" y="2.8" dx="0.41" dy="0.41" layer="1" roundness="100"/>
<smd name="E14" x="4.4" y="2.8" dx="0.41" dy="0.41" layer="1" roundness="100"/>
<smd name="E15" x="5.2" y="2.8" dx="0.41" dy="0.41" layer="1" roundness="100"/>
<smd name="E16" x="6" y="2.8" dx="0.41" dy="0.41" layer="1" roundness="100"/>
<smd name="F1" x="-6" y="2" dx="0.41" dy="0.41" layer="1" roundness="100"/>
<smd name="F2" x="-5.2" y="2" dx="0.41" dy="0.41" layer="1" roundness="100"/>
<smd name="F3" x="-4.4" y="2" dx="0.41" dy="0.41" layer="1" roundness="100"/>
<smd name="F4" x="-3.6" y="2" dx="0.41" dy="0.41" layer="1" roundness="100"/>
<smd name="F5" x="-2.8" y="2" dx="0.41" dy="0.41" layer="1" roundness="100"/>
<smd name="F6" x="-2" y="2" dx="0.41" dy="0.41" layer="1" roundness="100"/>
<smd name="F7" x="-1.2" y="2" dx="0.41" dy="0.41" layer="1" roundness="100"/>
<smd name="F8" x="-0.4" y="2" dx="0.41" dy="0.41" layer="1" roundness="100"/>
<smd name="F9" x="0.4" y="2" dx="0.41" dy="0.41" layer="1" roundness="100"/>
<smd name="F10" x="1.2" y="2" dx="0.41" dy="0.41" layer="1" roundness="100"/>
<smd name="F11" x="2" y="2" dx="0.41" dy="0.41" layer="1" roundness="100"/>
<smd name="F12" x="2.8" y="2" dx="0.41" dy="0.41" layer="1" roundness="100"/>
<smd name="F13" x="3.6" y="2" dx="0.41" dy="0.41" layer="1" roundness="100"/>
<smd name="F14" x="4.4" y="2" dx="0.41" dy="0.41" layer="1" roundness="100"/>
<smd name="F15" x="5.2" y="2" dx="0.41" dy="0.41" layer="1" roundness="100"/>
<smd name="F16" x="6" y="2" dx="0.41" dy="0.41" layer="1" roundness="100"/>
<smd name="G1" x="-6" y="1.2" dx="0.41" dy="0.41" layer="1" roundness="100"/>
<smd name="G2" x="-5.2" y="1.2" dx="0.41" dy="0.41" layer="1" roundness="100"/>
<smd name="G3" x="-4.4" y="1.2" dx="0.41" dy="0.41" layer="1" roundness="100"/>
<smd name="G4" x="-3.6" y="1.2" dx="0.41" dy="0.41" layer="1" roundness="100"/>
<smd name="G5" x="-2.8" y="1.2" dx="0.41" dy="0.41" layer="1" roundness="100"/>
<smd name="G6" x="-2" y="1.2" dx="0.41" dy="0.41" layer="1" roundness="100"/>
<smd name="G7" x="-1.2" y="1.2" dx="0.41" dy="0.41" layer="1" roundness="100"/>
<smd name="G8" x="-0.4" y="1.2" dx="0.41" dy="0.41" layer="1" roundness="100"/>
<smd name="G9" x="0.4" y="1.2" dx="0.41" dy="0.41" layer="1" roundness="100"/>
<smd name="G10" x="1.2" y="1.2" dx="0.41" dy="0.41" layer="1" roundness="100"/>
<smd name="G11" x="2" y="1.2" dx="0.41" dy="0.41" layer="1" roundness="100"/>
<smd name="G12" x="2.8" y="1.2" dx="0.41" dy="0.41" layer="1" roundness="100"/>
<smd name="G13" x="3.6" y="1.2" dx="0.41" dy="0.41" layer="1" roundness="100"/>
<smd name="G14" x="4.4" y="1.2" dx="0.41" dy="0.41" layer="1" roundness="100"/>
<smd name="G15" x="5.2" y="1.2" dx="0.41" dy="0.41" layer="1" roundness="100"/>
<smd name="G16" x="6" y="1.2" dx="0.41" dy="0.41" layer="1" roundness="100"/>
<smd name="H1" x="-6" y="0.4" dx="0.41" dy="0.41" layer="1" roundness="100"/>
<smd name="H2" x="-5.2" y="0.4" dx="0.41" dy="0.41" layer="1" roundness="100"/>
<smd name="H3" x="-4.4" y="0.4" dx="0.41" dy="0.41" layer="1" roundness="100"/>
<smd name="H4" x="-3.6" y="0.4" dx="0.41" dy="0.41" layer="1" roundness="100"/>
<smd name="H5" x="-2.8" y="0.4" dx="0.41" dy="0.41" layer="1" roundness="100"/>
<smd name="H6" x="-2" y="0.4" dx="0.41" dy="0.41" layer="1" roundness="100"/>
<smd name="H7" x="-1.2" y="0.4" dx="0.41" dy="0.41" layer="1" roundness="100"/>
<smd name="H8" x="-0.4" y="0.4" dx="0.41" dy="0.41" layer="1" roundness="100"/>
<smd name="H9" x="0.4" y="0.4" dx="0.41" dy="0.41" layer="1" roundness="100"/>
<smd name="H10" x="1.2" y="0.4" dx="0.41" dy="0.41" layer="1" roundness="100"/>
<smd name="H11" x="2" y="0.4" dx="0.41" dy="0.41" layer="1" roundness="100"/>
<smd name="H12" x="2.8" y="0.4" dx="0.41" dy="0.41" layer="1" roundness="100"/>
<smd name="H13" x="3.6" y="0.4" dx="0.41" dy="0.41" layer="1" roundness="100"/>
<smd name="H14" x="4.4" y="0.4" dx="0.41" dy="0.41" layer="1" roundness="100"/>
<smd name="H15" x="5.2" y="0.4" dx="0.41" dy="0.41" layer="1" roundness="100"/>
<smd name="H16" x="6" y="0.4" dx="0.41" dy="0.41" layer="1" roundness="100"/>
<smd name="J1" x="-6" y="-0.4" dx="0.41" dy="0.41" layer="1" roundness="100"/>
<smd name="J2" x="-5.2" y="-0.4" dx="0.41" dy="0.41" layer="1" roundness="100"/>
<smd name="J3" x="-4.4" y="-0.4" dx="0.41" dy="0.41" layer="1" roundness="100"/>
<smd name="J4" x="-3.6" y="-0.4" dx="0.41" dy="0.41" layer="1" roundness="100"/>
<smd name="J5" x="-2.8" y="-0.4" dx="0.41" dy="0.41" layer="1" roundness="100"/>
<smd name="J6" x="-2" y="-0.4" dx="0.41" dy="0.41" layer="1" roundness="100"/>
<smd name="J7" x="-1.2" y="-0.4" dx="0.41" dy="0.41" layer="1" roundness="100"/>
<smd name="J8" x="-0.4" y="-0.4" dx="0.41" dy="0.41" layer="1" roundness="100"/>
<smd name="J9" x="0.4" y="-0.4" dx="0.41" dy="0.41" layer="1" roundness="100"/>
<smd name="J10" x="1.2" y="-0.4" dx="0.41" dy="0.41" layer="1" roundness="100"/>
<smd name="J11" x="2" y="-0.4" dx="0.41" dy="0.41" layer="1" roundness="100"/>
<smd name="J12" x="2.8" y="-0.4" dx="0.41" dy="0.41" layer="1" roundness="100"/>
<smd name="J13" x="3.6" y="-0.4" dx="0.41" dy="0.41" layer="1" roundness="100"/>
<smd name="J14" x="4.4" y="-0.4" dx="0.41" dy="0.41" layer="1" roundness="100"/>
<smd name="J15" x="5.2" y="-0.4" dx="0.41" dy="0.41" layer="1" roundness="100"/>
<smd name="J16" x="6" y="-0.4" dx="0.41" dy="0.41" layer="1" roundness="100"/>
<smd name="K1" x="-6" y="-1.2" dx="0.41" dy="0.41" layer="1" roundness="100"/>
<smd name="K2" x="-5.2" y="-1.2" dx="0.41" dy="0.41" layer="1" roundness="100"/>
<smd name="K3" x="-4.4" y="-1.2" dx="0.41" dy="0.41" layer="1" roundness="100"/>
<smd name="K4" x="-3.6" y="-1.2" dx="0.41" dy="0.41" layer="1" roundness="100"/>
<smd name="K5" x="-2.8" y="-1.2" dx="0.41" dy="0.41" layer="1" roundness="100"/>
<smd name="K6" x="-2" y="-1.2" dx="0.41" dy="0.41" layer="1" roundness="100"/>
<smd name="K7" x="-1.2" y="-1.2" dx="0.41" dy="0.41" layer="1" roundness="100"/>
<smd name="K8" x="-0.4" y="-1.2" dx="0.41" dy="0.41" layer="1" roundness="100"/>
<smd name="K9" x="0.4" y="-1.2" dx="0.41" dy="0.41" layer="1" roundness="100"/>
<smd name="K10" x="1.2" y="-1.2" dx="0.41" dy="0.41" layer="1" roundness="100"/>
<smd name="K11" x="2" y="-1.2" dx="0.41" dy="0.41" layer="1" roundness="100"/>
<smd name="K12" x="2.8" y="-1.2" dx="0.41" dy="0.41" layer="1" roundness="100"/>
<smd name="K13" x="3.6" y="-1.2" dx="0.41" dy="0.41" layer="1" roundness="100"/>
<smd name="K14" x="4.4" y="-1.2" dx="0.41" dy="0.41" layer="1" roundness="100"/>
<smd name="K15" x="5.2" y="-1.2" dx="0.41" dy="0.41" layer="1" roundness="100"/>
<smd name="K16" x="6" y="-1.2" dx="0.41" dy="0.41" layer="1" roundness="100"/>
<smd name="L1" x="-6" y="-2" dx="0.41" dy="0.41" layer="1" roundness="100"/>
<smd name="L2" x="-5.2" y="-2" dx="0.41" dy="0.41" layer="1" roundness="100"/>
<smd name="L3" x="-4.4" y="-2" dx="0.41" dy="0.41" layer="1" roundness="100"/>
<smd name="L4" x="-3.6" y="-2" dx="0.41" dy="0.41" layer="1" roundness="100"/>
<smd name="L5" x="-2.8" y="-2" dx="0.41" dy="0.41" layer="1" roundness="100"/>
<smd name="L6" x="-2" y="-2" dx="0.41" dy="0.41" layer="1" roundness="100"/>
<smd name="L7" x="-1.2" y="-2" dx="0.41" dy="0.41" layer="1" roundness="100"/>
<smd name="L8" x="-0.4" y="-2" dx="0.41" dy="0.41" layer="1" roundness="100"/>
<smd name="L9" x="0.4" y="-2" dx="0.41" dy="0.41" layer="1" roundness="100"/>
<smd name="L10" x="1.2" y="-2" dx="0.41" dy="0.41" layer="1" roundness="100"/>
<smd name="L11" x="2" y="-2" dx="0.41" dy="0.41" layer="1" roundness="100"/>
<smd name="L12" x="2.8" y="-2" dx="0.41" dy="0.41" layer="1" roundness="100"/>
<smd name="L13" x="3.6" y="-2" dx="0.41" dy="0.41" layer="1" roundness="100"/>
<smd name="L14" x="4.4" y="-2" dx="0.41" dy="0.41" layer="1" roundness="100"/>
<smd name="L15" x="5.2" y="-2" dx="0.41" dy="0.41" layer="1" roundness="100"/>
<smd name="L16" x="6" y="-2" dx="0.41" dy="0.41" layer="1" roundness="100"/>
<smd name="M1" x="-6" y="-2.8" dx="0.41" dy="0.41" layer="1" roundness="100"/>
<smd name="M2" x="-5.2" y="-2.8" dx="0.41" dy="0.41" layer="1" roundness="100"/>
<smd name="M3" x="-4.4" y="-2.8" dx="0.41" dy="0.41" layer="1" roundness="100"/>
<smd name="M4" x="-3.6" y="-2.8" dx="0.41" dy="0.41" layer="1" roundness="100"/>
<smd name="M5" x="-2.8" y="-2.8" dx="0.41" dy="0.41" layer="1" roundness="100"/>
<smd name="M6" x="-2" y="-2.8" dx="0.41" dy="0.41" layer="1" roundness="100"/>
<smd name="M7" x="-1.2" y="-2.8" dx="0.41" dy="0.41" layer="1" roundness="100"/>
<smd name="M8" x="-0.4" y="-2.8" dx="0.41" dy="0.41" layer="1" roundness="100"/>
<smd name="M9" x="0.4" y="-2.8" dx="0.41" dy="0.41" layer="1" roundness="100"/>
<smd name="M10" x="1.2" y="-2.8" dx="0.41" dy="0.41" layer="1" roundness="100"/>
<smd name="M11" x="2" y="-2.8" dx="0.41" dy="0.41" layer="1" roundness="100"/>
<smd name="M12" x="2.8" y="-2.8" dx="0.41" dy="0.41" layer="1" roundness="100"/>
<smd name="M13" x="3.6" y="-2.8" dx="0.41" dy="0.41" layer="1" roundness="100"/>
<smd name="M14" x="4.4" y="-2.8" dx="0.41" dy="0.41" layer="1" roundness="100"/>
<smd name="M15" x="5.2" y="-2.8" dx="0.41" dy="0.41" layer="1" roundness="100"/>
<smd name="M16" x="6" y="-2.8" dx="0.41" dy="0.41" layer="1" roundness="100"/>
<smd name="N1" x="-6" y="-3.6" dx="0.41" dy="0.41" layer="1" roundness="100"/>
<smd name="N2" x="-5.2" y="-3.6" dx="0.41" dy="0.41" layer="1" roundness="100"/>
<smd name="N3" x="-4.4" y="-3.6" dx="0.41" dy="0.41" layer="1" roundness="100"/>
<smd name="N4" x="-3.6" y="-3.6" dx="0.41" dy="0.41" layer="1" roundness="100"/>
<smd name="N5" x="-2.8" y="-3.6" dx="0.41" dy="0.41" layer="1" roundness="100"/>
<smd name="N6" x="-2" y="-3.6" dx="0.41" dy="0.41" layer="1" roundness="100"/>
<smd name="N7" x="-1.2" y="-3.6" dx="0.41" dy="0.41" layer="1" roundness="100"/>
<smd name="N8" x="-0.4" y="-3.6" dx="0.41" dy="0.41" layer="1" roundness="100"/>
<smd name="N9" x="0.4" y="-3.6" dx="0.41" dy="0.41" layer="1" roundness="100"/>
<smd name="N10" x="1.2" y="-3.6" dx="0.41" dy="0.41" layer="1" roundness="100"/>
<smd name="N11" x="2" y="-3.6" dx="0.41" dy="0.41" layer="1" roundness="100"/>
<smd name="N12" x="2.8" y="-3.6" dx="0.41" dy="0.41" layer="1" roundness="100"/>
<smd name="N13" x="3.6" y="-3.6" dx="0.41" dy="0.41" layer="1" roundness="100"/>
<smd name="N14" x="4.4" y="-3.6" dx="0.41" dy="0.41" layer="1" roundness="100"/>
<smd name="N15" x="5.2" y="-3.6" dx="0.41" dy="0.41" layer="1" roundness="100"/>
<smd name="N16" x="6" y="-3.6" dx="0.41" dy="0.41" layer="1" roundness="100"/>
<smd name="P1" x="-6" y="-4.4" dx="0.41" dy="0.41" layer="1" roundness="100"/>
<smd name="P2" x="-5.2" y="-4.4" dx="0.41" dy="0.41" layer="1" roundness="100"/>
<smd name="P3" x="-4.4" y="-4.4" dx="0.41" dy="0.41" layer="1" roundness="100"/>
<smd name="P4" x="-3.6" y="-4.4" dx="0.41" dy="0.41" layer="1" roundness="100"/>
<smd name="P5" x="-2.8" y="-4.4" dx="0.41" dy="0.41" layer="1" roundness="100"/>
<smd name="P6" x="-2" y="-4.4" dx="0.41" dy="0.41" layer="1" roundness="100"/>
<smd name="P7" x="-1.2" y="-4.4" dx="0.41" dy="0.41" layer="1" roundness="100"/>
<smd name="P8" x="-0.4" y="-4.4" dx="0.41" dy="0.41" layer="1" roundness="100"/>
<smd name="P9" x="0.4" y="-4.4" dx="0.41" dy="0.41" layer="1" roundness="100"/>
<smd name="P10" x="1.2" y="-4.4" dx="0.41" dy="0.41" layer="1" roundness="100"/>
<smd name="P11" x="2" y="-4.4" dx="0.41" dy="0.41" layer="1" roundness="100"/>
<smd name="P12" x="2.8" y="-4.4" dx="0.41" dy="0.41" layer="1" roundness="100"/>
<smd name="P13" x="3.6" y="-4.4" dx="0.41" dy="0.41" layer="1" roundness="100"/>
<smd name="P14" x="4.4" y="-4.4" dx="0.41" dy="0.41" layer="1" roundness="100"/>
<smd name="P15" x="5.2" y="-4.4" dx="0.41" dy="0.41" layer="1" roundness="100"/>
<smd name="P16" x="6" y="-4.4" dx="0.41" dy="0.41" layer="1" roundness="100"/>
<smd name="R1" x="-6" y="-5.2" dx="0.41" dy="0.41" layer="1" roundness="100"/>
<smd name="R2" x="-5.2" y="-5.2" dx="0.41" dy="0.41" layer="1" roundness="100"/>
<smd name="R3" x="-4.4" y="-5.2" dx="0.41" dy="0.41" layer="1" roundness="100"/>
<smd name="R4" x="-3.6" y="-5.2" dx="0.41" dy="0.41" layer="1" roundness="100"/>
<smd name="R5" x="-2.8" y="-5.2" dx="0.41" dy="0.41" layer="1" roundness="100"/>
<smd name="R6" x="-2" y="-5.2" dx="0.41" dy="0.41" layer="1" roundness="100"/>
<smd name="R7" x="-1.2" y="-5.2" dx="0.41" dy="0.41" layer="1" roundness="100"/>
<smd name="R8" x="-0.4" y="-5.2" dx="0.41" dy="0.41" layer="1" roundness="100"/>
<smd name="R9" x="0.4" y="-5.2" dx="0.41" dy="0.41" layer="1" roundness="100"/>
<smd name="R10" x="1.2" y="-5.2" dx="0.41" dy="0.41" layer="1" roundness="100"/>
<smd name="R11" x="2" y="-5.2" dx="0.41" dy="0.41" layer="1" roundness="100"/>
<smd name="R12" x="2.8" y="-5.2" dx="0.41" dy="0.41" layer="1" roundness="100"/>
<smd name="R13" x="3.6" y="-5.2" dx="0.41" dy="0.41" layer="1" roundness="100"/>
<smd name="R14" x="4.4" y="-5.2" dx="0.41" dy="0.41" layer="1" roundness="100"/>
<smd name="R15" x="5.2" y="-5.2" dx="0.41" dy="0.41" layer="1" roundness="100"/>
<smd name="R16" x="6" y="-5.2" dx="0.41" dy="0.41" layer="1" roundness="100"/>
<smd name="T1" x="-6" y="-6" dx="0.41" dy="0.41" layer="1" roundness="100"/>
<smd name="T2" x="-5.2" y="-6" dx="0.41" dy="0.41" layer="1" roundness="100"/>
<smd name="T3" x="-4.4" y="-6" dx="0.41" dy="0.41" layer="1" roundness="100"/>
<smd name="T4" x="-3.6" y="-6" dx="0.41" dy="0.41" layer="1" roundness="100"/>
<smd name="T5" x="-2.8" y="-6" dx="0.41" dy="0.41" layer="1" roundness="100"/>
<smd name="T6" x="-2" y="-6" dx="0.41" dy="0.41" layer="1" roundness="100"/>
<smd name="T7" x="-1.2" y="-6" dx="0.41" dy="0.41" layer="1" roundness="100"/>
<smd name="T8" x="-0.4" y="-6" dx="0.41" dy="0.41" layer="1" roundness="100"/>
<smd name="T9" x="0.4" y="-6" dx="0.41" dy="0.41" layer="1" roundness="100"/>
<smd name="T10" x="1.2" y="-6" dx="0.41" dy="0.41" layer="1" roundness="100"/>
<smd name="T11" x="2" y="-6" dx="0.41" dy="0.41" layer="1" roundness="100"/>
<smd name="T12" x="2.8" y="-6" dx="0.41" dy="0.41" layer="1" roundness="100"/>
<smd name="T13" x="3.6" y="-6" dx="0.41" dy="0.41" layer="1" roundness="100"/>
<smd name="T14" x="4.4" y="-6" dx="0.41" dy="0.41" layer="1" roundness="100"/>
<smd name="T15" x="5.2" y="-6" dx="0.41" dy="0.41" layer="1" roundness="100"/>
<smd name="T16" x="6" y="-6" dx="0.41" dy="0.41" layer="1" roundness="100"/>
</package>
</packages>
<symbols>
<symbol name="ICE40HX8K-CT256_SECTION1">
<wire x1="-12.7" y1="-66.04" x2="-12.7" y2="68.58" width="0.254" layer="94"/>
<wire x1="-12.7" y1="-66.04" x2="12.7" y2="-66.04" width="0.254" layer="94"/>
<wire x1="-12.7" y1="68.58" x2="12.7" y2="68.58" width="0.254" layer="94"/>
<wire x1="12.7" y1="68.58" x2="12.7" y2="-66.04" width="0.254" layer="94"/>
<text x="-12.7082" y="69.2594" size="1.77914" layer="95">&gt;NAME</text>
<text x="-12.7177" y="-68.6757" size="1.78048" layer="96">&gt;VALUE</text>
<text x="3.55803" y="69.1275" size="1.77902" layer="94">BANK 0</text>
<pin name="IOT_220" x="17.78" y="-45.72" length="middle" rot="R180"/>
<pin name="IOT_218" x="17.78" y="-40.64" length="middle" rot="R180"/>
<pin name="IOT_213" x="17.78" y="-30.48" length="middle" rot="R180"/>
<pin name="IOT_211" x="17.78" y="-25.4" length="middle" rot="R180"/>
<pin name="IOT_205" x="17.78" y="-10.16" length="middle" rot="R180"/>
<pin name="IOT_194" x="17.78" y="7.62" length="middle" rot="R180"/>
<pin name="IOT_186" x="17.78" y="22.86" length="middle" rot="R180"/>
<pin name="IOT_187" x="17.78" y="20.32" length="middle" rot="R180"/>
<pin name="IOT_177" x="17.78" y="45.72" length="middle" rot="R180"/>
<pin name="IOT_176" x="17.78" y="48.26" length="middle" rot="R180"/>
<pin name="IOT_223" x="17.78" y="-53.34" length="middle" rot="R180"/>
<pin name="IOT_216" x="17.78" y="-38.1" length="middle" rot="R180"/>
<pin name="IOT_214" x="17.78" y="-33.02" length="middle" rot="R180"/>
<pin name="IOT_208" x="17.78" y="-17.78" length="middle" rot="R180"/>
<pin name="IOT_207" x="17.78" y="-15.24" length="middle" rot="R180"/>
<pin name="IOT_203" x="17.78" y="-7.62" length="middle" rot="R180"/>
<pin name="IOT_199" x="17.78" y="-2.54" length="middle" rot="R180"/>
<pin name="IOT_183" x="17.78" y="30.48" length="middle" rot="R180"/>
<pin name="IOT_184" x="17.78" y="27.94" length="middle" rot="R180"/>
<pin name="IOT_182" x="17.78" y="33.02" length="middle" rot="R180"/>
<pin name="IOT_178" x="17.78" y="43.18" length="middle" rot="R180"/>
<pin name="IOT_171" x="17.78" y="58.42" length="middle" rot="R180"/>
<pin name="IOT_169" x="17.78" y="63.5" length="middle" rot="R180"/>
<pin name="IOT_227" x="17.78" y="-63.5" length="middle" rot="R180"/>
<pin name="IOT_222" x="17.78" y="-50.8" length="middle" rot="R180"/>
<pin name="IOT_221" x="17.78" y="-48.26" length="middle" rot="R180"/>
<pin name="IOT_209" x="17.78" y="-20.32" length="middle" rot="R180"/>
<pin name="IOT_206" x="17.78" y="-12.7" length="middle" rot="R180"/>
<pin name="IOT_197_GBIN1" x="17.78" y="2.54" length="middle" function="clk" rot="R180"/>
<pin name="IOT_191" x="17.78" y="15.24" length="middle" rot="R180"/>
<pin name="IOT_185" x="17.78" y="25.4" length="middle" rot="R180"/>
<pin name="IOT_180" x="17.78" y="38.1" length="middle" rot="R180"/>
<pin name="IOT_172" x="17.78" y="55.88" length="middle" rot="R180"/>
<pin name="IOT_174" x="17.78" y="50.8" length="middle" rot="R180"/>
<pin name="IOT_168" x="17.78" y="66.04" length="middle" rot="R180"/>
<pin name="IOT_226" x="17.78" y="-60.96" length="middle" rot="R180"/>
<pin name="IOT_224" x="17.78" y="-55.88" length="middle" rot="R180"/>
<pin name="IOT_219" x="17.78" y="-43.18" length="middle" rot="R180"/>
<pin name="IOT_212" x="17.78" y="-27.94" length="middle" rot="R180"/>
<pin name="IOT_210" x="17.78" y="-22.86" length="middle" rot="R180"/>
<pin name="IOT_200" x="17.78" y="-5.08" length="middle" rot="R180"/>
<pin name="IOT_193" x="17.78" y="10.16" length="middle" rot="R180"/>
<pin name="IOT_190" x="17.78" y="17.78" length="middle" rot="R180"/>
<pin name="IOT_181" x="17.78" y="35.56" length="middle" rot="R180"/>
<pin name="IOT_170" x="17.78" y="60.96" length="middle" rot="R180"/>
<pin name="IOT_225" x="17.78" y="-58.42" length="middle" rot="R180"/>
<pin name="IOT_215" x="17.78" y="-35.56" length="middle" rot="R180"/>
<pin name="IOT_192" x="17.78" y="12.7" length="middle" rot="R180"/>
<pin name="IOT_179" x="17.78" y="40.64" length="middle" rot="R180"/>
<pin name="IOT_173" x="17.78" y="53.34" length="middle" rot="R180"/>
<pin name="IOT_198_GBIN0" x="17.78" y="0" length="middle" function="clk" rot="R180"/>
<pin name="IOT_196" x="17.78" y="5.08" length="middle" rot="R180"/>
</symbol>
<symbol name="ICE40HX8K-CT256_SECTION2">
<wire x1="-12.7" y1="-66.04" x2="-12.7" y2="68.58" width="0.254" layer="94"/>
<wire x1="-12.7" y1="-66.04" x2="12.7" y2="-66.04" width="0.254" layer="94"/>
<wire x1="-12.7" y1="68.58" x2="12.7" y2="68.58" width="0.254" layer="94"/>
<wire x1="12.7" y1="68.58" x2="12.7" y2="-66.04" width="0.254" layer="94"/>
<text x="-12.7092" y="69.2653" size="1.77929" layer="95" ratio="10" rot="SR0">&gt;NAME</text>
<text x="-12.7244" y="-68.7118" size="1.78142" layer="96">&gt;VALUE</text>
<text x="3.8148" y="69.4293" size="1.78024" layer="94">BANK 1</text>
<pin name="IOR_165" x="17.78" y="-58.42" length="middle" rot="R180"/>
<pin name="IOR_161" x="17.78" y="-53.34" length="middle" rot="R180"/>
<pin name="IOR_167" x="17.78" y="-63.5" length="middle" rot="R180"/>
<pin name="IOR_157" x="17.78" y="-45.72" length="middle" rot="R180"/>
<pin name="IOR_153" x="17.78" y="-35.56" length="middle" rot="R180"/>
<pin name="IOR_166" x="17.78" y="-60.96" length="middle" rot="R180"/>
<pin name="IOR_160" x="17.78" y="-50.8" length="middle" rot="R180"/>
<pin name="IOR_151" x="17.78" y="-30.48" length="middle" rot="R180"/>
<pin name="IOR_158" x="17.78" y="-48.26" length="middle" rot="R180"/>
<pin name="IOR_156" x="17.78" y="-43.18" length="middle" rot="R180"/>
<pin name="IOR_162" x="17.78" y="-55.88" length="middle" rot="R180"/>
<pin name="IOR_155" x="17.78" y="-40.64" length="middle" rot="R180"/>
<pin name="IOR_149" x="17.78" y="-25.4" length="middle" rot="R180"/>
<pin name="IOR_147" x="17.78" y="-20.32" length="middle" rot="R180"/>
<pin name="IOR_146" x="17.78" y="-17.78" length="middle" rot="R180"/>
<pin name="IOR_148" x="17.78" y="-22.86" length="middle" rot="R180"/>
<pin name="IOR_154" x="17.78" y="-38.1" length="middle" rot="R180"/>
<pin name="IOR_152" x="17.78" y="-33.02" length="middle" rot="R180"/>
<pin name="IOR_150" x="17.78" y="-27.94" length="middle" rot="R180"/>
<pin name="IOR_145" x="17.78" y="-15.24" length="middle" rot="R180"/>
<pin name="IOR_143" x="17.78" y="-10.16" length="middle" rot="R180"/>
<pin name="IOR_140_GBIN3" x="17.78" y="-2.54" length="middle" function="clk" rot="R180"/>
<pin name="IOR_144" x="17.78" y="-12.7" length="middle" rot="R180"/>
<pin name="IOR_139" x="17.78" y="0" length="middle" rot="R180"/>
<pin name="IOR_142" x="17.78" y="-7.62" length="middle" rot="R180"/>
<pin name="IOR_141_GBIN2" x="17.78" y="-5.08" length="middle" function="clk" rot="R180"/>
<pin name="IOR_122" x="17.78" y="33.02" length="middle" rot="R180"/>
<pin name="IOR_126" x="17.78" y="27.94" length="middle" rot="R180"/>
<pin name="IOR_136" x="17.78" y="7.62" length="middle" rot="R180"/>
<pin name="IOR_137" x="17.78" y="5.08" length="middle" rot="R180"/>
<pin name="IOR_134" x="17.78" y="10.16" length="middle" rot="R180"/>
<pin name="IOR_130" x="17.78" y="17.78" length="middle" rot="R180"/>
<pin name="IOR_138" x="17.78" y="2.54" length="middle" rot="R180"/>
<pin name="IOR_120" x="17.78" y="38.1" length="middle" rot="R180"/>
<pin name="IOR_128" x="17.78" y="22.86" length="middle" rot="R180"/>
<pin name="IOR_129" x="17.78" y="20.32" length="middle" rot="R180"/>
<pin name="IOR_131" x="17.78" y="15.24" length="middle" rot="R180"/>
<pin name="IOR_133" x="17.78" y="12.7" length="middle" rot="R180"/>
<pin name="IOR_116" x="17.78" y="48.26" length="middle" rot="R180"/>
<pin name="IOR_118" x="17.78" y="43.18" length="middle" rot="R180"/>
<pin name="IOR_119" x="17.78" y="40.64" length="middle" rot="R180"/>
<pin name="IOR_127" x="17.78" y="25.4" length="middle" rot="R180"/>
<pin name="IOR_114" x="17.78" y="53.34" length="middle" rot="R180"/>
<pin name="IOR_115" x="17.78" y="50.8" length="middle" rot="R180"/>
<pin name="IOR_123" x="17.78" y="30.48" length="middle" rot="R180"/>
<pin name="IOR_121" x="17.78" y="35.56" length="middle" rot="R180"/>
<pin name="IOR_117" x="17.78" y="45.72" length="middle" rot="R180"/>
<pin name="IOR_111" x="17.78" y="60.96" length="middle" rot="R180"/>
<pin name="IOR_112" x="17.78" y="58.42" length="middle" rot="R180"/>
<pin name="IOR_113" x="17.78" y="55.88" length="middle" rot="R180"/>
<pin name="IOR_109" x="17.78" y="66.04" length="middle" rot="R180"/>
<pin name="IOR_110" x="17.78" y="63.5" length="middle" rot="R180"/>
</symbol>
<symbol name="ICE40HX8K-CT256_SECTION3">
<wire x1="-12.7" y1="-71.12" x2="-12.7" y2="68.58" width="0.254" layer="94"/>
<wire x1="-12.7" y1="-71.12" x2="12.7" y2="-71.12" width="0.254" layer="94"/>
<wire x1="-12.7" y1="68.58" x2="12.7" y2="68.58" width="0.254" layer="94"/>
<wire x1="12.7" y1="68.58" x2="12.7" y2="-71.12" width="0.254" layer="94"/>
<text x="-12.7252" y="69.3521" size="1.78152" layer="95" ratio="10" rot="SR0">&gt;NAME</text>
<text x="-12.7148" y="-73.746" size="1.78008" layer="96">&gt;VALUE</text>
<text x="3.81397" y="69.1599" size="1.77985" layer="94">BANK 2</text>
<pin name="IOB_82_GBIN4" x="17.78" y="-2.54" length="middle" function="clk" rot="R180"/>
<pin name="IOB_103_CBSEL0" x="17.78" y="-45.72" length="middle" rot="R180"/>
<pin name="IOB_74" x="17.78" y="17.78" length="middle" rot="R180"/>
<pin name="IOB_85" x="17.78" y="-10.16" length="middle" rot="R180"/>
<pin name="IOB_99" x="17.78" y="-35.56" length="middle" rot="R180"/>
<pin name="IOB_64" x="17.78" y="38.1" length="middle" rot="R180"/>
<pin name="IOB_68" x="17.78" y="30.48" length="middle" rot="R180"/>
<pin name="IOB_80" x="17.78" y="2.54" length="middle" rot="R180"/>
<pin name="IOB_93" x="17.78" y="-27.94" length="middle" rot="R180"/>
<pin name="IOB_101" x="17.78" y="-40.64" length="middle" rot="R180"/>
<pin name="IOB_56" x="17.78" y="55.88" length="middle" rot="R180"/>
<pin name="IOB_52" x="17.78" y="66.04" length="middle" rot="R180"/>
<pin name="IOB_66" x="17.78" y="35.56" length="middle" rot="R180"/>
<pin name="IOB_78" x="17.78" y="7.62" length="middle" rot="R180"/>
<pin name="IOB_87" x="17.78" y="-15.24" length="middle" rot="R180"/>
<pin name="IOB_98" x="17.78" y="-33.02" length="middle" rot="R180"/>
<pin name="IOB_54" x="17.78" y="60.96" length="middle" rot="R180"/>
<pin name="IOB_58" x="17.78" y="50.8" length="middle" rot="R180"/>
<pin name="IOB_67" x="17.78" y="33.02" length="middle" rot="R180"/>
<pin name="IOB_77" x="17.78" y="10.16" length="middle" rot="R180"/>
<pin name="IOB_72" x="17.78" y="22.86" length="middle" rot="R180"/>
<pin name="IOB_83" x="17.78" y="-5.08" length="middle" rot="R180"/>
<pin name="IOB_86" x="17.78" y="-12.7" length="middle" rot="R180"/>
<pin name="IOB_106_SDI" x="17.78" y="-58.42" length="middle" rot="R180"/>
<pin name="IOB_105_SDO" x="17.78" y="-60.96" length="middle" rot="R180"/>
<pin name="IOB_104_CBSEL1" x="17.78" y="-48.26" length="middle" rot="R180"/>
<pin name="IOB_55" x="17.78" y="58.42" length="middle" rot="R180"/>
<pin name="IOB_59" x="17.78" y="48.26" length="middle" rot="R180"/>
<pin name="IOB_63" x="17.78" y="40.64" length="middle" rot="R180"/>
<pin name="IOB_60" x="17.78" y="45.72" length="middle" rot="R180"/>
<pin name="IOB_71" x="17.78" y="25.4" length="middle" rot="R180"/>
<pin name="IOB_81_GBIN5" x="17.78" y="0" length="middle" function="clk" rot="R180"/>
<pin name="IOB_84" x="17.78" y="-7.62" length="middle" rot="R180"/>
<pin name="IOB_107_SCK" x="17.78" y="-55.88" length="middle" function="clk" rot="R180"/>
<pin name="IOB_108_SS" x="17.78" y="-53.34" length="middle" rot="R180"/>
<pin name="IOB_102" x="17.78" y="-43.18" length="middle" rot="R180"/>
<pin name="IOB_53" x="17.78" y="63.5" length="middle" rot="R180"/>
<pin name="IOB_57" x="17.78" y="53.34" length="middle" rot="R180"/>
<pin name="IOB_61" x="17.78" y="43.18" length="middle" rot="R180"/>
<pin name="IOB_69" x="17.78" y="27.94" length="middle" rot="R180"/>
<pin name="IOB_73" x="17.78" y="20.32" length="middle" rot="R180"/>
<pin name="IOB_75" x="17.78" y="15.24" length="middle" rot="R180"/>
<pin name="IOB_76" x="17.78" y="12.7" length="middle" rot="R180"/>
<pin name="IOB_79" x="17.78" y="5.08" length="middle" rot="R180"/>
<pin name="IOB_88" x="17.78" y="-17.78" length="middle" rot="R180"/>
<pin name="IOB_89" x="17.78" y="-20.32" length="middle" rot="R180"/>
<pin name="IOB_94" x="17.78" y="-30.48" length="middle" rot="R180"/>
<pin name="IOB_92" x="17.78" y="-25.4" length="middle" rot="R180"/>
<pin name="IOB_91" x="17.78" y="-22.86" length="middle" rot="R180"/>
<pin name="IOB_100" x="17.78" y="-38.1" length="middle" rot="R180"/>
<pin name="CRESET_B" x="17.78" y="-68.58" length="middle" direction="in" rot="R180"/>
<pin name="CDONE" x="17.78" y="-66.04" length="middle" rot="R180"/>
</symbol>
<symbol name="ICE40HX8K-CT256_SECTION4">
<wire x1="-12.7" y1="-66.04" x2="-12.7" y2="68.58" width="0.254" layer="94"/>
<wire x1="-12.7" y1="-66.04" x2="12.7" y2="-66.04" width="0.254" layer="94"/>
<wire x1="-12.7" y1="68.58" x2="12.7" y2="68.58" width="0.254" layer="94"/>
<wire x1="12.7" y1="68.58" x2="12.7" y2="-66.04" width="0.254" layer="94"/>
<text x="-12.7032" y="69.2325" size="1.77845" layer="95" ratio="10" rot="SR0">&gt;NAME</text>
<text x="-12.7183" y="-68.6786" size="1.78056" layer="96">&gt;VALUE</text>
<text x="3.5571" y="69.1093" size="1.77855" layer="94">BANK 3</text>
<pin name="IOL_2B" x="17.78" y="60.96" length="middle" rot="R180"/>
<pin name="IOL_1B" x="17.78" y="66.04" length="middle" rot="R180"/>
<pin name="IOL_3A" x="17.78" y="53.34" length="middle" rot="R180"/>
<pin name="IOL_3B" x="17.78" y="55.88" length="middle" rot="R180"/>
<pin name="IOL_5B" x="17.78" y="45.72" length="middle" rot="R180"/>
<pin name="IOL_4B" x="17.78" y="50.8" length="middle" rot="R180"/>
<pin name="IOL_7B" x="17.78" y="35.56" length="middle" rot="R180"/>
<pin name="IOL_6B" x="17.78" y="40.64" length="middle" rot="R180"/>
<pin name="IOL_1A" x="17.78" y="63.5" length="middle" rot="R180"/>
<pin name="IOL_10B" x="17.78" y="20.32" length="middle" rot="R180"/>
<pin name="IOL_9B" x="17.78" y="25.4" length="middle" rot="R180"/>
<pin name="IOL_8B" x="17.78" y="30.48" length="middle" rot="R180"/>
<pin name="IOL_4A" x="17.78" y="48.26" length="middle" rot="R180"/>
<pin name="IOL_2A" x="17.78" y="58.42" length="middle" rot="R180"/>
<pin name="IOL_13B_GBIN7" x="17.78" y="5.08" length="middle" function="clk" rot="R180"/>
<pin name="IOL_11B" x="17.78" y="15.24" length="middle" rot="R180"/>
<pin name="IOL_8A" x="17.78" y="27.94" length="middle" rot="R180"/>
<pin name="IOL_6A" x="17.78" y="38.1" length="middle" rot="R180"/>
<pin name="IOL_5A" x="17.78" y="43.18" length="middle" rot="R180"/>
<pin name="IOL_14B" x="17.78" y="0" length="middle" rot="R180"/>
<pin name="IOL_12B" x="17.78" y="10.16" length="middle" rot="R180"/>
<pin name="IOL_9A" x="17.78" y="22.86" length="middle" rot="R180"/>
<pin name="IOL_11A" x="17.78" y="12.7" length="middle" rot="R180"/>
<pin name="IOL_7A" x="17.78" y="33.02" length="middle" rot="R180"/>
<pin name="IOL_10A" x="17.78" y="17.78" length="middle" rot="R180"/>
<pin name="IOL_15B" x="17.78" y="-5.08" length="middle" rot="R180"/>
<pin name="IOL_15A" x="17.78" y="-7.62" length="middle" rot="R180"/>
<pin name="IOL_14A_GBIN6" x="17.78" y="-2.54" length="middle" function="clk" rot="R180"/>
<pin name="IOL_12A" x="17.78" y="7.62" length="middle" rot="R180"/>
<pin name="IOL_13A" x="17.78" y="2.54" length="middle" rot="R180"/>
<pin name="IOL_16A" x="17.78" y="-12.7" length="middle" rot="R180"/>
<pin name="IOL_16B" x="17.78" y="-10.16" length="middle" rot="R180"/>
<pin name="IOL_18A" x="17.78" y="-22.86" length="middle" rot="R180"/>
<pin name="IOL_20A" x="17.78" y="-33.02" length="middle" rot="R180"/>
<pin name="IOL_17B" x="17.78" y="-15.24" length="middle" rot="R180"/>
<pin name="IOL_19B" x="17.78" y="-25.4" length="middle" rot="R180"/>
<pin name="IOL_17A" x="17.78" y="-17.78" length="middle" rot="R180"/>
<pin name="IOL_23A" x="17.78" y="-48.26" length="middle" rot="R180"/>
<pin name="IOL_19A" x="17.78" y="-27.94" length="middle" rot="R180"/>
<pin name="IOL_21A" x="17.78" y="-38.1" length="middle" rot="R180"/>
<pin name="IOL_18B" x="17.78" y="-20.32" length="middle" rot="R180"/>
<pin name="IOL_20B" x="17.78" y="-30.48" length="middle" rot="R180"/>
<pin name="IOL_22B" x="17.78" y="-40.64" length="middle" rot="R180"/>
<pin name="IOL_24B" x="17.78" y="-50.8" length="middle" rot="R180"/>
<pin name="IOL_25B" x="17.78" y="-55.88" length="middle" rot="R180"/>
<pin name="IOL_22A" x="17.78" y="-43.18" length="middle" rot="R180"/>
<pin name="IOL_21B" x="17.78" y="-35.56" length="middle" rot="R180"/>
<pin name="IOL_23B" x="17.78" y="-45.72" length="middle" rot="R180"/>
<pin name="IOL_26B" x="17.78" y="-60.96" length="middle" rot="R180"/>
<pin name="IOL_24A" x="17.78" y="-53.34" length="middle" rot="R180"/>
<pin name="IOL_25A" x="17.78" y="-58.42" length="middle" rot="R180"/>
<pin name="IOL_26A" x="17.78" y="-63.5" length="middle" rot="R180"/>
</symbol>
<symbol name="ICE40HX8K-CT256_SECTION5">
<wire x1="-12.7" y1="-25.4" x2="-12.7" y2="25.4" width="0.254" layer="94"/>
<wire x1="-12.7" y1="-25.4" x2="12.7" y2="-25.4" width="0.254" layer="94"/>
<wire x1="-12.7" y1="25.4" x2="12.7" y2="25.4" width="0.254" layer="94"/>
<wire x1="12.7" y1="25.4" x2="12.7" y2="-25.4" width="0.254" layer="94"/>
<text x="-12.7121" y="26.0598" size="1.77969" layer="95" ratio="10" rot="SR0">&gt;NAME</text>
<text x="-12.7158" y="-27.9748" size="1.78021" layer="96">&gt;VALUE</text>
<pin name="VCCIO_0" x="17.78" y="10.16" visible="pin" length="middle" direction="pwr" rot="R180"/>
<pin name="GND" x="17.78" y="-17.78" visible="pin" length="middle" direction="pwr" rot="R180"/>
<pin name="VCC" x="17.78" y="22.86" visible="pin" length="middle" direction="pwr" rot="R180"/>
<pin name="VCCIO_1" x="17.78" y="7.62" visible="pin" length="middle" direction="pwr" rot="R180"/>
<pin name="VPP_FAST" x="17.78" y="15.24" visible="pin" length="middle" direction="pwr" rot="R180"/>
<pin name="VCCIO_3" x="17.78" y="2.54" visible="pin" length="middle" direction="pwr" rot="R180"/>
<pin name="GNDPLL1" x="17.78" y="-22.86" visible="pin" length="middle" direction="pwr" rot="R180"/>
<pin name="VCCPLL1" x="17.78" y="-10.16" visible="pin" length="middle" direction="pwr" rot="R180"/>
<pin name="VPP_2V5" x="17.78" y="17.78" visible="pin" length="middle" direction="pwr" rot="R180"/>
<pin name="VCCIO_2" x="17.78" y="5.08" visible="pin" length="middle" direction="pwr" rot="R180"/>
<pin name="VCCPLL0" x="17.78" y="-7.62" visible="pin" length="middle" direction="pwr" rot="R180"/>
<pin name="GNDPLL0" x="17.78" y="-20.32" visible="pin" length="middle" direction="pwr" rot="R180"/>
<pin name="VCC_SPI" x="17.78" y="-2.54" visible="pin" length="middle" direction="pwr" rot="R180"/>
</symbol>
</symbols>
<devicesets>
<deviceset name="ICE40HX8K-CT256" prefix="U">
<description>HX Series 206 I/O Lines 128 Kbit RAM Ultra Low-Power mobileFPGA Family - BGA-256 &lt;a href="https://pricing.snapeda.com/parts/ICE40HX8K-CT256/Lattice%20Semiconductor/view-part?ref=eda"&gt;Check availability&lt;/a&gt;</description>
<gates>
<gate name="G$1" symbol="ICE40HX8K-CT256_SECTION1" x="-53.34" y="71.12" swaplevel="1"/>
<gate name="G$2" symbol="ICE40HX8K-CT256_SECTION2" x="0" y="71.12" swaplevel="2"/>
<gate name="G$3" symbol="ICE40HX8K-CT256_SECTION3" x="55.88" y="71.12" swaplevel="3"/>
<gate name="G$4" symbol="ICE40HX8K-CT256_SECTION4" x="-53.34" y="-81.28" swaplevel="4"/>
<gate name="G$5" symbol="ICE40HX8K-CT256_SECTION5" x="58.42" y="-35.56" swaplevel="5"/>
</gates>
<devices>
<device name="" package="BGA256C80P16X16_1400X1400X170">
<connects>
<connect gate="G$1" pin="IOT_168" pad="C14"/>
<connect gate="G$1" pin="IOT_169" pad="B15"/>
<connect gate="G$1" pin="IOT_170" pad="D13"/>
<connect gate="G$1" pin="IOT_171" pad="B14"/>
<connect gate="G$1" pin="IOT_172" pad="C12"/>
<connect gate="G$1" pin="IOT_173" pad="E11"/>
<connect gate="G$1" pin="IOT_174" pad="C13"/>
<connect gate="G$1" pin="IOT_176" pad="A16"/>
<connect gate="G$1" pin="IOT_177" pad="A15"/>
<connect gate="G$1" pin="IOT_178" pad="B13"/>
<connect gate="G$1" pin="IOT_179" pad="E10"/>
<connect gate="G$1" pin="IOT_180" pad="C11"/>
<connect gate="G$1" pin="IOT_181" pad="D11"/>
<connect gate="G$1" pin="IOT_182" pad="B12"/>
<connect gate="G$1" pin="IOT_183" pad="B10"/>
<connect gate="G$1" pin="IOT_184" pad="B11"/>
<connect gate="G$1" pin="IOT_185" pad="C10"/>
<connect gate="G$1" pin="IOT_186" pad="A10"/>
<connect gate="G$1" pin="IOT_187" pad="A11"/>
<connect gate="G$1" pin="IOT_190" pad="D10"/>
<connect gate="G$1" pin="IOT_191" pad="C9"/>
<connect gate="G$1" pin="IOT_192" pad="E9"/>
<connect gate="G$1" pin="IOT_193" pad="D9"/>
<connect gate="G$1" pin="IOT_194" pad="A9"/>
<connect gate="G$1" pin="IOT_196" pad="F9"/>
<connect gate="G$1" pin="IOT_197_GBIN1" pad="C8"/>
<connect gate="G$1" pin="IOT_198_GBIN0" pad="F7"/>
<connect gate="G$1" pin="IOT_199" pad="B9"/>
<connect gate="G$1" pin="IOT_200" pad="D8"/>
<connect gate="G$1" pin="IOT_203" pad="B8"/>
<connect gate="G$1" pin="IOT_205" pad="A7"/>
<connect gate="G$1" pin="IOT_206" pad="C7"/>
<connect gate="G$1" pin="IOT_207" pad="B7"/>
<connect gate="G$1" pin="IOT_208" pad="B6"/>
<connect gate="G$1" pin="IOT_209" pad="C6"/>
<connect gate="G$1" pin="IOT_210" pad="D7"/>
<connect gate="G$1" pin="IOT_211" pad="A6"/>
<connect gate="G$1" pin="IOT_212" pad="D6"/>
<connect gate="G$1" pin="IOT_213" pad="A5"/>
<connect gate="G$1" pin="IOT_214" pad="B5"/>
<connect gate="G$1" pin="IOT_215" pad="E6"/>
<connect gate="G$1" pin="IOT_216" pad="B4"/>
<connect gate="G$1" pin="IOT_218" pad="A2"/>
<connect gate="G$1" pin="IOT_219" pad="D5"/>
<connect gate="G$1" pin="IOT_220" pad="A1"/>
<connect gate="G$1" pin="IOT_221" pad="C5"/>
<connect gate="G$1" pin="IOT_222" pad="C4"/>
<connect gate="G$1" pin="IOT_223" pad="B3"/>
<connect gate="G$1" pin="IOT_224" pad="D4"/>
<connect gate="G$1" pin="IOT_225" pad="E5"/>
<connect gate="G$1" pin="IOT_226" pad="D3"/>
<connect gate="G$1" pin="IOT_227" pad="C3"/>
<connect gate="G$2" pin="IOR_109" pad="R14"/>
<connect gate="G$2" pin="IOR_110" pad="R15"/>
<connect gate="G$2" pin="IOR_111" pad="P14"/>
<connect gate="G$2" pin="IOR_112" pad="P15"/>
<connect gate="G$2" pin="IOR_113" pad="P16"/>
<connect gate="G$2" pin="IOR_114" pad="M13"/>
<connect gate="G$2" pin="IOR_115" pad="M14"/>
<connect gate="G$2" pin="IOR_116" pad="L12"/>
<connect gate="G$2" pin="IOR_117" pad="N16"/>
<connect gate="G$2" pin="IOR_118" pad="L13"/>
<connect gate="G$2" pin="IOR_119" pad="L14"/>
<connect gate="G$2" pin="IOR_120" pad="K12"/>
<connect gate="G$2" pin="IOR_121" pad="M16"/>
<connect gate="G$2" pin="IOR_122" pad="J10"/>
<connect gate="G$2" pin="IOR_123" pad="M15"/>
<connect gate="G$2" pin="IOR_126" pad="J11"/>
<connect gate="G$2" pin="IOR_127" pad="L16"/>
<connect gate="G$2" pin="IOR_128" pad="K13"/>
<connect gate="G$2" pin="IOR_129" pad="K14"/>
<connect gate="G$2" pin="IOR_130" pad="J15"/>
<connect gate="G$2" pin="IOR_131" pad="K15"/>
<connect gate="G$2" pin="IOR_133" pad="K16"/>
<connect gate="G$2" pin="IOR_134" pad="J14"/>
<connect gate="G$2" pin="IOR_136" pad="J12"/>
<connect gate="G$2" pin="IOR_137" pad="J13"/>
<connect gate="G$2" pin="IOR_138" pad="J16"/>
<connect gate="G$2" pin="IOR_139" pad="H13"/>
<connect gate="G$2" pin="IOR_140_GBIN3" pad="H11"/>
<connect gate="G$2" pin="IOR_141_GBIN2" pad="H16"/>
<connect gate="G$2" pin="IOR_142" pad="H14"/>
<connect gate="G$2" pin="IOR_143" pad="G16"/>
<connect gate="G$2" pin="IOR_144" pad="H12"/>
<connect gate="G$2" pin="IOR_145" pad="G15"/>
<connect gate="G$2" pin="IOR_146" pad="G10"/>
<connect gate="G$2" pin="IOR_147" pad="F16"/>
<connect gate="G$2" pin="IOR_148" pad="G11"/>
<connect gate="G$2" pin="IOR_149" pad="F15"/>
<connect gate="G$2" pin="IOR_150" pad="G14"/>
<connect gate="G$2" pin="IOR_151" pad="E16"/>
<connect gate="G$2" pin="IOR_152" pad="G13"/>
<connect gate="G$2" pin="IOR_153" pad="D16"/>
<connect gate="G$2" pin="IOR_154" pad="G12"/>
<connect gate="G$2" pin="IOR_155" pad="F14"/>
<connect gate="G$2" pin="IOR_156" pad="F12"/>
<connect gate="G$2" pin="IOR_157" pad="D15"/>
<connect gate="G$2" pin="IOR_158" pad="F11"/>
<connect gate="G$2" pin="IOR_160" pad="E14"/>
<connect gate="G$2" pin="IOR_161" pad="C16"/>
<connect gate="G$2" pin="IOR_162" pad="F13"/>
<connect gate="G$2" pin="IOR_165" pad="B16"/>
<connect gate="G$2" pin="IOR_166" pad="E13"/>
<connect gate="G$2" pin="IOR_167" pad="D14"/>
<connect gate="G$3" pin="CDONE" pad="M10"/>
<connect gate="G$3" pin="CRESET_B" pad="N11"/>
<connect gate="G$3" pin="IOB_100" pad="T16"/>
<connect gate="G$3" pin="IOB_101" pad="M12"/>
<connect gate="G$3" pin="IOB_102" pad="R16"/>
<connect gate="G$3" pin="IOB_103_CBSEL0" pad="K11"/>
<connect gate="G$3" pin="IOB_104_CBSEL1" pad="P13"/>
<connect gate="G$3" pin="IOB_105_SDO" pad="P12"/>
<connect gate="G$3" pin="IOB_106_SDI" pad="P11"/>
<connect gate="G$3" pin="IOB_107_SCK" pad="R11"/>
<connect gate="G$3" pin="IOB_108_SS" pad="R12"/>
<connect gate="G$3" pin="IOB_52" pad="N6"/>
<connect gate="G$3" pin="IOB_53" pad="T1"/>
<connect gate="G$3" pin="IOB_54" pad="P4"/>
<connect gate="G$3" pin="IOB_55" pad="R2"/>
<connect gate="G$3" pin="IOB_56" pad="N5"/>
<connect gate="G$3" pin="IOB_57" pad="T2"/>
<connect gate="G$3" pin="IOB_58" pad="P5"/>
<connect gate="G$3" pin="IOB_59" pad="R3"/>
<connect gate="G$3" pin="IOB_60" pad="R5"/>
<connect gate="G$3" pin="IOB_61" pad="T3"/>
<connect gate="G$3" pin="IOB_63" pad="R4"/>
<connect gate="G$3" pin="IOB_64" pad="M7"/>
<connect gate="G$3" pin="IOB_66" pad="N7"/>
<connect gate="G$3" pin="IOB_67" pad="P6"/>
<connect gate="G$3" pin="IOB_68" pad="M8"/>
<connect gate="G$3" pin="IOB_69" pad="T5"/>
<connect gate="G$3" pin="IOB_71" pad="R6"/>
<connect gate="G$3" pin="IOB_72" pad="P8"/>
<connect gate="G$3" pin="IOB_73" pad="T6"/>
<connect gate="G$3" pin="IOB_74" pad="L9"/>
<connect gate="G$3" pin="IOB_75" pad="T7"/>
<connect gate="G$3" pin="IOB_76" pad="T8"/>
<connect gate="G$3" pin="IOB_77" pad="P7"/>
<connect gate="G$3" pin="IOB_78" pad="N9"/>
<connect gate="G$3" pin="IOB_79" pad="T9"/>
<connect gate="G$3" pin="IOB_80" pad="M9"/>
<connect gate="G$3" pin="IOB_81_GBIN5" pad="R9"/>
<connect gate="G$3" pin="IOB_82_GBIN4" pad="K9"/>
<connect gate="G$3" pin="IOB_83" pad="P9"/>
<connect gate="G$3" pin="IOB_84" pad="R10"/>
<connect gate="G$3" pin="IOB_85" pad="L10"/>
<connect gate="G$3" pin="IOB_86" pad="P10"/>
<connect gate="G$3" pin="IOB_87" pad="N10"/>
<connect gate="G$3" pin="IOB_88" pad="T10"/>
<connect gate="G$3" pin="IOB_89" pad="T11"/>
<connect gate="G$3" pin="IOB_91" pad="T15"/>
<connect gate="G$3" pin="IOB_92" pad="T14"/>
<connect gate="G$3" pin="IOB_93" pad="M11"/>
<connect gate="G$3" pin="IOB_94" pad="T13"/>
<connect gate="G$3" pin="IOB_98" pad="N12"/>
<connect gate="G$3" pin="IOB_99" pad="L11"/>
<connect gate="G$4" pin="IOL_10A" pad="H6"/>
<connect gate="G$4" pin="IOL_10B" pad="F1"/>
<connect gate="G$4" pin="IOL_11A" pad="H4"/>
<connect gate="G$4" pin="IOL_11B" pad="G2"/>
<connect gate="G$4" pin="IOL_12A" pad="J4"/>
<connect gate="G$4" pin="IOL_12B" pad="H2"/>
<connect gate="G$4" pin="IOL_13A" pad="J5"/>
<connect gate="G$4" pin="IOL_13B_GBIN7" pad="G1"/>
<connect gate="G$4" pin="IOL_14A_GBIN6" pad="J3"/>
<connect gate="G$4" pin="IOL_14B" pad="H1"/>
<connect gate="G$4" pin="IOL_15A" pad="J2"/>
<connect gate="G$4" pin="IOL_15B" pad="J1"/>
<connect gate="G$4" pin="IOL_16A" pad="K1"/>
<connect gate="G$4" pin="IOL_16B" pad="K3"/>
<connect gate="G$4" pin="IOL_17A" pad="L4"/>
<connect gate="G$4" pin="IOL_17B" pad="L1"/>
<connect gate="G$4" pin="IOL_18A" pad="K4"/>
<connect gate="G$4" pin="IOL_18B" pad="M1"/>
<connect gate="G$4" pin="IOL_19A" pad="L6"/>
<connect gate="G$4" pin="IOL_19B" pad="L3"/>
<connect gate="G$4" pin="IOL_1A" pad="E4"/>
<connect gate="G$4" pin="IOL_1B" pad="B2"/>
<connect gate="G$4" pin="IOL_20A" pad="K5"/>
<connect gate="G$4" pin="IOL_20B" pad="M2"/>
<connect gate="G$4" pin="IOL_21A" pad="L7"/>
<connect gate="G$4" pin="IOL_21B" pad="N2"/>
<connect gate="G$4" pin="IOL_22A" pad="M6"/>
<connect gate="G$4" pin="IOL_22B" pad="M3"/>
<connect gate="G$4" pin="IOL_23A" pad="L5"/>
<connect gate="G$4" pin="IOL_23B" pad="N3"/>
<connect gate="G$4" pin="IOL_24A" pad="P1"/>
<connect gate="G$4" pin="IOL_24B" pad="M4"/>
<connect gate="G$4" pin="IOL_25A" pad="P2"/>
<connect gate="G$4" pin="IOL_25B" pad="M5"/>
<connect gate="G$4" pin="IOL_26A" pad="R1"/>
<connect gate="G$4" pin="IOL_26B" pad="N4"/>
<connect gate="G$4" pin="IOL_2A" pad="F5"/>
<connect gate="G$4" pin="IOL_2B" pad="B1"/>
<connect gate="G$4" pin="IOL_3A" pad="C1"/>
<connect gate="G$4" pin="IOL_3B" pad="C2"/>
<connect gate="G$4" pin="IOL_4A" pad="F4"/>
<connect gate="G$4" pin="IOL_4B" pad="D2"/>
<connect gate="G$4" pin="IOL_5A" pad="G5"/>
<connect gate="G$4" pin="IOL_5B" pad="D1"/>
<connect gate="G$4" pin="IOL_6A" pad="G4"/>
<connect gate="G$4" pin="IOL_6B" pad="E3"/>
<connect gate="G$4" pin="IOL_7A" pad="H5"/>
<connect gate="G$4" pin="IOL_7B" pad="E2"/>
<connect gate="G$4" pin="IOL_8A" pad="G3"/>
<connect gate="G$4" pin="IOL_8B" pad="F3"/>
<connect gate="G$4" pin="IOL_9A" pad="H3"/>
<connect gate="G$4" pin="IOL_9B" pad="F2"/>
<connect gate="G$5" pin="GND" pad="A4 A12 E15 G7 G8 G9 H7 H8 H9 J7 J8 J9 K2 K7 L15 R7 T4 T12"/>
<connect gate="G$5" pin="GNDPLL0" pad="N8"/>
<connect gate="G$5" pin="GNDPLL1" pad="E7"/>
<connect gate="G$5" pin="VCC" pad="A14 F6 F10 K6 K10 L2"/>
<connect gate="G$5" pin="VCCIO_0" pad="A3 A8 A13 F8"/>
<connect gate="G$5" pin="VCCIO_1" pad="C15 H10 H15 N15"/>
<connect gate="G$5" pin="VCCIO_2" pad="K8 P3 R8 R13"/>
<connect gate="G$5" pin="VCCIO_3" pad="E1 G6 J6 N1"/>
<connect gate="G$5" pin="VCCPLL0" pad="L8"/>
<connect gate="G$5" pin="VCCPLL1" pad="E8"/>
<connect gate="G$5" pin="VCC_SPI" pad="N13"/>
<connect gate="G$5" pin="VPP_2V5" pad="E12"/>
<connect gate="G$5" pin="VPP_FAST" pad="D12"/>
</connects>
<technologies>
<technology name="">
<attribute name="MF" value="Lattice Semiconductor"/>
<attribute name="Description" value="
iCE40™ HX Field Programmable Gate Array (FPGA) IC 206 131072 7680 256-LFBGA
"/>
<attribute name="Package" value="CABGA-256 Lattice Semiconductor"/>
<attribute name="Price" value="None"/>
<attribute name="MP" value="ICE40HX8K-CT256"/>
<attribute name="Availability" value="In Stock"/>
<attribute name="Purchase-URL" value="https://pricing.snapeda.com/search?q=ICE40HX8K-CT256&amp;ref=eda"/>
</technology>
</technologies>
</device>
</devices>
</deviceset>
</devicesets>
</library>
</drawing>
</eagle>
