<?xml version="1.0" encoding="utf-8"?>
<!DOCTYPE eagle SYSTEM "eagle.dtd">
<eagle version="6.1">
<drawing>
<settings>
<setting alwaysvectorfont="no"/>
<setting verticaltext="up"/>
</settings>
<grid distance="0.1" unitdist="mm" unit="mm" style="lines" multiple="1" display="yes" altdistance="0.025" altunitdist="inch" altunit="inch"/>
<layers>
<layer number="1" name="Top" color="4" fill="1" visible="yes" active="yes"/>
<layer number="16" name="Bottom" color="1" fill="1" visible="yes" active="yes"/>
<layer number="17" name="Pads" color="2" fill="1" visible="yes" active="yes"/>
<layer number="18" name="Vias" color="2" fill="1" visible="yes" active="yes"/>
<layer number="19" name="Unrouted" color="6" fill="1" visible="yes" active="yes"/>
<layer number="20" name="Dimension" color="15" fill="1" visible="yes" active="yes"/>
<layer number="21" name="tPlace" color="7" fill="1" visible="yes" active="yes"/>
<layer number="22" name="bPlace" color="7" fill="1" visible="yes" active="yes"/>
<layer number="23" name="tOrigins" color="15" fill="1" visible="yes" active="yes"/>
<layer number="24" name="bOrigins" color="15" fill="1" visible="yes" active="yes"/>
<layer number="25" name="tNames" color="7" fill="1" visible="yes" active="yes"/>
<layer number="26" name="bNames" color="7" fill="1" visible="yes" active="yes"/>
<layer number="27" name="tValues" color="7" fill="1" visible="yes" active="yes"/>
<layer number="28" name="bValues" color="7" fill="1" visible="yes" active="yes"/>
<layer number="29" name="tStop" color="7" fill="3" visible="yes" active="yes"/>
<layer number="30" name="bStop" color="7" fill="6" visible="yes" active="yes"/>
<layer number="31" name="tCream" color="7" fill="4" visible="yes" active="yes"/>
<layer number="32" name="bCream" color="7" fill="5" visible="yes" active="yes"/>
<layer number="33" name="tFinish" color="6" fill="3" visible="yes" active="yes"/>
<layer number="34" name="bFinish" color="6" fill="6" visible="yes" active="yes"/>
<layer number="35" name="tGlue" color="7" fill="4" visible="yes" active="yes"/>
<layer number="36" name="bGlue" color="7" fill="5" visible="yes" active="yes"/>
<layer number="37" name="tTest" color="7" fill="1" visible="yes" active="yes"/>
<layer number="38" name="bTest" color="7" fill="1" visible="yes" active="yes"/>
<layer number="39" name="tKeepout" color="4" fill="11" visible="yes" active="yes"/>
<layer number="40" name="bKeepout" color="1" fill="11" visible="yes" active="yes"/>
<layer number="41" name="tRestrict" color="4" fill="10" visible="yes" active="yes"/>
<layer number="42" name="bRestrict" color="1" fill="10" visible="yes" active="yes"/>
<layer number="43" name="vRestrict" color="2" fill="10" visible="yes" active="yes"/>
<layer number="44" name="Drills" color="7" fill="1" visible="yes" active="yes"/>
<layer number="45" name="Holes" color="7" fill="1" visible="yes" active="yes"/>
<layer number="46" name="Milling" color="3" fill="1" visible="yes" active="yes"/>
<layer number="47" name="Measures" color="7" fill="1" visible="yes" active="yes"/>
<layer number="48" name="Document" color="7" fill="1" visible="yes" active="yes"/>
<layer number="49" name="Reference" color="7" fill="1" visible="yes" active="yes"/>
<layer number="51" name="tDocu" color="7" fill="1" visible="yes" active="yes"/>
<layer number="52" name="bDocu" color="7" fill="1" visible="yes" active="yes"/>
<layer number="90" name="Modules" color="5" fill="1" visible="yes" active="yes"/>
<layer number="91" name="Nets" color="2" fill="1" visible="yes" active="yes"/>
<layer number="92" name="Busses" color="1" fill="1" visible="yes" active="yes"/>
<layer number="93" name="Pins" color="2" fill="1" visible="yes" active="yes"/>
<layer number="94" name="Symbols" color="4" fill="1" visible="yes" active="yes"/>
<layer number="95" name="Names" color="7" fill="1" visible="yes" active="yes"/>
<layer number="96" name="Values" color="7" fill="1" visible="yes" active="yes"/>
<layer number="97" name="Info" color="7" fill="1" visible="yes" active="yes"/>
<layer number="98" name="Guide" color="6" fill="1" visible="yes" active="yes"/>
</layers>
<library>
<packages>
<package name="SON40P135X330X55-17N">
<text x="-1.2" y="2.4" size="0.8128" layer="25" font="vector" rot="SR0">&gt;Name</text>
<smd name="1" x="-0.75" y="1.4" dx="0.6" dy="0.2" layer="1"/>
<smd name="2" x="-0.75" y="1" dx="0.6" dy="0.2" layer="1"/>
<smd name="3" x="-0.75" y="0.6" dx="0.6" dy="0.2" layer="1"/>
<smd name="4" x="-0.75" y="0.2" dx="0.6" dy="0.2" layer="1"/>
<smd name="5" x="-0.75" y="-0.2" dx="0.6" dy="0.2" layer="1"/>
<smd name="6" x="-0.75" y="-0.6" dx="0.6" dy="0.2" layer="1"/>
<smd name="7" x="-0.75" y="-1" dx="0.6" dy="0.2" layer="1"/>
<smd name="8" x="-0.75" y="-1.4" dx="0.6" dy="0.2" layer="1"/>
<smd name="9" x="0.75" y="-1.4" dx="0.6" dy="0.2" layer="1"/>
<smd name="10" x="0.75" y="-1" dx="0.6" dy="0.2" layer="1"/>
<smd name="11" x="0.75" y="-0.6" dx="0.6" dy="0.2" layer="1"/>
<smd name="12" x="0.75" y="-0.2" dx="0.6" dy="0.2" layer="1"/>
<smd name="13" x="0.75" y="0.2" dx="0.6" dy="0.2" layer="1"/>
<smd name="14" x="0.75" y="0.6" dx="0.6" dy="0.2" layer="1"/>
<smd name="15" x="0.75" y="1" dx="0.6" dy="0.2" layer="1"/>
<smd name="16" x="0.75" y="1.4" dx="0.6" dy="0.2" layer="1"/>
<smd name="17" x="0" y="0" dx="0.4" dy="2.8" layer="1"/>
<wire x1="-1.4" y1="1.9" x2="1.4" y2="1.9" width="0.2" layer="21"/>
<wire x1="1.4" y1="1.9" x2="1.4" y2="-1.9" width="0.2" layer="21"/>
<wire x1="1.4" y1="-1.9" x2="-1.4" y2="-1.9" width="0.2" layer="21"/>
<wire x1="-1.4" y1="-1.9" x2="-1.4" y2="1.9" width="0.2" layer="21"/>
<text x="-1.5" y="2" size="0.8128" layer="21" font="vector" ratio="30" rot="R90">&gt;o</text>
<text x="-1.2" y="-0.4" size="0.8128" layer="51" font="vector" rot="SR0">&gt;Name</text>
<wire x1="-1.4" y1="1.9" x2="1.4" y2="1.9" width="0.2" layer="51"/>
<wire x1="1.4" y1="1.9" x2="1.4" y2="-1.9" width="0.2" layer="51"/>
<wire x1="1.4" y1="-1.9" x2="-1.4" y2="-1.9" width="0.2" layer="51"/>
<wire x1="-1.4" y1="-1.9" x2="-1.4" y2="1.9" width="0.2" layer="51"/>
<circle x="-0.9" y="1.4" radius="0.2" width="0.2" layer="51"/>
</package>
</packages>
<symbols>
<symbol name="IP4251CZ16-8-TTL">
<wire x1="-10.16" y1="12.7" x2="-10.16" y2="-12.7" width="0.4064" layer="94"/>
<wire x1="-10.16" y1="-12.7" x2="10.16" y2="-12.7" width="0.4064" layer="94"/>
<wire x1="10.16" y1="-12.7" x2="10.16" y2="12.7" width="0.4064" layer="94"/>
<wire x1="10.16" y1="12.7" x2="-10.16" y2="12.7" width="0.4064" layer="94"/>
<text x="-5.08" y="15.24" size="1.778" layer="95" font="vector" rot="SR0">&gt;Name</text>
<text x="2.54" y="-15.24" size="1.778" layer="96" font="vector" rot="SR180">&gt;Value</text>
<pin name="CH1" x="-12.7" y="10.16" length="short" direction="pas"/>
<pin name="CH2" x="-12.7" y="7.62" length="short" direction="pas"/>
<pin name="CH3" x="-12.7" y="5.08" length="short" direction="pas"/>
<pin name="CH4" x="-12.7" y="2.54" length="short" direction="pas"/>
<pin name="CH5" x="-12.7" y="0" length="short" direction="pas"/>
<pin name="CH6" x="-12.7" y="-2.54" length="short" direction="pas"/>
<pin name="CH7" x="-12.7" y="-5.08" length="short" direction="pas"/>
<pin name="CH8" x="-12.7" y="-7.62" length="short" direction="pas"/>
<pin name="EP" x="-12.7" y="-10.16" length="short" direction="pwr"/>
<pin name="CH8_2" x="12.7" y="-7.62" length="short" direction="pas" rot="R180"/>
<pin name="CH7_2" x="12.7" y="-5.08" length="short" direction="pas" rot="R180"/>
<pin name="CH6_2" x="12.7" y="-2.54" length="short" direction="pas" rot="R180"/>
<pin name="CH5_2" x="12.7" y="0" length="short" direction="pas" rot="R180"/>
<pin name="CH4_2" x="12.7" y="2.54" length="short" direction="pas" rot="R180"/>
<pin name="CH3_2" x="12.7" y="5.08" length="short" direction="pas" rot="R180"/>
<pin name="CH2_2" x="12.7" y="7.62" length="short" direction="pas" rot="R180"/>
<pin name="CH1_2" x="12.7" y="10.16" length="short" direction="pas" rot="R180"/>
</symbol>
</symbols>
<devicesets>
<deviceset name="IP4251CZ16-8-TTL" prefix="U">
<description>passive filter network &lt;a href="https://pricing.snapeda.com/parts/IP4251CZ16-8-TTL/NXP%20Semiconductors/view-part?ref=eda"&gt;Check availability&lt;/a&gt;</description>
<gates>
<gate name="A" symbol="IP4251CZ16-8-TTL" x="0" y="0"/>
</gates>
<devices>
<device name="" package="SON40P135X330X55-17N">
<connects>
<connect gate="A" pin="CH1" pad="1"/>
<connect gate="A" pin="CH1_2" pad="16"/>
<connect gate="A" pin="CH2" pad="2"/>
<connect gate="A" pin="CH2_2" pad="15"/>
<connect gate="A" pin="CH3" pad="3"/>
<connect gate="A" pin="CH3_2" pad="14"/>
<connect gate="A" pin="CH4" pad="4"/>
<connect gate="A" pin="CH4_2" pad="13"/>
<connect gate="A" pin="CH5" pad="5"/>
<connect gate="A" pin="CH5_2" pad="12"/>
<connect gate="A" pin="CH6" pad="6"/>
<connect gate="A" pin="CH6_2" pad="11"/>
<connect gate="A" pin="CH7" pad="7"/>
<connect gate="A" pin="CH7_2" pad="10"/>
<connect gate="A" pin="CH8" pad="8"/>
<connect gate="A" pin="CH8_2" pad="9"/>
<connect gate="A" pin="EP" pad="17"/>
</connects>
<technologies>
<technology name="">
<attribute name="AVAILABILITY" value="Not in stock"/>
<attribute name="CHECK_PRICES" value="https://www.snapeda.com/parts/IP4251CZ16-8-TTL/NXP+Semiconductors/view-part/?ref=eda"/>
<attribute name="DESCRIPTION" value=" RC (Pi) EMI Filter 2nd Order Low Pass 8 Channel R = 100Ohms, C = 10pF (Total) 16-UFDFN Exposed Pad "/>
<attribute name="MF" value="NXP Semiconductors"/>
<attribute name="MP" value="IP4251CZ16-8-TTL"/>
<attribute name="PACKAGE" value="UFDFN-16 NXP Semiconductors"/>
<attribute name="PRICE" value="None"/>
<attribute name="SNAPEDA_LINK" value="https://www.snapeda.com/parts/IP4251CZ16-8-TTL/NXP+Semiconductors/view-part/?ref=snap"/>
</technology>
</technologies>
</device>
</devices>
</deviceset>
</devicesets>
</library>
</drawing>
</eagle>
