<?xml version="1.0" encoding="utf-8"?>
<!DOCTYPE eagle SYSTEM "eagle.dtd">
<eagle version="6.1">
<drawing>
<settings>
<setting alwaysvectorfont="no"/>
<setting verticaltext="up"/>
</settings>
<grid distance="0.1" unitdist="mm" unit="mm" style="lines" multiple="1" display="yes" altdistance="0.025" altunitdist="inch" altunit="inch"/>
<layers>
<layer number="1" name="Top" color="4" fill="1" visible="yes" active="yes"/>
<layer number="2" name="Route2" color="1" fill="3" visible="no" active="yes"/>
<layer number="3" name="Route3" color="4" fill="3" visible="no" active="yes"/>
<layer number="4" name="Route4" color="1" fill="4" visible="no" active="yes"/>
<layer number="5" name="Route5" color="4" fill="4" visible="no" active="yes"/>
<layer number="6" name="Route6" color="1" fill="8" visible="no" active="yes"/>
<layer number="7" name="Route7" color="4" fill="8" visible="no" active="yes"/>
<layer number="8" name="Route8" color="1" fill="2" visible="no" active="yes"/>
<layer number="9" name="Route9" color="4" fill="2" visible="no" active="yes"/>
<layer number="10" name="Route10" color="1" fill="7" visible="no" active="yes"/>
<layer number="11" name="Route11" color="4" fill="7" visible="no" active="yes"/>
<layer number="12" name="Route12" color="1" fill="5" visible="no" active="yes"/>
<layer number="13" name="Route13" color="4" fill="5" visible="no" active="yes"/>
<layer number="14" name="Route14" color="1" fill="6" visible="no" active="yes"/>
<layer number="15" name="Route15" color="4" fill="6" visible="no" active="yes"/>
<layer number="16" name="Bottom" color="1" fill="1" visible="yes" active="yes"/>
<layer number="17" name="Pads" color="2" fill="1" visible="yes" active="yes"/>
<layer number="18" name="Vias" color="2" fill="1" visible="yes" active="yes"/>
<layer number="19" name="Unrouted" color="6" fill="1" visible="yes" active="yes"/>
<layer number="20" name="Dimension" color="15" fill="1" visible="yes" active="yes"/>
<layer number="21" name="tPlace" color="7" fill="1" visible="yes" active="yes"/>
<layer number="22" name="bPlace" color="7" fill="1" visible="yes" active="yes"/>
<layer number="23" name="tOrigins" color="15" fill="1" visible="yes" active="yes"/>
<layer number="24" name="bOrigins" color="15" fill="1" visible="yes" active="yes"/>
<layer number="25" name="tNames" color="7" fill="1" visible="yes" active="yes"/>
<layer number="26" name="bNames" color="7" fill="1" visible="yes" active="yes"/>
<layer number="27" name="tValues" color="7" fill="1" visible="yes" active="yes"/>
<layer number="28" name="bValues" color="7" fill="1" visible="yes" active="yes"/>
<layer number="29" name="tStop" color="7" fill="3" visible="no" active="yes"/>
<layer number="30" name="bStop" color="7" fill="6" visible="no" active="yes"/>
<layer number="31" name="tCream" color="7" fill="4" visible="no" active="yes"/>
<layer number="32" name="bCream" color="7" fill="5" visible="no" active="yes"/>
<layer number="33" name="tFinish" color="6" fill="3" visible="no" active="yes"/>
<layer number="34" name="bFinish" color="6" fill="6" visible="no" active="yes"/>
<layer number="35" name="tGlue" color="7" fill="4" visible="no" active="yes"/>
<layer number="36" name="bGlue" color="7" fill="5" visible="no" active="yes"/>
<layer number="37" name="tTest" color="7" fill="1" visible="no" active="yes"/>
<layer number="38" name="bTest" color="7" fill="1" visible="no" active="yes"/>
<layer number="39" name="tKeepout" color="4" fill="11" visible="yes" active="yes"/>
<layer number="40" name="bKeepout" color="1" fill="11" visible="yes" active="yes"/>
<layer number="41" name="tRestrict" color="4" fill="10" visible="yes" active="yes"/>
<layer number="42" name="bRestrict" color="1" fill="10" visible="yes" active="yes"/>
<layer number="43" name="vRestrict" color="2" fill="10" visible="yes" active="yes"/>
<layer number="44" name="Drills" color="7" fill="1" visible="no" active="yes"/>
<layer number="45" name="Holes" color="7" fill="1" visible="no" active="yes"/>
<layer number="46" name="Milling" color="3" fill="1" visible="no" active="yes"/>
<layer number="47" name="Measures" color="7" fill="1" visible="no" active="yes"/>
<layer number="48" name="Document" color="7" fill="1" visible="yes" active="yes"/>
<layer number="49" name="Reference" color="7" fill="1" visible="yes" active="yes"/>
<layer number="51" name="tDocu" color="7" fill="1" visible="yes" active="yes"/>
<layer number="52" name="bDocu" color="7" fill="1" visible="yes" active="yes"/>
<layer number="88" name="SimResults" color="7" fill="1" visible="yes" active="yes"/>
<layer number="89" name="SimProbes" color="7" fill="1" visible="yes" active="yes"/>
<layer number="90" name="Modules" color="7" fill="1" visible="yes" active="yes"/>
<layer number="91" name="Nets" color="2" fill="1" visible="yes" active="yes"/>
<layer number="92" name="Busses" color="1" fill="1" visible="yes" active="yes"/>
<layer number="93" name="Pins" color="2" fill="1" visible="yes" active="yes"/>
<layer number="94" name="Symbols" color="4" fill="1" visible="yes" active="yes"/>
<layer number="95" name="Names" color="7" fill="1" visible="yes" active="yes"/>
<layer number="96" name="Values" color="7" fill="1" visible="yes" active="yes"/>
<layer number="97" name="Info" color="7" fill="1" visible="yes" active="yes"/>
<layer number="98" name="Guide" color="6" fill="1" visible="yes" active="yes"/>
<layer number="99" name="SpiceOrder" color="7" fill="1" visible="yes" active="yes"/>
<layer number="100" name="Mechanical" color="7" fill="1" visible="yes" active="yes"/>
<layer number="101" name="Gehäuse" color="7" fill="1" visible="yes" active="yes"/>
<layer number="102" name="Mittellin" color="7" fill="1" visible="yes" active="yes"/>
<layer number="103" name="Accent_neu" color="7" fill="1" visible="yes" active="yes"/>
<layer number="104" name="Name" color="7" fill="1" visible="yes" active="yes"/>
<layer number="105" name="NXP" color="7" fill="1" visible="yes" active="yes"/>
<layer number="106" name="NXP_2" color="7" fill="1" visible="yes" active="yes"/>
<layer number="107" name="BD-Top" color="7" fill="1" visible="yes" active="yes"/>
<layer number="108" name="fp8" color="7" fill="1" visible="yes" active="yes"/>
<layer number="109" name="fp9" color="7" fill="1" visible="yes" active="yes"/>
<layer number="110" name="fp0" color="7" fill="1" visible="yes" active="yes"/>
<layer number="111" name="KASTMAAT1" color="7" fill="1" visible="yes" active="yes"/>
<layer number="112" name="KASTMAAT2" color="7" fill="1" visible="yes" active="yes"/>
<layer number="113" name="FRNTTEKEN" color="7" fill="1" visible="yes" active="yes"/>
<layer number="114" name="FRNTMAAT1" color="7" fill="1" visible="yes" active="yes"/>
<layer number="115" name="FRNTMAAT2" color="7" fill="1" visible="yes" active="yes"/>
<layer number="116" name="Patch_BOT" color="7" fill="1" visible="yes" active="yes"/>
<layer number="117" name="BACKMAAT1" color="7" fill="1" visible="yes" active="yes"/>
<layer number="118" name="BACKMAAT2" color="7" fill="1" visible="yes" active="yes"/>
<layer number="119" name="KAP_TEKEN" color="7" fill="1" visible="yes" active="yes"/>
<layer number="120" name="KAP_MAAT1" color="7" fill="1" visible="yes" active="yes"/>
<layer number="121" name="_tsilk" color="7" fill="1" visible="yes" active="yes"/>
<layer number="122" name="_bsilk" color="7" fill="1" visible="yes" active="yes"/>
<layer number="123" name="tTestmark" color="7" fill="1" visible="yes" active="yes"/>
<layer number="124" name="bTestmark" color="7" fill="1" visible="yes" active="yes"/>
<layer number="125" name="BIFRNTTEK" color="7" fill="1" visible="yes" active="yes"/>
<layer number="126" name="BIFRNTMAT" color="7" fill="1" visible="yes" active="yes"/>
<layer number="127" name="Info2" color="7" fill="1" visible="yes" active="yes"/>
<layer number="128" name="_bValues" color="7" fill="1" visible="yes" active="yes"/>
<layer number="129" name="top_silk" color="7" fill="1" visible="yes" active="yes"/>
<layer number="130" name="SMDSTROOK" color="7" fill="1" visible="yes" active="yes"/>
<layer number="131" name="tAdjust" color="7" fill="1" visible="yes" active="yes"/>
<layer number="132" name="bAdjust" color="7" fill="1" visible="yes" active="yes"/>
<layer number="133" name="BGA_CORE_SUP" color="7" fill="1" visible="yes" active="yes"/>
<layer number="134" name="BGA_GND" color="7" fill="1" visible="yes" active="yes"/>
<layer number="135" name="BGA_NC" color="7" fill="1" visible="yes" active="yes"/>
<layer number="136" name="BGA_DED" color="7" fill="1" visible="yes" active="yes"/>
<layer number="137" name="silkbottom" color="7" fill="1" visible="yes" active="yes"/>
<layer number="138" name="mbTest" color="7" fill="1" visible="yes" active="yes"/>
<layer number="139" name="mtKeepout" color="7" fill="1" visible="yes" active="yes"/>
<layer number="140" name="mbKeepout" color="7" fill="1" visible="yes" active="yes"/>
<layer number="141" name="mtRestrict" color="7" fill="1" visible="yes" active="yes"/>
<layer number="142" name="mbRestrict" color="7" fill="1" visible="yes" active="yes"/>
<layer number="143" name="mvRestrict" color="7" fill="1" visible="yes" active="yes"/>
<layer number="144" name="Drill_legend" color="7" fill="1" visible="yes" active="yes"/>
<layer number="145" name="DrillLegend_01-16" color="7" fill="1" visible="yes" active="yes"/>
<layer number="146" name="DrillLegend_01-20" color="7" fill="1" visible="yes" active="yes"/>
<layer number="147" name="mMeasures" color="7" fill="1" visible="yes" active="yes"/>
<layer number="148" name="mDocument" color="7" fill="1" visible="yes" active="yes"/>
<layer number="149" name="mReference" color="7" fill="1" visible="yes" active="yes"/>
<layer number="150" name="Notes" color="7" fill="1" visible="yes" active="yes"/>
<layer number="151" name="HeatSink" color="7" fill="1" visible="yes" active="yes"/>
<layer number="152" name="_bDocu" color="7" fill="1" visible="yes" active="yes"/>
<layer number="153" name="FabDoc1" color="7" fill="1" visible="yes" active="yes"/>
<layer number="154" name="FabDoc2" color="7" fill="1" visible="yes" active="yes"/>
<layer number="155" name="FabDoc3" color="7" fill="1" visible="yes" active="yes"/>
<layer number="166" name="AntennaArea" color="7" fill="1" visible="yes" active="yes"/>
<layer number="168" name="4mmHeightArea" color="7" fill="1" visible="yes" active="yes"/>
<layer number="191" name="mNets" color="7" fill="1" visible="yes" active="yes"/>
<layer number="192" name="mBusses" color="7" fill="1" visible="yes" active="yes"/>
<layer number="193" name="mPins" color="7" fill="1" visible="yes" active="yes"/>
<layer number="194" name="mSymbols" color="7" fill="1" visible="yes" active="yes"/>
<layer number="195" name="mNames" color="7" fill="1" visible="yes" active="yes"/>
<layer number="196" name="mValues" color="7" fill="1" visible="yes" active="yes"/>
<layer number="199" name="Contour" color="7" fill="1" visible="yes" active="yes"/>
<layer number="200" name="200bmp" color="7" fill="1" visible="yes" active="yes"/>
<layer number="201" name="201bmp" color="7" fill="1" visible="yes" active="yes"/>
<layer number="202" name="202bmp" color="7" fill="1" visible="yes" active="yes"/>
<layer number="203" name="203bmp" color="7" fill="1" visible="yes" active="yes"/>
<layer number="204" name="204bmp" color="7" fill="1" visible="yes" active="yes"/>
<layer number="205" name="205bmp" color="7" fill="1" visible="yes" active="yes"/>
<layer number="206" name="206bmp" color="7" fill="1" visible="yes" active="yes"/>
<layer number="207" name="207bmp" color="7" fill="1" visible="yes" active="yes"/>
<layer number="208" name="208bmp" color="7" fill="1" visible="yes" active="yes"/>
<layer number="209" name="209bmp" color="7" fill="1" visible="yes" active="yes"/>
<layer number="210" name="210bmp" color="7" fill="1" visible="yes" active="yes"/>
<layer number="211" name="211bmp" color="7" fill="1" visible="yes" active="yes"/>
<layer number="212" name="212bmp" color="7" fill="1" visible="yes" active="yes"/>
<layer number="213" name="213bmp" color="7" fill="1" visible="yes" active="yes"/>
<layer number="214" name="214bmp" color="7" fill="1" visible="yes" active="yes"/>
<layer number="215" name="215bmp" color="7" fill="1" visible="yes" active="yes"/>
<layer number="216" name="BottomExtra" color="7" fill="1" visible="yes" active="yes"/>
<layer number="217" name="217bmp" color="7" fill="1" visible="yes" active="yes"/>
<layer number="218" name="218bmp" color="7" fill="1" visible="yes" active="yes"/>
<layer number="219" name="219bmp" color="7" fill="1" visible="yes" active="yes"/>
<layer number="220" name="220bmp" color="7" fill="1" visible="yes" active="yes"/>
<layer number="221" name="221bmp" color="7" fill="1" visible="yes" active="yes"/>
<layer number="222" name="222bmp" color="7" fill="1" visible="yes" active="yes"/>
<layer number="223" name="223bmp" color="7" fill="1" visible="yes" active="yes"/>
<layer number="224" name="224bmp" color="7" fill="1" visible="yes" active="yes"/>
<layer number="225" name="225bmp" color="7" fill="1" visible="yes" active="yes"/>
<layer number="226" name="226bmp" color="7" fill="1" visible="yes" active="yes"/>
<layer number="227" name="227bmp" color="7" fill="1" visible="yes" active="yes"/>
<layer number="228" name="228bmp" color="7" fill="1" visible="yes" active="yes"/>
<layer number="229" name="229bmp" color="7" fill="1" visible="yes" active="yes"/>
<layer number="230" name="230bmp" color="7" fill="1" visible="yes" active="yes"/>
<layer number="231" name="Eagle3D_PG1" color="7" fill="1" visible="yes" active="yes"/>
<layer number="232" name="Eagle3D_PG2" color="7" fill="1" visible="yes" active="yes"/>
<layer number="233" name="Eagle3D_PG3" color="7" fill="1" visible="yes" active="yes"/>
<layer number="248" name="Housing" color="7" fill="1" visible="yes" active="yes"/>
<layer number="249" name="Edge" color="7" fill="1" visible="yes" active="yes"/>
<layer number="250" name="Descript" color="7" fill="1" visible="yes" active="yes"/>
<layer number="251" name="SMDround" color="7" fill="1" visible="yes" active="yes"/>
<layer number="254" name="OrgLBR" color="7" fill="1" visible="yes" active="yes"/>
<layer number="255" name="Accent" color="7" fill="1" visible="yes" active="yes"/>
</layers>
<library>
<description>Generated from &lt;b&gt;ptn3366.sch&lt;/b&gt;&lt;p&gt;
by exp-project-lbr.ulp</description>
<packages>
<package name="SOT617-3">
<description>&lt;li&gt;&lt;b&gt;SOT617-3&lt;/b&gt;&lt;hr&gt;
&lt;ul&gt;&lt;li&gt;HVQFN32: plastic thermal enhanced very thin quad flat package; no leads; 32 terminals; body 5 x 5 x 0.85 mm
&lt;li&gt;&lt;u&gt;JEDEC&lt;/u&gt;: MO-220
&lt;li&gt;&lt;u&gt;IEC&lt;/u&gt;: --
&lt;li&gt;&lt;u&gt;JEITA&lt;/u&gt;: -- &lt;/ul&gt;</description>
<circle x="0" y="0" radius="0.3" width="0" layer="31"/>
<circle x="-1.125" y="1.125" radius="0.3" width="0" layer="31"/>
<circle x="0" y="1.125" radius="0.3" width="0" layer="31"/>
<circle x="1.125" y="1.125" radius="0.3" width="0" layer="31"/>
<circle x="1.125" y="0" radius="0.3" width="0" layer="31"/>
<circle x="1.125" y="-1.125" radius="0.3" width="0" layer="31"/>
<circle x="0" y="-1.125" radius="0.3" width="0" layer="31"/>
<circle x="-1.125" y="-1.125" radius="0.3" width="0" layer="31"/>
<circle x="-1.125" y="0" radius="0.3" width="0" layer="31"/>
<smd name="1" x="-2.55" y="1.75" dx="0.27" dy="0.85" layer="1" rot="R90"/>
<smd name="2" x="-2.55" y="1.25" dx="0.27" dy="0.85" layer="1" rot="R270"/>
<smd name="3" x="-2.55" y="0.75" dx="0.27" dy="0.85" layer="1" rot="R90"/>
<smd name="4" x="-2.55" y="0.25" dx="0.27" dy="0.85" layer="1" rot="R90"/>
<smd name="5" x="-2.55" y="-0.25" dx="0.27" dy="0.85" layer="1" rot="R90"/>
<smd name="6" x="-2.55" y="-0.75" dx="0.27" dy="0.85" layer="1" rot="R90"/>
<smd name="7" x="-2.55" y="-1.25" dx="0.27" dy="0.85" layer="1" rot="R90"/>
<smd name="8" x="-2.55" y="-1.75" dx="0.27" dy="0.85" layer="1" rot="R90"/>
<smd name="9" x="-1.75" y="-2.55" dx="0.27" dy="0.85" layer="1" rot="R180"/>
<smd name="10" x="-1.25" y="-2.55" dx="0.27" dy="0.85" layer="1" rot="R180"/>
<smd name="11" x="-0.75" y="-2.55" dx="0.27" dy="0.85" layer="1" rot="R180"/>
<smd name="12" x="-0.25" y="-2.55" dx="0.27" dy="0.85" layer="1" rot="R180"/>
<smd name="13" x="0.25" y="-2.55" dx="0.27" dy="0.85" layer="1" rot="R180"/>
<smd name="14" x="0.75" y="-2.55" dx="0.27" dy="0.85" layer="1" rot="R180"/>
<smd name="15" x="1.25" y="-2.55" dx="0.27" dy="0.85" layer="1" rot="R180"/>
<smd name="16" x="1.75" y="-2.55" dx="0.27" dy="0.85" layer="1" rot="R180"/>
<smd name="17" x="2.55" y="-1.75" dx="0.27" dy="0.85" layer="1" rot="R270"/>
<smd name="18" x="2.55" y="-1.25" dx="0.27" dy="0.85" layer="1" rot="R90"/>
<smd name="19" x="2.55" y="-0.75" dx="0.27" dy="0.85" layer="1" rot="R270"/>
<smd name="20" x="2.55" y="-0.25" dx="0.27" dy="0.85" layer="1" rot="R270"/>
<smd name="21" x="2.55" y="0.25" dx="0.27" dy="0.85" layer="1" rot="R270"/>
<smd name="22" x="2.55" y="0.75" dx="0.27" dy="0.85" layer="1" rot="R270"/>
<smd name="23" x="2.55" y="1.25" dx="0.27" dy="0.85" layer="1" rot="R270"/>
<smd name="24" x="2.55" y="1.75" dx="0.27" dy="0.85" layer="1" rot="R270"/>
<smd name="25" x="1.75" y="2.55" dx="0.27" dy="0.85" layer="1"/>
<smd name="26" x="1.25" y="2.55" dx="0.27" dy="0.85" layer="1"/>
<smd name="27" x="0.75" y="2.55" dx="0.27" dy="0.85" layer="1"/>
<smd name="28" x="0.25" y="2.55" dx="0.27" dy="0.85" layer="1"/>
<smd name="29" x="-0.25" y="2.55" dx="0.27" dy="0.85" layer="1"/>
<smd name="30" x="-0.75" y="2.55" dx="0.27" dy="0.85" layer="1"/>
<smd name="31" x="-1.25" y="2.55" dx="0.27" dy="0.85" layer="1"/>
<smd name="32" x="-1.75" y="2.55" dx="0.27" dy="0.85" layer="1"/>
<smd name="33" x="0" y="0" dx="3.75" dy="3.75" layer="1" cream="no"/>
<text x="-1.6" y="3.4" size="0.8128" layer="25" font="vector" rot="SR0">&gt;Name</text>
<wire x1="-2.7" y1="2.7" x2="2.7" y2="2.7" width="0.2" layer="51"/>
<wire x1="2.7" y1="2.7" x2="2.7" y2="-2.7" width="0.2" layer="51"/>
<wire x1="2.7" y1="-2.7" x2="-2.7" y2="-2.7" width="0.2" layer="51"/>
<wire x1="-2.7" y1="-2.7" x2="-2.7" y2="2.7" width="0.2" layer="51"/>
<wire x1="-2.2" y1="2.7" x2="-2.7" y2="2.7" width="0.2" layer="21"/>
<wire x1="-2.7" y1="2.7" x2="-2.7" y2="2.2" width="0.2" layer="21"/>
<wire x1="-2.7" y1="2.2" x2="-2.2" y2="2.7" width="0.2" layer="21"/>
<wire x1="2.2" y1="2.7" x2="2.7" y2="2.7" width="0.2" layer="21"/>
<wire x1="2.7" y1="2.7" x2="2.7" y2="2.2" width="0.2" layer="21"/>
<wire x1="2.7" y1="-2.2" x2="2.7" y2="-2.7" width="0.2" layer="21"/>
<wire x1="2.7" y1="-2.7" x2="2.2" y2="-2.7" width="0.2" layer="21"/>
<wire x1="-2.2" y1="-2.7" x2="-2.7" y2="-2.7" width="0.2" layer="21"/>
<wire x1="-2.7" y1="-2.7" x2="-2.7" y2="-2.2" width="0.2" layer="21"/>
<text x="-2.8" y="2.8" size="0.8128" layer="21" font="vector" ratio="30" rot="R90">&gt;o</text>
<text x="-1.6" y="-0.4" size="0.8128" layer="51" font="vector" rot="SR0">&gt;Name</text>
<wire x1="-1.9" y1="1.9" x2="1.9" y2="1.9" width="0.2" layer="41"/>
<wire x1="1.9" y1="1.9" x2="1.9" y2="-1.9" width="0.2" layer="41"/>
<wire x1="1.9" y1="-1.9" x2="-1.9" y2="-1.9" width="0.2" layer="41"/>
<wire x1="-1.9" y1="-1.9" x2="-1.9" y2="1.9" width="0.2" layer="41"/>
</package>
</packages>
<symbols>
<symbol name="PTN3366">
<wire x1="-12.7" y1="33.02" x2="12.7" y2="33.02" width="0.254" layer="94"/>
<wire x1="12.7" y1="33.02" x2="12.7" y2="-27.94" width="0.254" layer="94"/>
<wire x1="12.7" y1="-27.94" x2="-12.7" y2="-27.94" width="0.254" layer="94"/>
<wire x1="-12.7" y1="-27.94" x2="-12.7" y2="33.02" width="0.254" layer="94"/>
<pin name="DDC_EN" x="-15.24" y="-15.24" length="short" direction="in"/>
<pin name="EQ0" x="-15.24" y="-10.16" length="short" direction="in"/>
<pin name="EQ1" x="-15.24" y="-12.7" length="short" direction="in"/>
<pin name="GND" x="-15.24" y="-25.4" length="short" direction="pwr"/>
<pin name="HPD_SNK" x="15.24" y="-7.62" length="short" direction="in" rot="R180"/>
<pin name="HPD_SRC" x="-15.24" y="-7.62" length="short" direction="out"/>
<pin name="IN_D1+" x="-15.24" y="10.16" length="short" direction="in"/>
<pin name="IN_D1-" x="-15.24" y="-2.54" length="short" direction="in"/>
<pin name="IN_D2+" x="-15.24" y="12.7" length="short" direction="in"/>
<pin name="IN_D2-" x="-15.24" y="0" length="short" direction="in"/>
<pin name="IN_D3+" x="-15.24" y="15.24" length="short" direction="in"/>
<pin name="IN_D3-" x="-15.24" y="2.54" length="short" direction="in"/>
<pin name="IN_D4+" x="-15.24" y="17.78" length="short" direction="in"/>
<pin name="IN_D4-" x="-15.24" y="5.08" length="short" direction="in"/>
<pin name="NC1" x="15.24" y="-10.16" length="short" direction="nc" rot="R180"/>
<pin name="NC2" x="15.24" y="-12.7" length="short" direction="nc" rot="R180"/>
<pin name="NC3" x="15.24" y="-15.24" length="short" direction="nc" rot="R180"/>
<pin name="OE_N" x="-15.24" y="22.86" length="short" direction="in"/>
<pin name="OUT_D1+" x="15.24" y="0" length="short" direction="out" rot="R180"/>
<pin name="OUT_D1-" x="15.24" y="-2.54" length="short" direction="out" rot="R180"/>
<pin name="OUT_D2+" x="15.24" y="7.62" length="short" direction="out" rot="R180"/>
<pin name="OUT_D2-" x="15.24" y="5.08" length="short" direction="out" rot="R180"/>
<pin name="OUT_D3+" x="15.24" y="15.24" length="short" direction="out" rot="R180"/>
<pin name="OUT_D3-" x="15.24" y="12.7" length="short" direction="out" rot="R180"/>
<pin name="OUT_D4+" x="15.24" y="22.86" length="short" direction="out" rot="R180"/>
<pin name="OUT_D4-" x="15.24" y="20.32" length="short" direction="out" rot="R180"/>
<pin name="REXT" x="15.24" y="27.94" length="short" rot="R180"/>
<pin name="SCL_SNK" x="15.24" y="-20.32" length="short" rot="R180"/>
<pin name="SCL_SRC" x="-15.24" y="-20.32" length="short"/>
<pin name="SDA_SNK" x="15.24" y="-22.86" length="short" rot="R180"/>
<pin name="SDA_SRC" x="-15.24" y="-22.86" length="short"/>
<pin name="VDD1" x="-15.24" y="27.94" length="short" direction="pwr"/>
<pin name="VDD2" x="-15.24" y="30.48" length="short" direction="pwr"/>
<text x="-2.54" y="35.56" size="1.778" layer="95" font="vector">&gt;Name</text>
<text x="5.08" y="-30.48" size="1.778" layer="96" font="vector" rot="R180">&gt;Value</text>
</symbol>
</symbols>
<devicesets>
<deviceset name="PTN3366">
<description>PTN3366 - Low power HDMI/DVI level shifter with active DDC buffer, supporting 3Gbit/s operation.</description>
<gates>
<gate name="G$1" symbol="PTN3366" x="0" y="0"/>
</gates>
<devices>
<device name="" package="SOT617-3">
<connects>
<connect gate="G$1" pin="DDC_EN" pad="22"/>
<connect gate="G$1" pin="EQ0" pad="8"/>
<connect gate="G$1" pin="EQ1" pad="2"/>
<connect gate="G$1" pin="GND" pad="33"/>
<connect gate="G$1" pin="HPD_SNK" pad="21"/>
<connect gate="G$1" pin="HPD_SRC" pad="5"/>
<connect gate="G$1" pin="IN_D1+" pad="26"/>
<connect gate="G$1" pin="IN_D1-" pad="25"/>
<connect gate="G$1" pin="IN_D2+" pad="28"/>
<connect gate="G$1" pin="IN_D2-" pad="27"/>
<connect gate="G$1" pin="IN_D3+" pad="30"/>
<connect gate="G$1" pin="IN_D3-" pad="29"/>
<connect gate="G$1" pin="IN_D4+" pad="32"/>
<connect gate="G$1" pin="IN_D4-" pad="31"/>
<connect gate="G$1" pin="NC1" pad="3"/>
<connect gate="G$1" pin="NC2" pad="23"/>
<connect gate="G$1" pin="NC3" pad="24"/>
<connect gate="G$1" pin="OE_N" pad="17"/>
<connect gate="G$1" pin="OUT_D1+" pad="15"/>
<connect gate="G$1" pin="OUT_D1-" pad="16"/>
<connect gate="G$1" pin="OUT_D2+" pad="13"/>
<connect gate="G$1" pin="OUT_D2-" pad="14"/>
<connect gate="G$1" pin="OUT_D3+" pad="11"/>
<connect gate="G$1" pin="OUT_D3-" pad="12"/>
<connect gate="G$1" pin="OUT_D4+" pad="9"/>
<connect gate="G$1" pin="OUT_D4-" pad="10"/>
<connect gate="G$1" pin="REXT" pad="4"/>
<connect gate="G$1" pin="SCL_SNK" pad="19"/>
<connect gate="G$1" pin="SCL_SRC" pad="7"/>
<connect gate="G$1" pin="SDA_SNK" pad="20"/>
<connect gate="G$1" pin="SDA_SRC" pad="6"/>
<connect gate="G$1" pin="VDD1" pad="1"/>
<connect gate="G$1" pin="VDD2" pad="18"/>
</connects>
<technologies>
<technology name=""/>
</technologies>
</device>
</devices>
</deviceset>
</devicesets>
</library>
</drawing>
</eagle>
