<?xml version="1.0" encoding="utf-8"?>
<!DOCTYPE eagle SYSTEM "eagle.dtd">
<eagle version="6.1">
<drawing>
<settings>
<setting alwaysvectorfont="no"/>
<setting verticaltext="up"/>
</settings>
<grid distance="0.1" unitdist="mm" unit="mm" style="lines" multiple="1" display="yes" altdistance="0.025" altunitdist="inch" altunit="inch"/>
<layers>
<layer number="1" name="Top" color="4" fill="1" visible="yes" active="yes"/>
<layer number="2" name="Route2" color="1" fill="3" visible="no" active="yes"/>
<layer number="3" name="Route3" color="4" fill="3" visible="no" active="yes"/>
<layer number="4" name="Route4" color="1" fill="4" visible="no" active="yes"/>
<layer number="5" name="Route5" color="4" fill="4" visible="no" active="yes"/>
<layer number="6" name="Route6" color="1" fill="8" visible="no" active="yes"/>
<layer number="7" name="Route7" color="4" fill="8" visible="no" active="yes"/>
<layer number="8" name="Route8" color="1" fill="2" visible="no" active="yes"/>
<layer number="9" name="Route9" color="4" fill="2" visible="no" active="yes"/>
<layer number="10" name="Route10" color="1" fill="7" visible="no" active="yes"/>
<layer number="11" name="Route11" color="4" fill="7" visible="no" active="yes"/>
<layer number="12" name="Route12" color="1" fill="5" visible="no" active="yes"/>
<layer number="13" name="Route13" color="4" fill="5" visible="no" active="yes"/>
<layer number="14" name="Route14" color="1" fill="6" visible="no" active="yes"/>
<layer number="15" name="Route15" color="4" fill="6" visible="no" active="yes"/>
<layer number="16" name="Bottom" color="1" fill="1" visible="yes" active="yes"/>
<layer number="17" name="Pads" color="2" fill="1" visible="yes" active="yes"/>
<layer number="18" name="Vias" color="2" fill="1" visible="yes" active="yes"/>
<layer number="19" name="Unrouted" color="6" fill="1" visible="yes" active="yes"/>
<layer number="20" name="Dimension" color="15" fill="1" visible="yes" active="yes"/>
<layer number="21" name="tPlace" color="7" fill="1" visible="yes" active="yes"/>
<layer number="22" name="bPlace" color="7" fill="1" visible="no" active="yes"/>
<layer number="23" name="tOrigins" color="15" fill="1" visible="yes" active="yes"/>
<layer number="24" name="bOrigins" color="15" fill="1" visible="yes" active="yes"/>
<layer number="25" name="tNames" color="7" fill="1" visible="yes" active="yes"/>
<layer number="26" name="bNames" color="7" fill="1" visible="yes" active="yes"/>
<layer number="27" name="tValues" color="7" fill="1" visible="yes" active="yes"/>
<layer number="28" name="bValues" color="7" fill="1" visible="yes" active="yes"/>
<layer number="29" name="tStop" color="7" fill="3" visible="no" active="yes"/>
<layer number="30" name="bStop" color="7" fill="6" visible="no" active="yes"/>
<layer number="31" name="tCream" color="7" fill="4" visible="yes" active="yes"/>
<layer number="32" name="bCream" color="7" fill="5" visible="no" active="yes"/>
<layer number="33" name="tFinish" color="6" fill="3" visible="no" active="yes"/>
<layer number="34" name="bFinish" color="6" fill="6" visible="no" active="yes"/>
<layer number="35" name="tGlue" color="7" fill="4" visible="no" active="yes"/>
<layer number="36" name="bGlue" color="7" fill="5" visible="no" active="yes"/>
<layer number="37" name="tTest" color="7" fill="1" visible="no" active="yes"/>
<layer number="38" name="bTest" color="7" fill="1" visible="no" active="yes"/>
<layer number="39" name="tKeepout" color="4" fill="11" visible="yes" active="yes"/>
<layer number="40" name="bKeepout" color="1" fill="11" visible="yes" active="yes"/>
<layer number="41" name="tRestrict" color="4" fill="10" visible="yes" active="yes"/>
<layer number="42" name="bRestrict" color="1" fill="10" visible="yes" active="yes"/>
<layer number="43" name="vRestrict" color="2" fill="10" visible="yes" active="yes"/>
<layer number="44" name="Drills" color="7" fill="1" visible="no" active="yes"/>
<layer number="45" name="Holes" color="7" fill="1" visible="no" active="yes"/>
<layer number="46" name="Milling" color="3" fill="1" visible="no" active="yes"/>
<layer number="47" name="Measures" color="7" fill="1" visible="no" active="yes"/>
<layer number="48" name="Document" color="7" fill="1" visible="yes" active="yes"/>
<layer number="49" name="Reference" color="7" fill="1" visible="yes" active="yes"/>
<layer number="51" name="tDocu" color="7" fill="1" visible="yes" active="yes"/>
<layer number="52" name="bDocu" color="7" fill="1" visible="no" active="yes"/>
<layer number="91" name="Nets" color="2" fill="1" visible="yes" active="yes"/>
<layer number="92" name="Busses" color="1" fill="1" visible="yes" active="yes"/>
<layer number="93" name="Pins" color="2" fill="1" visible="yes" active="yes"/>
<layer number="94" name="Symbols" color="4" fill="1" visible="yes" active="yes"/>
<layer number="95" name="Names" color="7" fill="1" visible="yes" active="yes"/>
<layer number="96" name="Values" color="7" fill="1" visible="yes" active="yes"/>
<layer number="97" name="Info" color="7" fill="1" visible="yes" active="yes"/>
<layer number="98" name="Guide" color="6" fill="1" visible="yes" active="yes"/>
</layers>
<library>
<packages>
<package name="VQFN">
<smd name="1" x="-0.75" y="2.65" dx="0.25" dy="0.6" layer="1"/>
<smd name="2" x="-1.65" y="2.25" dx="0.25" dy="0.6" layer="1" rot="R90"/>
<smd name="3" x="-1.65" y="1.75" dx="0.25" dy="0.6" layer="1" rot="R90"/>
<smd name="4" x="-1.65" y="1.25" dx="0.25" dy="0.6" layer="1" rot="R90"/>
<smd name="5" x="-1.65" y="0.75" dx="0.25" dy="0.6" layer="1" rot="R90"/>
<smd name="6" x="-1.65" y="0.25" dx="0.25" dy="0.6" layer="1" rot="R90"/>
<smd name="7" x="-1.65" y="-0.25" dx="0.25" dy="0.6" layer="1" rot="R90"/>
<smd name="8" x="-1.65" y="-0.75" dx="0.25" dy="0.6" layer="1" rot="R90"/>
<smd name="9" x="-1.65" y="-1.25" dx="0.25" dy="0.6" layer="1" rot="R90"/>
<smd name="10" x="-1.65" y="-1.75" dx="0.25" dy="0.6" layer="1" rot="R90"/>
<smd name="11" x="-1.65" y="-2.25" dx="0.25" dy="0.6" layer="1" rot="R90"/>
<smd name="12" x="-0.75" y="-2.65" dx="0.25" dy="0.6" layer="1" rot="R180"/>
<smd name="13" x="0.75" y="-2.65" dx="0.25" dy="0.6" layer="1" rot="R180"/>
<smd name="14" x="1.65" y="-2.25" dx="0.25" dy="0.6" layer="1" rot="R270"/>
<smd name="15" x="1.65" y="-1.75" dx="0.25" dy="0.6" layer="1" rot="R270"/>
<smd name="16" x="1.65" y="-1.25" dx="0.25" dy="0.6" layer="1" rot="R270"/>
<smd name="17" x="1.65" y="-0.75" dx="0.25" dy="0.6" layer="1" rot="R270"/>
<smd name="18" x="1.65" y="-0.25" dx="0.25" dy="0.6" layer="1" rot="R270"/>
<smd name="19" x="1.65" y="0.25" dx="0.25" dy="0.6" layer="1" rot="R270"/>
<smd name="20" x="1.65" y="0.75" dx="0.25" dy="0.6" layer="1" rot="R270"/>
<wire x1="-1.9" y1="2.7" x2="-1.9" y2="2.9" width="0.2" layer="21"/>
<wire x1="-1.9" y1="2.9" x2="-1.2" y2="2.9" width="0.2" layer="21"/>
<wire x1="1.2" y1="2.9" x2="1.9" y2="2.9" width="0.2" layer="21"/>
<wire x1="1.9" y1="2.9" x2="1.9" y2="2.7" width="0.2" layer="21"/>
<wire x1="1.9" y1="-2.7" x2="1.9" y2="-2.9" width="0.2" layer="21"/>
<wire x1="1.9" y1="-2.9" x2="1.2" y2="-2.9" width="0.2" layer="21"/>
<wire x1="-1.2" y1="-2.9" x2="-1.9" y2="-2.9" width="0.2" layer="21"/>
<wire x1="-1.9" y1="-2.9" x2="-1.9" y2="-2.7" width="0.2" layer="21"/>
<wire x1="-1.9" y1="2.7" x2="-1.2" y2="2.9" width="0.2" layer="21"/>
<text x="-2" y="3" size="0.8128" layer="21" font="vector" ratio="30" rot="R90">&gt;o</text>
<wire x1="-1.9" y1="2.9" x2="-1.9" y2="-2.9" width="0.2" layer="51"/>
<wire x1="-1.9" y1="-2.9" x2="1.9" y2="-2.9" width="0.2" layer="51"/>
<wire x1="1.9" y1="-2.9" x2="1.9" y2="2.9" width="0.2" layer="51"/>
<wire x1="1.9" y1="2.9" x2="-1.9" y2="2.9" width="0.2" layer="51"/>
<circle x="-1.1" y="2.1" radius="0.2" width="0.2" layer="51"/>
<text x="-1.1" y="-0.4" size="0.8128" layer="51" font="vector">&gt;Name</text>
<text x="-1.1" y="3.4" size="0.8128" layer="25" font="vector">&gt;Name</text>
<smd name="21" x="1.65" y="1.25" dx="0.25" dy="0.6" layer="1" rot="R270"/>
<smd name="22" x="1.65" y="1.75" dx="0.25" dy="0.6" layer="1" rot="R270"/>
<smd name="23" x="1.65" y="2.25" dx="0.25" dy="0.6" layer="1" rot="R270"/>
<smd name="24" x="0.75" y="2.65" dx="0.25" dy="0.6" layer="1"/>
<smd name="G1" x="0" y="0" dx="2" dy="4" layer="1" cream="no"/>
<smd name="G2" x="-0.25" y="2.45" dx="0.25" dy="1" layer="1"/>
<smd name="G3" x="0.25" y="2.45" dx="0.25" dy="1" layer="1"/>
<smd name="G4" x="-0.25" y="-2.45" dx="0.25" dy="1" layer="1" rot="R180"/>
<smd name="G5" x="0.25" y="-2.45" dx="0.25" dy="1" layer="1" rot="R180"/>
<polygon width="0.2" layer="31">
<vertex x="-0.6" y="1.6"/>
<vertex x="-0.6" y="1"/>
<vertex x="-0.3" y="1"/>
<vertex x="-0.3" y="1.6"/>
</polygon>
<polygon width="0.2" layer="31">
<vertex x="0.3" y="1.6"/>
<vertex x="0.3" y="1"/>
<vertex x="0.6" y="1"/>
<vertex x="0.6" y="1.6"/>
</polygon>
<polygon width="0.2" layer="31">
<vertex x="-0.6" y="0.3"/>
<vertex x="-0.6" y="-0.3"/>
<vertex x="-0.3" y="-0.3"/>
<vertex x="-0.3" y="0.3"/>
</polygon>
<polygon width="0.2" layer="31">
<vertex x="0.3" y="0.3"/>
<vertex x="0.3" y="-0.3"/>
<vertex x="0.6" y="-0.3"/>
<vertex x="0.6" y="0.3"/>
</polygon>
<polygon width="0.2" layer="31">
<vertex x="-0.6" y="-1"/>
<vertex x="-0.6" y="-1.6"/>
<vertex x="-0.3" y="-1.6"/>
<vertex x="-0.3" y="-1"/>
</polygon>
<polygon width="0.2" layer="31">
<vertex x="0.3" y="-1"/>
<vertex x="0.3" y="-1.6"/>
<vertex x="0.6" y="-1.6"/>
<vertex x="0.6" y="-1"/>
</polygon>
<wire x1="-1.8" y1="2" x2="-1.5" y2="2" width="0.25" layer="41"/>
<wire x1="-1.8" y1="1.5" x2="-1.5" y2="1.5" width="0.25" layer="41"/>
<wire x1="-1.8" y1="1" x2="-1.5" y2="1" width="0.25" layer="41"/>
<wire x1="-1.8" y1="0.5" x2="-1.5" y2="0.5" width="0.25" layer="41"/>
<wire x1="-1.8" y1="0" x2="-1.5" y2="0" width="0.25" layer="41"/>
<wire x1="-1.8" y1="-0.5" x2="-1.5" y2="-0.5" width="0.25" layer="41"/>
<wire x1="-1.8" y1="-1" x2="-1.5" y2="-1" width="0.25" layer="41"/>
<wire x1="-1.8" y1="-1.5" x2="-1.5" y2="-1.5" width="0.25" layer="41"/>
<wire x1="-1.8" y1="-2" x2="-1.5" y2="-2" width="0.25" layer="41"/>
<wire x1="-1.8" y1="-2.5" x2="-1.5" y2="-2.5" width="0.25" layer="41"/>
<wire x1="-1" y1="-2.8" x2="-1" y2="-2.5" width="0.25" layer="41"/>
<wire x1="-0.5" y1="-2.8" x2="-0.5" y2="-2.2" width="0.25" layer="41"/>
<wire x1="0" y1="-2.8" x2="0" y2="-2.2" width="0.25" layer="41"/>
<wire x1="0.5" y1="-2.8" x2="0.5" y2="-2.2" width="0.25" layer="41"/>
<wire x1="1" y1="-2.8" x2="1" y2="-2.5" width="0.25" layer="41"/>
<wire x1="1.8" y1="-2.5" x2="1.5" y2="-2.5" width="0.25" layer="41"/>
<wire x1="1.8" y1="-2" x2="1.5" y2="-2" width="0.25" layer="41"/>
<wire x1="1.8" y1="-1.5" x2="1.5" y2="-1.5" width="0.25" layer="41"/>
<wire x1="1.8" y1="-1" x2="1.5" y2="-1" width="0.25" layer="41"/>
<wire x1="1.8" y1="-0.5" x2="1.5" y2="-0.5" width="0.25" layer="41"/>
<wire x1="1.8" y1="0" x2="1.5" y2="0" width="0.25" layer="41"/>
<wire x1="1.8" y1="0.5" x2="1.5" y2="0.5" width="0.25" layer="41"/>
<wire x1="1.8" y1="1" x2="1.5" y2="1" width="0.25" layer="41"/>
<wire x1="1.8" y1="1.5" x2="1.5" y2="1.5" width="0.25" layer="41"/>
<wire x1="1.8" y1="2" x2="1.5" y2="2" width="0.25" layer="41"/>
<wire x1="1.8" y1="2.5" x2="1.5" y2="2.5" width="0.25" layer="41"/>
<wire x1="1" y1="2.8" x2="1" y2="2.5" width="0.25" layer="41"/>
<wire x1="0.5" y1="2.8" x2="0.5" y2="2.2" width="0.25" layer="41"/>
<wire x1="0" y1="2.8" x2="0" y2="2.2" width="0.25" layer="41"/>
<wire x1="-0.5" y1="2.8" x2="-0.5" y2="2.2" width="0.25" layer="41"/>
<wire x1="-1" y1="2.8" x2="-1" y2="2.5" width="0.25" layer="41"/>
<wire x1="-1.8" y1="2.5" x2="-1.5" y2="2.5" width="0.25" layer="41"/>
<wire x1="-1.1" y1="-0.3" x2="-1.1" y2="0.4" width="0.2" layer="41"/>
<wire x1="1.1" y1="0.4" x2="1.1" y2="-0.3" width="0.2" layer="41"/>
</package>
</packages>
<symbols>
<symbol name="SN74LXC8T245RHLR">
<pin name="VCCA" x="-10.16" y="15.24" length="short" direction="pas"/>
<pin name="DIR" x="-10.16" y="10.16" length="short" direction="pas"/>
<pin name="A1" x="-10.16" y="7.62" length="short" direction="pas"/>
<pin name="A2" x="-10.16" y="5.08" length="short" direction="pas"/>
<pin name="A3" x="-10.16" y="2.54" length="short" direction="pas"/>
<pin name="A4" x="-10.16" y="0" length="short" direction="pas"/>
<pin name="A5" x="-10.16" y="-2.54" length="short" direction="pas"/>
<pin name="A6" x="-10.16" y="-5.08" length="short" direction="pas"/>
<pin name="A7" x="-10.16" y="-7.62" length="short" direction="pas"/>
<pin name="A8" x="-10.16" y="-10.16" length="short" direction="pas"/>
<pin name="GND@11" x="-10.16" y="-12.7" length="short" direction="pas"/>
<pin name="GND@12" x="-10.16" y="-15.24" length="short" direction="pas"/>
<pin name="GND@13" x="10.16" y="-12.7" length="short" direction="pas" rot="R180"/>
<pin name="B8" x="10.16" y="-10.16" length="short" direction="pas" rot="R180"/>
<pin name="B7" x="10.16" y="-7.62" length="short" direction="pas" rot="R180"/>
<pin name="B6" x="10.16" y="-5.08" length="short" direction="pas" rot="R180"/>
<pin name="B5" x="10.16" y="-2.54" length="short" direction="pas" rot="R180"/>
<pin name="B4" x="10.16" y="0" length="short" direction="pas" rot="R180"/>
<pin name="B3" x="10.16" y="2.54" length="short" direction="pas" rot="R180"/>
<pin name="B2" x="10.16" y="5.08" length="short" direction="pas" rot="R180"/>
<pin name="B1" x="10.16" y="7.62" length="short" direction="pas" rot="R180"/>
<pin name="/OE" x="-10.16" y="12.7" length="short" direction="pas"/>
<pin name="VCCB@23" x="10.16" y="12.7" length="short" direction="pas" rot="R180"/>
<pin name="VCCB@24" x="10.16" y="15.24" length="short" direction="pas" rot="R180"/>
<pin name="GND@25" x="10.16" y="-15.24" length="short" direction="pas" rot="R180"/>
<wire x1="-7.62" y1="17.78" x2="-7.62" y2="-17.78" width="0.254" layer="94"/>
<wire x1="-7.62" y1="-17.78" x2="7.62" y2="-17.78" width="0.254" layer="94"/>
<wire x1="7.62" y1="-17.78" x2="7.62" y2="17.78" width="0.254" layer="94"/>
<wire x1="7.62" y1="17.78" x2="-7.62" y2="17.78" width="0.254" layer="94"/>
<text x="-5.08" y="20.32" size="1.778" layer="95" font="vector">&gt;Name</text>
<text x="5.08" y="-20.32" size="1.778" layer="95" font="vector" rot="R180">&gt;Value</text>
</symbol>
</symbols>
<devicesets>
<deviceset name="SN74LXC8T245">
<gates>
<gate name="G$1" symbol="SN74LXC8T245RHLR" x="0" y="0"/>
</gates>
<devices>
<device name="" package="VQFN">
<connects>
<connect gate="G$1" pin="/OE" pad="22"/>
<connect gate="G$1" pin="A1" pad="3"/>
<connect gate="G$1" pin="A2" pad="4"/>
<connect gate="G$1" pin="A3" pad="5"/>
<connect gate="G$1" pin="A4" pad="6"/>
<connect gate="G$1" pin="A5" pad="7"/>
<connect gate="G$1" pin="A6" pad="8"/>
<connect gate="G$1" pin="A7" pad="9"/>
<connect gate="G$1" pin="A8" pad="10"/>
<connect gate="G$1" pin="B1" pad="21"/>
<connect gate="G$1" pin="B2" pad="20"/>
<connect gate="G$1" pin="B3" pad="19"/>
<connect gate="G$1" pin="B4" pad="18"/>
<connect gate="G$1" pin="B5" pad="17"/>
<connect gate="G$1" pin="B6" pad="16"/>
<connect gate="G$1" pin="B7" pad="15"/>
<connect gate="G$1" pin="B8" pad="14"/>
<connect gate="G$1" pin="DIR" pad="2"/>
<connect gate="G$1" pin="GND@11" pad="11"/>
<connect gate="G$1" pin="GND@12" pad="12"/>
<connect gate="G$1" pin="GND@13" pad="13"/>
<connect gate="G$1" pin="GND@25" pad="G1 G2 G3 G4 G5"/>
<connect gate="G$1" pin="VCCA" pad="1"/>
<connect gate="G$1" pin="VCCB@23" pad="23"/>
<connect gate="G$1" pin="VCCB@24" pad="24"/>
</connects>
<technologies>
<technology name=""/>
</technologies>
</device>
</devices>
</deviceset>
</devicesets>
</library>
</drawing>
</eagle>
