<?xml version="1.0" encoding="utf-8"?>
<!DOCTYPE eagle SYSTEM "eagle.dtd">
<eagle version="6.1">
<drawing>
<settings>
<setting alwaysvectorfont="no"/>
<setting verticaltext="up"/>
</settings>
<grid distance="0.1" unitdist="mm" unit="mm" style="lines" multiple="1" display="yes" altdistance="0.025" altunitdist="inch" altunit="inch"/>
<layers>
<layer number="1" name="Top" color="4" fill="1" visible="yes" active="yes"/>
<layer number="2" name="Route2" color="1" fill="3" visible="no" active="yes"/>
<layer number="3" name="Route3" color="4" fill="3" visible="no" active="yes"/>
<layer number="4" name="Route4" color="1" fill="4" visible="no" active="yes"/>
<layer number="5" name="Route5" color="4" fill="4" visible="no" active="yes"/>
<layer number="6" name="Route6" color="1" fill="8" visible="no" active="yes"/>
<layer number="7" name="Route7" color="4" fill="8" visible="no" active="yes"/>
<layer number="8" name="Route8" color="1" fill="2" visible="no" active="yes"/>
<layer number="9" name="Route9" color="4" fill="2" visible="no" active="yes"/>
<layer number="10" name="Route10" color="1" fill="7" visible="no" active="yes"/>
<layer number="11" name="Route11" color="4" fill="7" visible="no" active="yes"/>
<layer number="12" name="Route12" color="1" fill="5" visible="no" active="yes"/>
<layer number="13" name="Route13" color="4" fill="5" visible="no" active="yes"/>
<layer number="14" name="Route14" color="1" fill="6" visible="no" active="yes"/>
<layer number="15" name="Route15" color="4" fill="6" visible="no" active="yes"/>
<layer number="16" name="Bottom" color="1" fill="1" visible="yes" active="yes"/>
<layer number="17" name="Pads" color="2" fill="1" visible="yes" active="yes"/>
<layer number="18" name="Vias" color="2" fill="1" visible="yes" active="yes"/>
<layer number="19" name="Unrouted" color="6" fill="1" visible="yes" active="yes"/>
<layer number="20" name="Dimension" color="15" fill="1" visible="yes" active="yes"/>
<layer number="21" name="tPlace" color="7" fill="1" visible="yes" active="yes"/>
<layer number="22" name="bPlace" color="7" fill="1" visible="yes" active="yes"/>
<layer number="23" name="tOrigins" color="15" fill="1" visible="yes" active="yes"/>
<layer number="24" name="bOrigins" color="15" fill="1" visible="yes" active="yes"/>
<layer number="25" name="tNames" color="7" fill="1" visible="yes" active="yes"/>
<layer number="26" name="bNames" color="7" fill="1" visible="yes" active="yes"/>
<layer number="27" name="tValues" color="7" fill="1" visible="yes" active="yes"/>
<layer number="28" name="bValues" color="7" fill="1" visible="yes" active="yes"/>
<layer number="29" name="tStop" color="7" fill="3" visible="no" active="yes"/>
<layer number="30" name="bStop" color="7" fill="6" visible="no" active="yes"/>
<layer number="31" name="tCream" color="7" fill="4" visible="no" active="yes"/>
<layer number="32" name="bCream" color="7" fill="5" visible="no" active="yes"/>
<layer number="33" name="tFinish" color="6" fill="3" visible="no" active="yes"/>
<layer number="34" name="bFinish" color="6" fill="6" visible="no" active="yes"/>
<layer number="35" name="tGlue" color="7" fill="4" visible="no" active="yes"/>
<layer number="36" name="bGlue" color="7" fill="5" visible="no" active="yes"/>
<layer number="37" name="tTest" color="7" fill="1" visible="no" active="yes"/>
<layer number="38" name="bTest" color="7" fill="1" visible="no" active="yes"/>
<layer number="39" name="tKeepout" color="4" fill="11" visible="yes" active="yes"/>
<layer number="40" name="bKeepout" color="1" fill="11" visible="yes" active="yes"/>
<layer number="41" name="tRestrict" color="4" fill="10" visible="yes" active="yes"/>
<layer number="42" name="bRestrict" color="1" fill="10" visible="yes" active="yes"/>
<layer number="43" name="vRestrict" color="2" fill="10" visible="yes" active="yes"/>
<layer number="44" name="Drills" color="7" fill="1" visible="no" active="yes"/>
<layer number="45" name="Holes" color="7" fill="1" visible="yes" active="yes"/>
<layer number="46" name="Milling" color="3" fill="1" visible="no" active="yes"/>
<layer number="47" name="Measures" color="7" fill="1" visible="no" active="yes"/>
<layer number="48" name="Document" color="7" fill="1" visible="no" active="yes"/>
<layer number="49" name="Reference" color="7" fill="1" visible="no" active="yes"/>
<layer number="51" name="tDocu" color="7" fill="1" visible="yes" active="yes"/>
<layer number="52" name="bDocu" color="7" fill="1" visible="no" active="yes"/>
<layer number="91" name="Nets" color="2" fill="1" visible="yes" active="yes"/>
<layer number="92" name="Busses" color="1" fill="1" visible="yes" active="yes"/>
<layer number="93" name="Pins" color="2" fill="1" visible="yes" active="yes"/>
<layer number="94" name="Symbols" color="4" fill="1" visible="yes" active="yes"/>
<layer number="95" name="Names" color="7" fill="1" visible="yes" active="yes"/>
<layer number="96" name="Values" color="7" fill="1" visible="yes" active="yes"/>
<layer number="97" name="Info" color="7" fill="1" visible="yes" active="yes"/>
<layer number="98" name="Guide" color="6" fill="1" visible="yes" active="yes"/>
</layers>
<library>
<packages>
<package name="WE-RJ45">
<smd name="P$1" x="-6.63" y="-13.68" dx="2.89" dy="0.71" layer="1" rot="R90"/>
<smd name="P$2" x="-5.61" y="-13.68" dx="2.89" dy="0.71" layer="1" rot="R90"/>
<smd name="P$3" x="-4.59" y="-13.68" dx="2.89" dy="0.71" layer="1" rot="R90"/>
<smd name="P$4" x="-3.57" y="-13.68" dx="2.89" dy="0.71" layer="1" rot="R90"/>
<smd name="P$5" x="-2.55" y="-13.68" dx="2.89" dy="0.71" layer="1" rot="R90"/>
<smd name="P$6" x="-1.53" y="-13.68" dx="2.89" dy="0.71" layer="1" rot="R90"/>
<smd name="P$7" x="-0.51" y="-13.68" dx="2.89" dy="0.71" layer="1" rot="R90"/>
<smd name="P$8" x="0.51" y="-13.68" dx="2.89" dy="0.71" layer="1" rot="R90"/>
<smd name="P$9" x="1.53" y="-13.68" dx="2.89" dy="0.71" layer="1" rot="R90"/>
<smd name="P$10" x="2.55" y="-13.68" dx="2.89" dy="0.71" layer="1" rot="R90"/>
<smd name="P$11" x="3.57" y="-13.68" dx="2.89" dy="0.71" layer="1" rot="R90"/>
<smd name="P$12" x="4.59" y="-13.68" dx="2.89" dy="0.71" layer="1" rot="R90"/>
<smd name="P$13" x="5.61" y="-13.68" dx="2.89" dy="0.71" layer="1" rot="R90"/>
<smd name="P$14" x="6.63" y="-13.68" dx="2.89" dy="0.71" layer="1" rot="R90"/>
<hole x="-3.5" y="-10.2" drill="1.4"/>
<hole x="3.5" y="-10.2" drill="1.4"/>
<smd name="P$15" x="-9.5" y="0" dx="3.6" dy="2.4" layer="1" rot="R90"/>
<smd name="P$16" x="9.5" y="0" dx="3.6" dy="2.4" layer="1" rot="R90"/>
<wire x1="-7.8" y1="-8" x2="-7.8" y2="-15" width="0.2" layer="21"/>
<wire x1="7.8" y1="-15" x2="7.8" y2="-8" width="0.2" layer="21"/>
<wire x1="-7.8" y1="8.4" x2="7.8" y2="8.4" width="0.2" layer="51"/>
<wire x1="7.8" y1="8.4" x2="7.8" y2="1.7" width="0.2" layer="51"/>
<wire x1="7.8" y1="1.7" x2="10.6" y2="1.7" width="0.2" layer="51"/>
<wire x1="10.6" y1="1.7" x2="10.6" y2="-1.7" width="0.2" layer="51"/>
<wire x1="10.6" y1="-1.7" x2="7.8" y2="-1.7" width="0.2" layer="51"/>
<wire x1="7.8" y1="-1.7" x2="7.8" y2="-15" width="0.2" layer="51"/>
<wire x1="7.8" y1="-15" x2="-7.8" y2="-15" width="0.2" layer="51"/>
<wire x1="-7.8" y1="-15" x2="-7.8" y2="-1.7" width="0.2" layer="51"/>
<wire x1="-7.8" y1="-1.7" x2="-10.6" y2="-1.7" width="0.2" layer="51"/>
<wire x1="-10.6" y1="-1.7" x2="-10.6" y2="1.7" width="0.2" layer="51"/>
<wire x1="-10.6" y1="1.7" x2="-7.8" y2="1.7" width="0.2" layer="51"/>
<wire x1="-7.8" y1="1.7" x2="-7.8" y2="8.4" width="0.2" layer="51"/>
<text x="2.2" y="-15.5" size="0.8128" layer="25" font="vector" rot="R180">&gt;Name</text>
<text x="-1.7" y="-0.4" size="0.8128" layer="51" font="vector">&gt;Name</text>
<wire x1="-7.08" y1="-12.4" x2="-7.08" y2="-14.9" width="0.2" layer="41"/>
<wire x1="6" y1="-12.4" x2="6" y2="-14.9" width="0.2" layer="41"/>
<wire x1="5.2" y1="-12.4" x2="5.2" y2="-14.9" width="0.2" layer="41"/>
<wire x1="5" y1="-12.4" x2="5" y2="-14.9" width="0.2" layer="41"/>
<wire x1="4.2" y1="-12.4" x2="4.2" y2="-14.9" width="0.2" layer="41"/>
</package>
<package name="WE-RJ45-LEFT">
<smd name="P$1" x="-6.63" y="-13.68" dx="2.89" dy="0.71" layer="1" rot="R90"/>
<smd name="P$2" x="-5.61" y="-13.68" dx="2.89" dy="0.71" layer="1" rot="R90"/>
<smd name="P$3" x="-4.59" y="-13.68" dx="2.89" dy="0.71" layer="1" rot="R90"/>
<smd name="P$4" x="-3.57" y="-13.68" dx="2.89" dy="0.71" layer="1" rot="R90"/>
<smd name="P$5" x="-2.55" y="-13.68" dx="2.89" dy="0.71" layer="1" rot="R90"/>
<smd name="P$6" x="-1.53" y="-13.68" dx="2.89" dy="0.71" layer="1" rot="R90"/>
<smd name="P$7" x="-0.51" y="-13.68" dx="2.89" dy="0.71" layer="1" rot="R90"/>
<smd name="P$8" x="0.51" y="-13.68" dx="2.89" dy="0.71" layer="1" rot="R90"/>
<smd name="P$9" x="1.53" y="-13.68" dx="2.89" dy="0.71" layer="1" rot="R90"/>
<smd name="P$10" x="2.55" y="-13.68" dx="2.89" dy="0.71" layer="1" rot="R90"/>
<smd name="P$11" x="3.57" y="-13.68" dx="2.89" dy="0.71" layer="1" rot="R90"/>
<smd name="P$12" x="4.59" y="-13.68" dx="2.89" dy="0.71" layer="1" rot="R90"/>
<smd name="P$13" x="5.61" y="-13.68" dx="2.89" dy="0.71" layer="1" rot="R90"/>
<smd name="P$14" x="6.63" y="-13.68" dx="2.89" dy="0.71" layer="1" rot="R90"/>
<hole x="-3.5" y="-10.2" drill="1.4"/>
<hole x="3.5" y="-10.2" drill="1.4"/>
<smd name="P$15" x="-9.46" y="0" dx="3.6" dy="2.5" layer="1" rot="R90"/>
<wire x1="-7.81" y1="8.37" x2="7.81" y2="8.37" width="0.127" layer="21"/>
<wire x1="7.81" y1="8.37" x2="7.81" y2="-5.6" width="0.127" layer="21"/>
<wire x1="7.81" y1="-5.6" x2="-7.81" y2="-5.6" width="0.127" layer="21"/>
<wire x1="-7.81" y1="-5.6" x2="-7.81" y2="8.37" width="0.127" layer="21"/>
<wire x1="-7.81" y1="-5.6" x2="-7.81" y2="-15" width="0.127" layer="21"/>
<wire x1="-7.81" y1="-15" x2="7.81" y2="-15" width="0.127" layer="21"/>
<wire x1="7.81" y1="-15" x2="7.81" y2="-5.6" width="0.127" layer="21"/>
</package>
</packages>
<symbols>
<symbol name="WE-RJ45">
<pin name="LEDG-" x="-7.62" y="15.24" visible="pin" length="short"/>
<pin name="LEDG+" x="-7.62" y="12.7" visible="pin" length="short"/>
<pin name="TRD0+" x="-7.62" y="10.16" visible="pin" length="short"/>
<pin name="TRD0-" x="-7.62" y="7.62" visible="pin" length="short"/>
<pin name="TRD1+" x="-7.62" y="5.08" visible="pin" length="short"/>
<pin name="TRD1-" x="-7.62" y="2.54" visible="pin" length="short"/>
<pin name="TRD2+" x="-7.62" y="0" visible="pin" length="short"/>
<pin name="TRD2-" x="-7.62" y="-2.54" visible="pin" length="short"/>
<pin name="TRD3+" x="-7.62" y="-5.08" visible="pin" length="short"/>
<pin name="TRD3-" x="-7.62" y="-7.62" visible="pin" length="short"/>
<pin name="VCC" x="-7.62" y="-10.16" visible="pin" length="short" direction="pwr"/>
<pin name="GND" x="-7.62" y="-12.7" visible="pin" length="short" direction="pwr"/>
<pin name="LEDY-" x="-7.62" y="-15.24" visible="pin" length="short"/>
<pin name="LEDY+" x="-7.62" y="-17.78" visible="pin" length="short"/>
<pin name="CHS@1" x="5.08" y="-22.86" visible="pin" length="short" direction="pwr" rot="R90"/>
<pin name="CHS@2" x="5.08" y="20.32" visible="pin" length="short" direction="pwr" rot="R270"/>
<wire x1="-5.08" y1="17.78" x2="7.62" y2="17.78" width="0.254" layer="94"/>
<wire x1="7.62" y1="17.78" x2="7.62" y2="-20.32" width="0.254" layer="94"/>
<wire x1="7.62" y1="-20.32" x2="-5.08" y2="-20.32" width="0.254" layer="94"/>
<wire x1="-5.08" y1="-20.32" x2="-5.08" y2="17.78" width="0.254" layer="94"/>
<text x="-5.08" y="20.32" size="1.778" layer="95" font="vector">&gt;Name</text>
<text x="2.54" y="-22.86" size="1.778" layer="96" font="vector" rot="R180">&gt;Value</text>
</symbol>
<symbol name="WE-RJ45-LEFT">
<pin name="LEDG-" x="-10.16" y="15.24" visible="pin" length="middle"/>
<pin name="LEDG+" x="-10.16" y="12.7" visible="pin" length="middle"/>
<pin name="TRD0+" x="-10.16" y="10.16" visible="pin" length="middle"/>
<pin name="TRD0-" x="-10.16" y="7.62" visible="pin" length="middle"/>
<pin name="TRD1+" x="-10.16" y="5.08" visible="pin" length="middle"/>
<pin name="TRD1-" x="-10.16" y="2.54" visible="pin" length="middle"/>
<pin name="TRD2+" x="-10.16" y="0" visible="pin" length="middle"/>
<pin name="TRD2-" x="-10.16" y="-2.54" visible="pin" length="middle"/>
<pin name="TRD3+" x="-10.16" y="-5.08" visible="pin" length="middle"/>
<pin name="TRD3-" x="-10.16" y="-7.62" visible="pin" length="middle"/>
<pin name="VCC" x="-10.16" y="-10.16" visible="pin" length="middle" direction="pwr"/>
<pin name="GND" x="-10.16" y="-12.7" visible="pin" length="middle" direction="pwr"/>
<pin name="LEDY-" x="-10.16" y="-15.24" visible="pin" length="middle"/>
<pin name="LEDY+" x="-10.16" y="-17.78" visible="pin" length="middle"/>
<pin name="CHS@1" x="5.08" y="-25.4" visible="pin" length="middle" direction="pwr" rot="R90"/>
<wire x1="-5.08" y1="17.78" x2="7.62" y2="17.78" width="0.254" layer="94"/>
<wire x1="7.62" y1="17.78" x2="7.62" y2="-20.32" width="0.254" layer="94"/>
<wire x1="7.62" y1="-20.32" x2="-5.08" y2="-20.32" width="0.254" layer="94"/>
<wire x1="-5.08" y1="-20.32" x2="-5.08" y2="17.78" width="0.254" layer="94"/>
</symbol>
</symbols>
<devicesets>
<deviceset name="WE-RJ45">
<gates>
<gate name="G$1" symbol="WE-RJ45" x="0" y="0"/>
</gates>
<devices>
<device name="" package="WE-RJ45">
<connects>
<connect gate="G$1" pin="CHS@1" pad="P$15"/>
<connect gate="G$1" pin="CHS@2" pad="P$16"/>
<connect gate="G$1" pin="GND" pad="P$12"/>
<connect gate="G$1" pin="LEDG+" pad="P$2"/>
<connect gate="G$1" pin="LEDG-" pad="P$1"/>
<connect gate="G$1" pin="LEDY+" pad="P$14"/>
<connect gate="G$1" pin="LEDY-" pad="P$13"/>
<connect gate="G$1" pin="TRD0+" pad="P$3"/>
<connect gate="G$1" pin="TRD0-" pad="P$4"/>
<connect gate="G$1" pin="TRD1+" pad="P$5"/>
<connect gate="G$1" pin="TRD1-" pad="P$6"/>
<connect gate="G$1" pin="TRD2+" pad="P$7"/>
<connect gate="G$1" pin="TRD2-" pad="P$8"/>
<connect gate="G$1" pin="TRD3+" pad="P$9"/>
<connect gate="G$1" pin="TRD3-" pad="P$10"/>
<connect gate="G$1" pin="VCC" pad="P$11"/>
</connects>
<technologies>
<technology name=""/>
</technologies>
</device>
</devices>
</deviceset>
<deviceset name="WE-RJ45-LEFT">
<gates>
<gate name="G$1" symbol="WE-RJ45-LEFT" x="0" y="0"/>
</gates>
<devices>
<device name="" package="WE-RJ45-LEFT">
<connects>
<connect gate="G$1" pin="CHS@1" pad="P$15"/>
<connect gate="G$1" pin="GND" pad="P$12"/>
<connect gate="G$1" pin="LEDG+" pad="P$2"/>
<connect gate="G$1" pin="LEDG-" pad="P$1"/>
<connect gate="G$1" pin="LEDY+" pad="P$14"/>
<connect gate="G$1" pin="LEDY-" pad="P$13"/>
<connect gate="G$1" pin="TRD0+" pad="P$3"/>
<connect gate="G$1" pin="TRD0-" pad="P$4"/>
<connect gate="G$1" pin="TRD1+" pad="P$5"/>
<connect gate="G$1" pin="TRD1-" pad="P$6"/>
<connect gate="G$1" pin="TRD2+" pad="P$7"/>
<connect gate="G$1" pin="TRD2-" pad="P$8"/>
<connect gate="G$1" pin="TRD3+" pad="P$9"/>
<connect gate="G$1" pin="TRD3-" pad="P$10"/>
<connect gate="G$1" pin="VCC" pad="P$11"/>
</connects>
<technologies>
<technology name=""/>
</technologies>
</device>
</devices>
</deviceset>
</devicesets>
</library>
</drawing>
</eagle>
