<?xml version="1.0" encoding="utf-8"?>
<!DOCTYPE eagle SYSTEM "eagle.dtd">
<eagle version="6.1">
<drawing>
<settings>
<setting alwaysvectorfont="no"/>
<setting verticaltext="up"/>
</settings>
<grid distance="0.05" unitdist="inch" unit="inch" style="lines" multiple="1" display="yes" altdistance="0.025" altunitdist="inch" altunit="inch"/>
<layers>
<layer number="1" name="Top" color="4" fill="1" visible="yes" active="yes"/>
<layer number="2" name="Route2" color="1" fill="3" visible="yes" active="yes"/>
<layer number="3" name="Route3" color="4" fill="3" visible="yes" active="yes"/>
<layer number="4" name="Route4" color="1" fill="4" visible="yes" active="yes"/>
<layer number="5" name="Route5" color="4" fill="4" visible="yes" active="yes"/>
<layer number="6" name="Route6" color="1" fill="8" visible="yes" active="yes"/>
<layer number="7" name="Route7" color="4" fill="8" visible="yes" active="yes"/>
<layer number="8" name="Route8" color="1" fill="2" visible="yes" active="yes"/>
<layer number="9" name="Route9" color="4" fill="2" visible="yes" active="yes"/>
<layer number="10" name="Route10" color="1" fill="7" visible="yes" active="yes"/>
<layer number="11" name="Route11" color="4" fill="7" visible="yes" active="yes"/>
<layer number="12" name="Route12" color="1" fill="5" visible="yes" active="yes"/>
<layer number="13" name="Route13" color="4" fill="5" visible="yes" active="yes"/>
<layer number="14" name="Route14" color="1" fill="6" visible="yes" active="yes"/>
<layer number="15" name="Route15" color="4" fill="6" visible="yes" active="yes"/>
<layer number="16" name="Bottom" color="1" fill="1" visible="yes" active="yes"/>
<layer number="17" name="Pads" color="2" fill="1" visible="yes" active="yes"/>
<layer number="18" name="Vias" color="2" fill="1" visible="yes" active="yes"/>
<layer number="19" name="Unrouted" color="6" fill="1" visible="yes" active="yes"/>
<layer number="20" name="Dimension" color="15" fill="1" visible="yes" active="yes"/>
<layer number="21" name="tPlace" color="7" fill="1" visible="yes" active="yes"/>
<layer number="22" name="bPlace" color="7" fill="1" visible="yes" active="yes"/>
<layer number="23" name="tOrigins" color="15" fill="1" visible="yes" active="yes"/>
<layer number="24" name="bOrigins" color="15" fill="1" visible="yes" active="yes"/>
<layer number="25" name="tNames" color="7" fill="1" visible="yes" active="yes"/>
<layer number="26" name="bNames" color="7" fill="1" visible="yes" active="yes"/>
<layer number="27" name="tValues" color="7" fill="1" visible="yes" active="yes"/>
<layer number="28" name="bValues" color="7" fill="1" visible="yes" active="yes"/>
<layer number="29" name="tStop" color="7" fill="3" visible="yes" active="yes"/>
<layer number="30" name="bStop" color="7" fill="6" visible="yes" active="yes"/>
<layer number="31" name="tCream" color="7" fill="4" visible="yes" active="yes"/>
<layer number="32" name="bCream" color="7" fill="5" visible="yes" active="yes"/>
<layer number="33" name="tFinish" color="6" fill="3" visible="yes" active="yes"/>
<layer number="34" name="bFinish" color="6" fill="6" visible="yes" active="yes"/>
<layer number="35" name="tGlue" color="7" fill="4" visible="yes" active="yes"/>
<layer number="36" name="bGlue" color="7" fill="5" visible="yes" active="yes"/>
<layer number="37" name="tTest" color="7" fill="1" visible="yes" active="yes"/>
<layer number="38" name="bTest" color="7" fill="1" visible="yes" active="yes"/>
<layer number="39" name="tKeepout" color="4" fill="11" visible="yes" active="yes"/>
<layer number="40" name="bKeepout" color="1" fill="11" visible="yes" active="yes"/>
<layer number="41" name="tRestrict" color="4" fill="10" visible="yes" active="yes"/>
<layer number="42" name="bRestrict" color="1" fill="10" visible="yes" active="yes"/>
<layer number="43" name="vRestrict" color="2" fill="10" visible="yes" active="yes"/>
<layer number="44" name="Drills" color="7" fill="1" visible="yes" active="yes"/>
<layer number="45" name="Holes" color="7" fill="1" visible="yes" active="yes"/>
<layer number="46" name="Milling" color="3" fill="1" visible="yes" active="yes"/>
<layer number="47" name="Measures" color="7" fill="1" visible="yes" active="yes"/>
<layer number="48" name="Document" color="7" fill="1" visible="yes" active="yes"/>
<layer number="49" name="Reference" color="7" fill="1" visible="yes" active="yes"/>
<layer number="51" name="tDocu" color="7" fill="1" visible="yes" active="yes"/>
<layer number="52" name="bDocu" color="7" fill="1" visible="yes" active="yes"/>
<layer number="91" name="Nets" color="2" fill="1" visible="yes" active="yes"/>
<layer number="92" name="Busses" color="1" fill="1" visible="yes" active="yes"/>
<layer number="93" name="Pins" color="2" fill="1" visible="yes" active="yes"/>
<layer number="94" name="Symbols" color="4" fill="1" visible="yes" active="yes"/>
<layer number="95" name="Names" color="7" fill="1" visible="yes" active="yes"/>
<layer number="96" name="Values" color="7" fill="1" visible="yes" active="yes"/>
<layer number="97" name="Info" color="7" fill="1" visible="yes" active="yes"/>
<layer number="98" name="Guide" color="6" fill="1" visible="yes" active="yes"/>
</layers>
<library>
<packages>
<package name="ZX">
<pad name="B1" x="3.81" y="-34.29" drill="1.2" shape="long"/>
<pad name="B2" x="3.81" y="-31.75" drill="1.2" shape="long"/>
<pad name="B3" x="3.81" y="-29.21" drill="1.2" shape="long"/>
<pad name="B4" x="3.81" y="-26.67" drill="1.2" shape="long"/>
<pad name="B6" x="3.81" y="-21.59" drill="1.2" shape="long"/>
<pad name="B7" x="3.81" y="-19.05" drill="1.2" shape="long"/>
<pad name="B8" x="3.81" y="-16.51" drill="1.2" shape="long"/>
<pad name="B9" x="3.81" y="-13.97" drill="1.2" shape="long"/>
<pad name="B10" x="3.81" y="-11.43" drill="1.2" shape="long"/>
<pad name="B11" x="3.81" y="-8.89" drill="1.2" shape="long"/>
<pad name="B12" x="3.81" y="-6.35" drill="1.2" shape="long"/>
<pad name="B13" x="3.81" y="-3.81" drill="1.2" shape="long"/>
<pad name="B14" x="3.81" y="-1.27" drill="1.2" shape="long"/>
<pad name="B15" x="3.81" y="1.27" drill="1.2" shape="long"/>
<pad name="B16" x="3.81" y="3.81" drill="1.2" shape="long"/>
<pad name="B17" x="3.81" y="6.35" drill="1.2" shape="long"/>
<pad name="B18" x="3.81" y="8.89" drill="1.2" shape="long"/>
<pad name="B19" x="3.81" y="11.43" drill="1.2" shape="long"/>
<pad name="B20" x="3.81" y="13.97" drill="1.2" shape="long"/>
<pad name="B21" x="3.81" y="16.51" drill="1.2" shape="long"/>
<pad name="B22" x="3.81" y="19.05" drill="1.2" shape="long"/>
<pad name="B23" x="3.81" y="21.59" drill="1.2" shape="long"/>
<pad name="B24" x="3.81" y="24.13" drill="1.2" shape="long"/>
<pad name="B25" x="3.81" y="26.67" drill="1.2" shape="long"/>
<pad name="B26" x="3.81" y="29.21" drill="1.2" shape="long"/>
<pad name="B27" x="3.81" y="31.75" drill="1.2" shape="long"/>
<pad name="B28" x="3.81" y="34.29" drill="1.2" shape="long"/>
<pad name="A1" x="-1.27" y="-34.29" drill="0.6" shape="long"/>
<pad name="A2" x="-1.27" y="-31.75" drill="0.6" shape="long"/>
<pad name="A3" x="-1.27" y="-29.21" drill="0.6" shape="long"/>
<pad name="A4" x="-1.27" y="-26.67" drill="0.6" shape="long"/>
<pad name="A6" x="-1.27" y="-21.59" drill="0.6" shape="long"/>
<pad name="A7" x="-1.27" y="-19.05" drill="0.6" shape="long"/>
<pad name="A8" x="-1.27" y="-16.51" drill="0.6" shape="long"/>
<pad name="A9" x="-1.27" y="-13.97" drill="0.6" shape="long"/>
<pad name="A10" x="-1.27" y="-11.43" drill="0.6" shape="long"/>
<pad name="A11" x="-1.27" y="-8.89" drill="0.6" shape="long"/>
<pad name="A12" x="-1.27" y="-6.35" drill="0.6" shape="long"/>
<pad name="A13" x="-1.27" y="-3.81" drill="0.6" shape="long"/>
<pad name="A14" x="-1.27" y="-1.27" drill="0.6" shape="long"/>
<pad name="A15" x="-1.27" y="1.27" drill="0.6" shape="long"/>
<pad name="A16" x="-1.27" y="3.81" drill="0.6" shape="long"/>
<pad name="A17" x="-1.27" y="6.35" drill="0.6" shape="long"/>
<pad name="A18" x="-1.27" y="8.89" drill="0.6" shape="long"/>
<pad name="A19" x="-1.27" y="11.43" drill="0.6" shape="long"/>
<pad name="A20" x="-1.27" y="13.97" drill="0.6" shape="long"/>
<pad name="A21" x="-1.27" y="16.51" drill="0.6" shape="long"/>
<pad name="A22" x="-1.27" y="19.05" drill="0.6" shape="long"/>
<pad name="A23" x="-1.27" y="21.59" drill="0.6" shape="long"/>
<pad name="A24" x="-1.27" y="24.13" drill="0.6" shape="long"/>
<pad name="A25" x="-1.27" y="26.67" drill="0.6" shape="long"/>
<pad name="A26" x="-1.27" y="29.21" drill="0.6" shape="long"/>
<pad name="A27" x="-1.27" y="31.75" drill="0.6" shape="long"/>
<pad name="A28" x="-1.27" y="34.29" drill="0.6" shape="long"/>
<text x="-3.5" y="-2.87" size="0.8128" layer="21" font="vector" rot="R90">&gt;Name</text>
<text x="0.4" y="-2.77" size="0.8128" layer="51" font="vector" rot="R90">&gt;Name</text>
<wire x1="-3" y1="36" x2="6" y2="36" width="0.2" layer="51"/>
<wire x1="6" y1="36" x2="6" y2="-36" width="0.2" layer="51"/>
<wire x1="6" y1="-36" x2="-3" y2="-36" width="0.2" layer="51"/>
<wire x1="-3" y1="-36" x2="-3" y2="36" width="0.2" layer="51"/>
<wire x1="6" y1="-36" x2="16.8" y2="-36" width="0.2" layer="51"/>
<wire x1="16.8" y1="-36" x2="16.8" y2="36" width="0.2" layer="51"/>
<wire x1="16.8" y1="36" x2="6" y2="36" width="0.2" layer="51"/>
</package>
<package name="ZX_SMD">
<text x="-1.5" y="2.7" size="0.8128" layer="25" font="vector">&gt;Name</text>
<text x="-1.5" y="-0.4" size="0.8128" layer="51" font="vector">&gt;Name</text>
<wire x1="36" y1="2.2" x2="36" y2="-2.2" width="0.2" layer="51"/>
<wire x1="36" y1="-2.2" x2="-36" y2="-2.2" width="0.2" layer="51"/>
<wire x1="-36" y1="-2.2" x2="-36" y2="2.2" width="0.2" layer="51"/>
<wire x1="-36" y1="2.2" x2="36" y2="2.2" width="0.2" layer="51"/>
<wire x1="-36" y1="-2.2" x2="-36" y2="-13" width="0.2" layer="51"/>
<wire x1="-36" y1="-13" x2="36" y2="-13" width="0.2" layer="51"/>
<wire x1="36" y1="-13" x2="36" y2="-2.2" width="0.2" layer="51"/>
<smd name="B1" x="-34.29" y="0" dx="3.6" dy="1.7" layer="16" rot="R90" cream="no"/>
<smd name="B2" x="-31.75" y="0" dx="3.6" dy="1.7" layer="16" rot="R90" cream="no"/>
<smd name="B3" x="-29.21" y="0" dx="3.6" dy="1.7" layer="16" rot="R90" cream="no"/>
<smd name="B4" x="-26.67" y="0" dx="3.6" dy="1.7" layer="16" rot="R90" cream="no"/>
<smd name="B28" x="34.29" y="0" dx="3.6" dy="1.7" layer="16" rot="R90" cream="no"/>
<smd name="B6" x="-21.59" y="0" dx="3.6" dy="1.7" layer="16" rot="R90" cream="no"/>
<smd name="B7" x="-19.05" y="0" dx="3.6" dy="1.7" layer="16" rot="R90" cream="no"/>
<smd name="B8" x="-16.51" y="0" dx="3.6" dy="1.7" layer="16" rot="R90" cream="no"/>
<smd name="B9" x="-13.97" y="0" dx="3.6" dy="1.7" layer="16" rot="R90" cream="no"/>
<smd name="B10" x="-11.43" y="0" dx="3.6" dy="1.7" layer="16" rot="R90" cream="no"/>
<smd name="B11" x="-8.89" y="0" dx="3.6" dy="1.7" layer="16" rot="R90" cream="no"/>
<smd name="B12" x="-6.35" y="0" dx="3.6" dy="1.7" layer="16" rot="R90" cream="no"/>
<smd name="B13" x="-3.81" y="0" dx="3.6" dy="1.7" layer="16" rot="R90" cream="no"/>
<smd name="B14" x="-1.27" y="0" dx="3.6" dy="1.7" layer="16" rot="R90" cream="no"/>
<smd name="B15" x="1.27" y="0" dx="3.6" dy="1.7" layer="16" rot="R90" cream="no"/>
<smd name="B16" x="3.81" y="0" dx="3.6" dy="1.7" layer="16" rot="R90" cream="no"/>
<smd name="B17" x="6.35" y="0" dx="3.6" dy="1.7" layer="16" rot="R90" cream="no"/>
<smd name="B18" x="8.89" y="0" dx="3.6" dy="1.7" layer="16" rot="R90" cream="no"/>
<smd name="B19" x="11.43" y="0" dx="3.6" dy="1.7" layer="16" rot="R90" cream="no"/>
<smd name="B20" x="13.97" y="0" dx="3.6" dy="1.7" layer="16" rot="R90" cream="no"/>
<smd name="B21" x="16.51" y="0" dx="3.6" dy="1.7" layer="16" rot="R90" cream="no"/>
<smd name="B22" x="19.05" y="0" dx="3.6" dy="1.7" layer="16" rot="R90" cream="no"/>
<smd name="B23" x="21.59" y="0" dx="3.6" dy="1.7" layer="16" rot="R90" cream="no"/>
<smd name="B24" x="24.13" y="0" dx="3.6" dy="1.7" layer="16" rot="R90" cream="no"/>
<smd name="B25" x="26.67" y="0" dx="3.6" dy="1.7" layer="16" rot="R90" cream="no"/>
<smd name="B26" x="29.21" y="0" dx="3.6" dy="1.7" layer="16" rot="R90" cream="no"/>
<smd name="B27" x="31.75" y="0" dx="3.6" dy="1.7" layer="16" rot="R90" cream="no"/>
<smd name="A1" x="-34.29" y="0" dx="3.6" dy="1.7" layer="1" rot="R90" cream="no"/>
<smd name="A2" x="-31.75" y="0" dx="3.6" dy="1.7" layer="1" rot="R90" cream="no"/>
<smd name="A3" x="-29.21" y="0" dx="3.6" dy="1.7" layer="1" rot="R90" cream="no"/>
<smd name="A4" x="-26.67" y="0" dx="3.6" dy="1.7" layer="1" rot="R90" cream="no"/>
<smd name="A6" x="-21.59" y="0" dx="3.6" dy="1.7" layer="1" rot="R90" cream="no"/>
<smd name="A7" x="-19.05" y="0" dx="3.6" dy="1.7" layer="1" rot="R90" cream="no"/>
<smd name="A8" x="-16.51" y="0" dx="3.6" dy="1.7" layer="1" rot="R90" cream="no"/>
<smd name="A9" x="-13.97" y="0" dx="3.6" dy="1.7" layer="1" rot="R90" cream="no"/>
<smd name="A10" x="-11.43" y="0" dx="3.6" dy="1.7" layer="1" rot="R90" cream="no"/>
<smd name="A11" x="-8.89" y="0" dx="3.6" dy="1.7" layer="1" rot="R90" cream="no"/>
<smd name="A12" x="-6.35" y="0" dx="3.6" dy="1.7" layer="1" rot="R90" cream="no"/>
<smd name="A13" x="-3.81" y="0" dx="3.6" dy="1.7" layer="1" rot="R90" cream="no"/>
<smd name="A14" x="-1.27" y="0" dx="3.6" dy="1.7" layer="1" rot="R90" cream="no"/>
<smd name="A15" x="1.27" y="0" dx="3.6" dy="1.7" layer="1" rot="R90" cream="no"/>
<smd name="A16" x="3.81" y="0" dx="3.6" dy="1.7" layer="1" rot="R90" cream="no"/>
<smd name="A17" x="6.35" y="0" dx="3.6" dy="1.7" layer="1" rot="R90" cream="no"/>
<smd name="A18" x="8.89" y="0" dx="3.6" dy="1.7" layer="1" rot="R90" cream="no"/>
<smd name="A19" x="11.43" y="0" dx="3.6" dy="1.7" layer="1" rot="R90" cream="no"/>
<smd name="A20" x="13.97" y="0" dx="3.6" dy="1.7" layer="1" rot="R90" cream="no"/>
<smd name="A21" x="16.51" y="0" dx="3.6" dy="1.7" layer="1" rot="R90" cream="no"/>
<smd name="A22" x="19.05" y="0" dx="3.6" dy="1.7" layer="1" rot="R90" cream="no"/>
<smd name="A23" x="21.59" y="0" dx="3.6" dy="1.7" layer="1" rot="R90" cream="no"/>
<smd name="A24" x="24.13" y="0" dx="3.6" dy="1.7" layer="1" rot="R90" cream="no"/>
<smd name="A25" x="26.67" y="0" dx="3.6" dy="1.7" layer="1" rot="R90" cream="no"/>
<smd name="A26" x="29.21" y="0" dx="3.6" dy="1.7" layer="1" rot="R90" cream="no"/>
<smd name="A27" x="31.75" y="0" dx="3.6" dy="1.7" layer="1" rot="R90" cream="no"/>
<smd name="A28" x="34.29" y="0" dx="3.6" dy="1.7" layer="1" rot="R90" cream="no"/>
<wire x1="-36" y1="-1.8" x2="-36" y2="2.2" width="0.2" layer="21"/>
<wire x1="-36" y1="2.2" x2="36" y2="2.2" width="0.2" layer="21"/>
<wire x1="36" y1="2.2" x2="36" y2="-1.8" width="0.2" layer="21"/>
<wire x1="-36" y1="-1.8" x2="-36" y2="2.2" width="0.2" layer="22"/>
<wire x1="-36" y1="2.2" x2="36" y2="2.2" width="0.2" layer="22"/>
<wire x1="36" y1="2.2" x2="36" y2="-1.8" width="0.2" layer="22"/>
<wire x1="-36" y1="2.2" x2="36" y2="2.2" width="0.2" layer="52"/>
<wire x1="36" y1="2.2" x2="36" y2="-2.2" width="0.2" layer="52"/>
<wire x1="36" y1="-2.2" x2="36" y2="-13" width="0.2" layer="52"/>
<wire x1="36" y1="-13" x2="-36" y2="-13" width="0.2" layer="52"/>
<wire x1="-36" y1="-13" x2="-36" y2="-2.2" width="0.2" layer="52"/>
<wire x1="-36" y1="-2.2" x2="-36" y2="2.2" width="0.2" layer="52"/>
<wire x1="-36" y1="-2.2" x2="36" y2="-2.2" width="0.2" layer="52"/>
<text x="1.5" y="-0.4" size="0.8128" layer="52" font="vector" rot="MR0">&gt;Name</text>
<text x="1.5" y="2.7" size="0.8128" layer="26" font="vector" rot="MR0">&gt;Name</text>
<polygon width="0.2" layer="41">
<vertex x="-35.4" y="1.8"/>
<vertex x="-25.6" y="1.8"/>
<vertex x="-25.6" y="-1.8"/>
<vertex x="-35.4" y="-1.8"/>
</polygon>
<polygon width="0.2" layer="41">
<vertex x="-22.7" y="1.8"/>
<vertex x="35.4" y="1.8"/>
<vertex x="35.4" y="-1.8"/>
<vertex x="-22.7" y="-1.8"/>
</polygon>
<polygon width="0.2" layer="42">
<vertex x="-35.4" y="-1.8"/>
<vertex x="-25.6" y="-1.8"/>
<vertex x="-25.6" y="1.8"/>
<vertex x="-35.4" y="1.8"/>
</polygon>
<polygon width="0.2" layer="42">
<vertex x="-2.1" y="1.8"/>
<vertex x="-2.1" y="-1.8"/>
<vertex x="-18.2" y="-1.8"/>
<vertex x="-18.2" y="1.8"/>
</polygon>
<polygon width="0.2" layer="42">
<vertex x="-0.4" y="1.8"/>
<vertex x="-0.4" y="-1.8"/>
<vertex x="35.4" y="-1.8"/>
<vertex x="35.4" y="1.8"/>
</polygon>
<polygon width="0.2" layer="42">
<vertex x="-22.7" y="-1.8"/>
<vertex x="-22.5" y="-1.8"/>
<vertex x="-22.5" y="1.8"/>
<vertex x="-22.7" y="1.8"/>
</polygon>
<polygon width="0.2" layer="42">
<vertex x="-20.7" y="-1.8"/>
<vertex x="-19.9" y="-1.8"/>
<vertex x="-19.9" y="1.8"/>
<vertex x="-20.7" y="1.8"/>
</polygon>
<polygon width="0.2" layer="42">
<vertex x="-35.4" y="-1.7"/>
<vertex x="35.4" y="-1.7"/>
<vertex x="35.4" y="-2"/>
<vertex x="-35.4" y="-2"/>
</polygon>
<polygon width="0.2" layer="41">
<vertex x="-35.4" y="-1.7"/>
<vertex x="35.4" y="-1.7"/>
<vertex x="35.4" y="-2"/>
<vertex x="-35.4" y="-2"/>
</polygon>
</package>
</packages>
<symbols>
<symbol name="ZX">
<pin name="A14" x="12.7" y="-33.02" visible="pin" length="short" rot="R180"/>
<pin name="A12" x="12.7" y="-30.48" visible="pin" length="short" rot="R180"/>
<pin name="+5V" x="12.7" y="-27.94" visible="pin" length="short" direction="pwr" rot="R180"/>
<pin name="+9V" x="12.7" y="-25.4" visible="pin" length="short" direction="pwr" rot="R180"/>
<pin name="GND@1" x="12.7" y="-20.32" visible="pin" length="short" direction="pwr" rot="R180"/>
<pin name="GND@2" x="12.7" y="-17.78" visible="pin" length="short" direction="pwr" rot="R180"/>
<pin name="/CLK" x="12.7" y="-15.24" visible="pin" length="short" rot="R180"/>
<pin name="A0" x="12.7" y="-12.7" visible="pin" length="short" rot="R180"/>
<pin name="A1" x="12.7" y="-10.16" visible="pin" length="short" rot="R180"/>
<pin name="A2" x="12.7" y="-7.62" visible="pin" length="short" rot="R180"/>
<pin name="A3" x="12.7" y="-5.08" visible="pin" length="short" rot="R180"/>
<pin name="IORQGE" x="12.7" y="-2.54" visible="pin" length="short" rot="R180"/>
<pin name="GND@3" x="12.7" y="0" visible="pin" length="short" direction="pwr" rot="R180"/>
<pin name="VIDEO" x="12.7" y="2.54" visible="pin" length="short" rot="R180"/>
<pin name="Y" x="12.7" y="5.08" visible="pin" length="short" rot="R180"/>
<pin name="V" x="12.7" y="7.62" visible="pin" length="short" rot="R180"/>
<pin name="U" x="12.7" y="10.16" visible="pin" length="short" rot="R180"/>
<pin name="/BUSRQ" x="12.7" y="12.7" visible="pin" length="short" rot="R180"/>
<pin name="/RST" x="12.7" y="15.24" visible="pin" length="short" rot="R180"/>
<pin name="A7" x="12.7" y="17.78" visible="pin" length="short" rot="R180"/>
<pin name="A6" x="12.7" y="20.32" visible="pin" length="short" rot="R180"/>
<pin name="A5" x="12.7" y="22.86" visible="pin" length="short" rot="R180"/>
<pin name="A4" x="12.7" y="25.4" visible="pin" length="short" rot="R180"/>
<pin name="/ROMCS" x="12.7" y="27.94" visible="pin" length="short" rot="R180"/>
<pin name="/BUSACK" x="12.7" y="30.48" visible="pin" length="short" rot="R180"/>
<pin name="A9" x="12.7" y="33.02" visible="pin" length="short" rot="R180"/>
<pin name="A11" x="12.7" y="35.56" visible="pin" length="short" rot="R180"/>
<pin name="A15" x="-12.7" y="-33.02" visible="pin" length="short"/>
<pin name="A13" x="-12.7" y="-30.48" visible="pin" length="short"/>
<pin name="D7" x="-12.7" y="-27.94" visible="pin" length="short"/>
<pin name="D0" x="-12.7" y="-20.32" visible="pin" length="short"/>
<pin name="D1" x="-12.7" y="-17.78" visible="pin" length="short"/>
<pin name="D2" x="-12.7" y="-15.24" visible="pin" length="short"/>
<pin name="D6" x="-12.7" y="-12.7" visible="pin" length="short"/>
<pin name="D5" x="-12.7" y="-10.16" visible="pin" length="short"/>
<pin name="D3" x="-12.7" y="-7.62" visible="pin" length="short"/>
<pin name="D4" x="-12.7" y="-5.08" visible="pin" length="short"/>
<pin name="/INT" x="-12.7" y="-2.54" visible="pin" length="short"/>
<pin name="/NMI" x="-12.7" y="0" visible="pin" length="short"/>
<pin name="/HALT" x="-12.7" y="2.54" visible="pin" length="short"/>
<pin name="/MREQ" x="-12.7" y="5.08" visible="pin" length="short"/>
<pin name="/IORQ" x="-12.7" y="7.62" visible="pin" length="short"/>
<pin name="/RD" x="-12.7" y="10.16" visible="pin" length="short"/>
<pin name="/WR" x="-12.7" y="12.7" visible="pin" length="short"/>
<pin name="-5V" x="-12.7" y="15.24" visible="pin" length="short" direction="pwr"/>
<pin name="/WAIT" x="-12.7" y="17.78" visible="pin" length="short"/>
<pin name="+12V" x="-12.7" y="20.32" visible="pin" length="short" direction="pwr"/>
<pin name="12VAC" x="-12.7" y="22.86" visible="pin" length="short" direction="pwr"/>
<pin name="M1" x="-12.7" y="25.4" visible="pin" length="short"/>
<pin name="/RFSH" x="-12.7" y="27.94" visible="pin" length="short"/>
<pin name="A8" x="-12.7" y="30.48" visible="pin" length="short"/>
<pin name="A10" x="-12.7" y="33.02" visible="pin" length="short"/>
<wire x1="-10.16" y1="38.1" x2="10.16" y2="38.1" width="0.254" layer="94"/>
<wire x1="10.16" y1="38.1" x2="10.16" y2="-35.56" width="0.254" layer="94"/>
<wire x1="10.16" y1="-35.56" x2="-10.16" y2="-35.56" width="0.254" layer="94"/>
<wire x1="-10.16" y1="-35.56" x2="-10.16" y2="38.1" width="0.254" layer="94"/>
<text x="-5.08" y="40.64" size="1.778" layer="95" font="vector">&gt;Name</text>
<text x="5.08" y="-38.1" size="1.778" layer="96" font="vector" rot="R180">&gt;Value</text>
<pin name="/OE" x="-12.7" y="-25.4" visible="pin" length="short"/>
</symbol>
</symbols>
<devicesets>
<deviceset name="ZX">
<description>ZX Spectrum Expansion Bus</description>
<gates>
<gate name="G$1" symbol="ZX" x="-2.54" y="-2.54"/>
</gates>
<devices>
<device name="-THT" package="ZX">
<connects>
<connect gate="G$1" pin="+12V" pad="A22"/>
<connect gate="G$1" pin="+5V" pad="B3"/>
<connect gate="G$1" pin="+9V" pad="B4"/>
<connect gate="G$1" pin="-5V" pad="A20"/>
<connect gate="G$1" pin="/BUSACK" pad="B26"/>
<connect gate="G$1" pin="/BUSRQ" pad="B19"/>
<connect gate="G$1" pin="/CLK" pad="B8"/>
<connect gate="G$1" pin="/HALT" pad="A15"/>
<connect gate="G$1" pin="/INT" pad="A13"/>
<connect gate="G$1" pin="/IORQ" pad="A17"/>
<connect gate="G$1" pin="/MREQ" pad="A16"/>
<connect gate="G$1" pin="/NMI" pad="A14"/>
<connect gate="G$1" pin="/OE" pad="A4"/>
<connect gate="G$1" pin="/RD" pad="A18"/>
<connect gate="G$1" pin="/RFSH" pad="A25"/>
<connect gate="G$1" pin="/ROMCS" pad="B25"/>
<connect gate="G$1" pin="/RST" pad="B20"/>
<connect gate="G$1" pin="/WAIT" pad="A21"/>
<connect gate="G$1" pin="/WR" pad="A19"/>
<connect gate="G$1" pin="12VAC" pad="A23"/>
<connect gate="G$1" pin="A0" pad="B9"/>
<connect gate="G$1" pin="A1" pad="B10"/>
<connect gate="G$1" pin="A10" pad="A27"/>
<connect gate="G$1" pin="A11" pad="B28"/>
<connect gate="G$1" pin="A12" pad="B2"/>
<connect gate="G$1" pin="A13" pad="A2"/>
<connect gate="G$1" pin="A14" pad="B1"/>
<connect gate="G$1" pin="A15" pad="A1"/>
<connect gate="G$1" pin="A2" pad="B11"/>
<connect gate="G$1" pin="A3" pad="B12"/>
<connect gate="G$1" pin="A4" pad="B24"/>
<connect gate="G$1" pin="A5" pad="B23"/>
<connect gate="G$1" pin="A6" pad="B22"/>
<connect gate="G$1" pin="A7" pad="B21"/>
<connect gate="G$1" pin="A8" pad="A26"/>
<connect gate="G$1" pin="A9" pad="B27"/>
<connect gate="G$1" pin="D0" pad="A6"/>
<connect gate="G$1" pin="D1" pad="A7"/>
<connect gate="G$1" pin="D2" pad="A8"/>
<connect gate="G$1" pin="D3" pad="A11"/>
<connect gate="G$1" pin="D4" pad="A12"/>
<connect gate="G$1" pin="D5" pad="A10"/>
<connect gate="G$1" pin="D6" pad="A9"/>
<connect gate="G$1" pin="D7" pad="A3"/>
<connect gate="G$1" pin="GND@1" pad="B6"/>
<connect gate="G$1" pin="GND@2" pad="B7"/>
<connect gate="G$1" pin="GND@3" pad="B14"/>
<connect gate="G$1" pin="IORQGE" pad="B13"/>
<connect gate="G$1" pin="M1" pad="A24"/>
<connect gate="G$1" pin="U" pad="B18"/>
<connect gate="G$1" pin="V" pad="B17"/>
<connect gate="G$1" pin="VIDEO" pad="B15"/>
<connect gate="G$1" pin="Y" pad="B16"/>
</connects>
<technologies>
<technology name=""/>
</technologies>
</device>
<device name="-SMD" package="ZX_SMD">
<connects>
<connect gate="G$1" pin="+12V" pad="A22"/>
<connect gate="G$1" pin="+5V" pad="B3"/>
<connect gate="G$1" pin="+9V" pad="B4"/>
<connect gate="G$1" pin="-5V" pad="A20"/>
<connect gate="G$1" pin="/BUSACK" pad="B26"/>
<connect gate="G$1" pin="/BUSRQ" pad="B19"/>
<connect gate="G$1" pin="/CLK" pad="B8"/>
<connect gate="G$1" pin="/HALT" pad="A15"/>
<connect gate="G$1" pin="/INT" pad="A13"/>
<connect gate="G$1" pin="/IORQ" pad="A17"/>
<connect gate="G$1" pin="/MREQ" pad="A16"/>
<connect gate="G$1" pin="/NMI" pad="A14"/>
<connect gate="G$1" pin="/OE" pad="A4"/>
<connect gate="G$1" pin="/RD" pad="A18"/>
<connect gate="G$1" pin="/RFSH" pad="A25"/>
<connect gate="G$1" pin="/ROMCS" pad="B25"/>
<connect gate="G$1" pin="/RST" pad="B20"/>
<connect gate="G$1" pin="/WAIT" pad="A21"/>
<connect gate="G$1" pin="/WR" pad="A19"/>
<connect gate="G$1" pin="12VAC" pad="A23"/>
<connect gate="G$1" pin="A0" pad="B9"/>
<connect gate="G$1" pin="A1" pad="B10"/>
<connect gate="G$1" pin="A10" pad="A27"/>
<connect gate="G$1" pin="A11" pad="B28"/>
<connect gate="G$1" pin="A12" pad="B2"/>
<connect gate="G$1" pin="A13" pad="A2"/>
<connect gate="G$1" pin="A14" pad="B1"/>
<connect gate="G$1" pin="A15" pad="A1"/>
<connect gate="G$1" pin="A2" pad="B11"/>
<connect gate="G$1" pin="A3" pad="B12"/>
<connect gate="G$1" pin="A4" pad="B24"/>
<connect gate="G$1" pin="A5" pad="B23"/>
<connect gate="G$1" pin="A6" pad="B22"/>
<connect gate="G$1" pin="A7" pad="B21"/>
<connect gate="G$1" pin="A8" pad="A26"/>
<connect gate="G$1" pin="A9" pad="B27"/>
<connect gate="G$1" pin="D0" pad="A6"/>
<connect gate="G$1" pin="D1" pad="A7"/>
<connect gate="G$1" pin="D2" pad="A8"/>
<connect gate="G$1" pin="D3" pad="A11"/>
<connect gate="G$1" pin="D4" pad="A12"/>
<connect gate="G$1" pin="D5" pad="A10"/>
<connect gate="G$1" pin="D6" pad="A9"/>
<connect gate="G$1" pin="D7" pad="A3"/>
<connect gate="G$1" pin="GND@1" pad="B6"/>
<connect gate="G$1" pin="GND@2" pad="B7"/>
<connect gate="G$1" pin="GND@3" pad="B14"/>
<connect gate="G$1" pin="IORQGE" pad="B13"/>
<connect gate="G$1" pin="M1" pad="A24"/>
<connect gate="G$1" pin="U" pad="B18"/>
<connect gate="G$1" pin="V" pad="B17"/>
<connect gate="G$1" pin="VIDEO" pad="B15"/>
<connect gate="G$1" pin="Y" pad="B16"/>
</connects>
<technologies>
<technology name=""/>
</technologies>
</device>
</devices>
</deviceset>
</devicesets>
</library>
</drawing>
</eagle>
