eeprom:
                 +5, GND, TDO, TCK, TMS, TDI



AUX13(...)          AUX14(...)
AUX11(...)          AUX12(...)
AUX9(green,MISO,SO) AUX10(-)
AUX7(yellow,CLK)    AUX8(-)                   CPLD
AUX5(blue,MOSI,SI)  AUX6(-)
AUX3(white,CS)      AUX4(-)
AUX1(brown,RST)     AUX2(-)
GND (black)         +5  (-)



4
3
7
5
9
13

