%
M48
M72
T01C0.0118
T02C0.0236
T03C0.0320
T04C0.0354
T05C0.0394
T06C0.0512
T07C0.0551
T08C0.1024
%
T01
X612Y13092
X1517Y13998
X2541Y13840
X2935Y13289
X2502Y12305
X2738Y12147
X3171Y12147
X3092Y11360
X2226Y11281
X1399Y12147
X1635Y12305
X691Y11517
X848Y10100
X1399Y10179
X1635Y10336
X2502Y10336
X2738Y10179
X3210Y10415
X4470Y10927
X4982Y11360
X5336Y10651
X5927Y10297
X6320Y10415
X6439Y10966
X5966Y11084
X7305Y11202
X7974Y11872
X8210Y11281
X8801Y11084
X8013Y10572
X7580Y9824
X7147Y10376
X6793Y9706
X6911Y8919
X6596Y8880
X6281Y8880
X6045Y8683
X5809Y8880
X5494Y8801
X5454Y9588
X4470Y9628
X4667Y8958
X4982Y7935
X4628Y6872
X4194Y6202
X3171Y6202
X2974Y6596
X2462Y7108
X2698Y7344
X1675Y7108
X1675Y6793
X1320Y6360
X572Y5651
X1320Y4824
X32383Y13407
X32738Y24352
X28604Y21084
X29667Y21320
X29864Y20533
X30297Y19588
X30887Y19273
X31517Y19273
X32659Y19982
X32698Y21832
X30769Y22659
X28604Y22265
X1754Y25100
X769Y24076
X1124Y17305
X1950Y18328
X2659Y18801
X1360Y19628
X1281Y22344
X1872Y23683
X3092Y22620
X3683Y21872
X5257Y21006
X5297Y19824
X5691Y19667
X5927Y19431
X6163Y19234
X6399Y19470
X6557Y19746
X6872Y19746
X7147Y19864
X7305Y20179
X7620Y20297
X7305Y20612
X7659Y20809
X7659Y21281
X7069Y21281
X6872Y22187
X5494Y23289
X7029Y23604
X8565Y23486
X9628Y23368
X10887Y23919
X11439Y23092
X11675Y22856
X11084Y22738
X12305Y23013
X12502Y22738
X12777Y21911
X13013Y21360
X12777Y21163
X13328Y21281
X12305Y20572
X12226Y20021
X12383Y19667
X12738Y19352
X12856Y19706
X13210Y19352
X13683Y19352
X13998Y19391
X13643Y19667
X12777Y20257
X11832Y19470
X11635Y19943
X11596Y20257
X11360Y20454
X11320Y20769
X11006Y20612
X10691Y20730
X10927Y21006
X10415Y21163
X10218Y20887
X9706Y21006
X9903Y21242
X9391Y21360
X9076Y21320
X9037Y20848
X8604Y21202
X8525Y20454
X8446Y20139
X8446Y19824
X8446Y19509
X7856Y19628
X7659Y18919
X7738Y18604
X8565Y18525
X9588Y19234
X9588Y19706
X11006Y17856
X11360Y17738
X11281Y17423
X12305Y17580
X12541Y17383
X12777Y17580
X12856Y17265
X12580Y16872
X12738Y16596
X12502Y16399
X12817Y16045
X12580Y15572
X12462Y15297
X12147Y15966
X11163Y16084
X10887Y16360
X10100Y16006
X9549Y16202
X8998Y15533
X8368Y15415
X8998Y15021
X9549Y15257
X10139Y14864
X10572Y14431
X10927Y14824
X11124Y15494
X10809Y15769
X12147Y14549
X12541Y14509
X12147Y13919
X12305Y13643
X12305Y13328
X12147Y13053
X12620Y12698
X12147Y12029
X12344Y11793
X12147Y11360
X12344Y10887
X13407Y11320
X14194Y11320
X14116Y10454
X14313Y10179
X14628Y10179
X15218Y10376
X16478Y11399
X17502Y11045
X16911Y10376
X17344Y10179
X17659Y10179
X17974Y10179
X18289Y10179
X18919Y10218
X19234Y10218
X19431Y10769
X19037Y11675
X18131Y12265
X16911Y12344
X15848Y12383
X15061Y11754
X14943Y12856
X14155Y13565
X13486Y12895
X13525Y14431
X13250Y15257
X14155Y16084
X14313Y16990
X14116Y17226
X13880Y17423
X13604Y17305
X13407Y17541
X13250Y16911
X14509Y17462
X14943Y17541
X15415Y17383
X15848Y17580
X16163Y17305
X16478Y17265
X16478Y16950
X17029Y16793
X17265Y16990
X17502Y16793
X17738Y16990
X18368Y17108
X18722Y17580
X19037Y17580
X19549Y17029
X20061Y17856
X19785Y18053
X19549Y18289
X19431Y18801
X19785Y18801
X20572Y19076
X21320Y19667
X21439Y18998
X21242Y17856
X21675Y17502
X21281Y17344
X20572Y17423
X20572Y17108
X20572Y16793
X20572Y16006
X21399Y16163
X22069Y15809
X22462Y16163
X22935Y16163
X23407Y16163
X23880Y16163
X24352Y16163
X24903Y15966
X25612Y15612
X25927Y15612
X26360Y15966
X26006Y16360
X25454Y16675
X26714Y17029
X27344Y17108
X27659Y16163
X27147Y15612
X26832Y15612
X27502Y14706
X27817Y14273
X28446Y14706
X28683Y14155
X28683Y13840
X28683Y13525
X28683Y13210
X28683Y12895
X28368Y12265
X27817Y12856
X26950Y12187
X26439Y12777
X25494Y12462
X25376Y12895
X25061Y12895
X25061Y13210
X25061Y13525
X25061Y13840
X25572Y13840
X26557Y14628
X26911Y14194
X29273Y15533
X29352Y16360
X29746Y16911
X30297Y16517
X30533Y16832
X31399Y16675
X31399Y17226
X32305Y18013
X32698Y16596
X31478Y15218
X30612Y14864
X29628Y14155
X29588Y12265
X30218Y11950
X30809Y11950
X30415Y11163
X29785Y11281
X28525Y11281
X27502Y11281
X27502Y10218
X27187Y10218
X26872Y10218
X26557Y10218
X26242Y10218
X25927Y11124
X25612Y11124
X25061Y10651
X24509Y10966
X24194Y11635
X24194Y11950
X24194Y12265
X24194Y12580
X23880Y12856
X24076Y13092
X22935Y14234
X22738Y14628
X24037Y14588
X22580Y12738
X21517Y12147
X21124Y12698
X20572Y13368
X20572Y13958
X20533Y14549
X19470Y14037
X19273Y13722
X19549Y13565
X19549Y13250
X19116Y14352
X18958Y14628
X19155Y14903
X18958Y15139
X18643Y15139
X18919Y15612
X19155Y15809
X18604Y15730
X17580Y15691
X16439Y15612
X15809Y14864
X15100Y14509
X14982Y15218
X15533Y16399
X16439Y17580
X16360Y18604
X16675Y18643
X16360Y19470
X16006Y20139
X15061Y20533
X14509Y19785
X14391Y19391
X14982Y19470
X14706Y18801
X15336Y18604
X12817Y18801
X12187Y18486
X11714Y18525
X10100Y17147
X9549Y17147
X8998Y17147
X8446Y17147
X7935Y17029
X7659Y17265
X7541Y17580
X7029Y17147
X7344Y16950
X7895Y16517
X7502Y16163
X6714Y16045
X6872Y15415
X6950Y14706
X7502Y14746
X8053Y13958
X7620Y13761
X7383Y13131
X6675Y13053
X6202Y12974
X5966Y12580
X5454Y12265
X5021Y12659
X5336Y13053
X5966Y13368
X5061Y13998
X4431Y14155
X5336Y15100
X5966Y15376
X5966Y14785
X5061Y16320
X4431Y16754
X5179Y17383
X4824Y17423
X6124Y18210
X6360Y17226
X5966Y16360
X8407Y16242
X8604Y14549
X9194Y14076
X9746Y14234
X10376Y13604
X10730Y13919
X10769Y13210
X10415Y12935
X10061Y13250
X9391Y13092
X8998Y12029
X9706Y11990
X11163Y12344
X13486Y10454
X13171Y9194
X13840Y9194
X14155Y9194
X14470Y9155
X14785Y9194
X15139Y9194
X15809Y8565
X16557Y8565
X16399Y9194
X16872Y9194
X17580Y9116
X17895Y9155
X17738Y8840
X18289Y8722
X18407Y9155
X19352Y9194
X19746Y9549
X20533Y10139
X21124Y9037
X21202Y8565
X20887Y8565
X20179Y8013
X19982Y8958
X21478Y7580
X22029Y7580
X21517Y6557
X21832Y6439
X22305Y6399
X22620Y6399
X22935Y6399
X23013Y6714
X23092Y7226
X23092Y7935
X23880Y8446
X24194Y8722
X23919Y9194
X23210Y9037
X23210Y8722
X22698Y9234
X23643Y10848
X25376Y11714
X26281Y11754
X28486Y10218
X29076Y10179
X30100Y9352
X29194Y8958
X29785Y8092
X30376Y7344
X30809Y7187
X30809Y6714
X31045Y5533
X31281Y4824
X32541Y5691
X32777Y7226
X32502Y8053
X29155Y7344
X28210Y7226
X28171Y6675
X27147Y7580
X26596Y7580
X26517Y6557
X26754Y6360
X27029Y6478
X26124Y6320
X25809Y6675
X25651Y6399
X25336Y6990
X24982Y6714
X24509Y6754
X24234Y7029
X23958Y6163
X23643Y6163
X21281Y6163
X20966Y6163
X21006Y6635
X20691Y6714
X20179Y6990
X19155Y6242
X18289Y6242
X17620Y6596
X17305Y6557
X17029Y6399
X16754Y6596
X16281Y6557
X15966Y6478
X15454Y6478
X15533Y6163
X15179Y6242
X14155Y6360
X13998Y6793
X13604Y6675
X12856Y7226
X12856Y7935
X11793Y7580
X11242Y7580
X10218Y6754
X9982Y6950
X9116Y7187
X8407Y7344
X7974Y6714
X7620Y6714
X7620Y7029
X6675Y7580
X6124Y7580
X5848Y6596
X5809Y6281
X5494Y6202
X6124Y6163
X6675Y6439
X6360Y6557
X6832Y5494
X7423Y5494
X7108Y4785
X9706Y6124
X8722Y7935
X9116Y8525
X10297Y9352
X10376Y8525
X11439Y9431
X9746Y10297
X9037Y9549
X7895Y8643
X7738Y8368
X7738Y7935
X3328Y8801
X572Y8171
X533Y7187
X2069Y5494
X2147Y4864
X6635Y12423
X7029Y12265
X2659Y15454
X2738Y16950
X2659Y17698
X3998Y19431
X5139Y19076
X6911Y19431
X8446Y22108
X9234Y24982
X11045Y25100
X12738Y24982
X12305Y23604
X13289Y23525
X14194Y22187
X15691Y22305
X16439Y21399
X17856Y20572
X18683Y20494
X19431Y20730
X19943Y21281
X20257Y20533
X20257Y20218
X21754Y20691
X21754Y22147
X19431Y23053
X18643Y24549
X17580Y24037
X15730Y23880
X16754Y24903
X14667Y24943
X17069Y22817
X18368Y23092
X18131Y21360
X18131Y19352
X18919Y18604
X22069Y17069
X22935Y16950
X23407Y16950
X24234Y17069
X24588Y18998
X24352Y19628
X25691Y19667
X25691Y18998
X27305Y18998
X27817Y19628
X28565Y19273
X29076Y18525
X29943Y17974
X28289Y17620
X28525Y20100
X28880Y24785
X30651Y25100
X21360Y24903
X20061Y25061
X17620Y14470
X16399Y14234
X15966Y13722
X16754Y13368
X17502Y13565
X21596Y13880
X24667Y9037
X25572Y8683
X27029Y8919
X27344Y8919
X27580Y9155
X27541Y9706
X28092Y8880
X28210Y7935
X32187Y10376
X32541Y9588
X32777Y11793
X17974Y7935
X17974Y7226
X16911Y7580
X16360Y7580
X15179Y7187
X14431Y7265
X13998Y7580
X14076Y8092
X15139Y8053
X3761Y24588
X4943Y25061
X6872Y24943
T02
X2840Y23669
X3340Y23669
X3340Y24169
X2840Y24169
X3840Y24169
X4340Y24169
X4340Y23669
X3840Y23669
X4840Y23669
X4840Y24169
T03
X3340Y15848
X4340Y15848
X4340Y18210
X3340Y18210
X3340Y20572
X4340Y20572
T04
X7757Y22344
X7757Y24691
X13466Y24691
X13466Y22344
X16537Y23919
X19687Y23919
T05
X3840Y7080
X3840Y8080
X3840Y9037
X3840Y11320
X3840Y12395
X3840Y13395
X2895Y14549
X2069Y16950
X6202Y23919
X29391Y19352
X30080Y23801
X31852Y23801
X29785Y15809
X31202Y10730
X32187Y6596
X19194Y7080
X19194Y8080
T06
X29588Y22817
X32344Y22817
T07
X23840Y19313
X26596Y19313
T08
X2069Y8545
X2069Y20828
X31202Y20828
X31202Y8545
M30
